%YAML 1.1
%TAG !u! tag:unity3d.com,2011:
--- !u!1953259897 &8574412962073106934
TerrainLayer:
  m_ObjectHideFlags: 0
  m_CorrespondingSourceObject: {fileID: 0}
  m_PrefabInstance: {fileID: 0}
  m_PrefabAsset: {fileID: 0}
  m_Name: Gaia_-20210115-162317_5
  m_DiffuseTexture: {fileID: 2800000, guid: 1aec01d04426cd248acc98c5f28d7b4d, type: 3}
  m_NormalMapTexture: {fileID: 2800000, guid: 678c6be87e8ab044295da704e6b123c5, type: 3}
  m_MaskMapTexture: {fileID: 2800000, guid: 9688da9c93301f640b54a76d00c3b01c, type: 3}
  m_TileSize: {x: 2, y: 2}
  m_TileOffset: {x: 0, y: 0}
  m_Specular: {r: 0, g: 0, b: 0, a: 0}
  m_Metallic: 0
  m_Smoothness: 0
  m_NormalScale: 1
  m_DiffuseRemapMin: {x: 0, y: 0, z: 0, w: 0}
  m_DiffuseRemapMax: {x: 1, y: 1, z: 1, w: 1}
  m_MaskMapRemapMin: {x: 0, y: 0, z: 0, w: 0}
  m_MaskMapRemapMax: {x: 1, y: 1, z: 1, w: 1}
