%YAML 1.1
%TAG !u! tag:unity3d.com,2011:
--- !u!1953259897 &8574412962073106934
TerrainLayer:
  m_ObjectHideFlags: 0
  m_CorrespondingSourceObject: {fileID: 0}
  m_PrefabInstance: {fileID: 0}
  m_PrefabAsset: {fileID: 0}
  m_Name: Gaia_-20210115-162341_5
  m_DiffuseTexture: {fileID: 2800000, guid: 21450933ada8c4243af9e903a9cb0e5b, type: 3}
  m_NormalMapTexture: {fileID: 2800000, guid: 63cc63638b46e0c4b91ceea1d9cd1144, type: 3}
  m_MaskMapTexture: {fileID: 2800000, guid: a0e11f006b5609e44a90110b8404e716, type: 3}
  m_TileSize: {x: 15, y: 15}
  m_TileOffset: {x: 0, y: 0}
  m_Specular: {r: 0, g: 0, b: 0, a: 0}
  m_Metallic: 0
  m_Smoothness: 0
  m_NormalScale: 1.03
  m_DiffuseRemapMin: {x: 0, y: 0, z: 0, w: 0}
  m_DiffuseRemapMax: {x: 1, y: 1, z: 1, w: 1}
  m_MaskMapRemapMin: {x: 0, y: 0, z: 0, w: 0}
  m_MaskMapRemapMax: {x: 1, y: 1, z: 1, w: 1}
