%YAML 1.1
%TAG !u! tag:unity3d.com,2011:
--- !u!114 &11400000
MonoBehaviour:
  m_ObjectHideFlags: 0
  m_CorrespondingSourceObject: {fileID: 0}
  m_PrefabInstance: {fileID: 0}
  m_PrefabAsset: {fileID: 0}
  m_GameObject: {fileID: 0}
  m_Enabled: 1
  m_EditorHideFlags: 0
  m_Script: {fileID: 11500000, guid: 7fb348b92be0d544c94139d9cd5c3b93, type: 3}
  m_Name: CTS_Alpine_Meadow_Profile
  m_EditorClassIdentifier: 
  m_ctsMajorVersion: 2019
  m_ctsMinorVersion: 1
  m_ctsPatchVersion: 6
  m_useMaterialControlBlock: 0
  m_showGlobalSettings: 1
  m_showSnowSettings: 0
  m_showTextureSettings: 1
  m_showGeoSettings: 0
  m_showDetailSettings: 0
  m_showColorMapSettings: 0
  m_showOptimisationSettings: 0
  m_ctsDirectory: Assets\Procedural Worlds\CTS/
  m_shaderType: 2
  m_currentRenderPipelineType: 0
  m_globalUvMixPower: 3
  m_globalUvMixStartDistance: 400
  m_globalNormalPower: 0.1
  m_globalDetailNormalClosePower: 1
  m_globalDetailNormalCloseTiling: 60
  m_globalDetailNormalFarPower: 1
  m_globalDetailNormalFarTiling: 300
  m_globalTerrainSmoothness: 1
  m_globalTerrainSpecular: 1
  m_globalTesselationPower: 7
  m_globalTesselationMinDistance: 0
  m_globalTesselationMaxDistance: 50
  m_globalTesselationPhongStrength: 1
  m_globalAOType: 1
  m_globalAOPower: 1
  m_globalBasemapDistance: 1000
  m_globalStripTexturesAtRuntime: 0
  m_drawInstanced: 1
  m_renderQueue: -1
  ignoreInstancedWarningPopUp: 0
  m_terrainLayerPath: 
  m_colorMapClosePower: 0
  m_colorMapFarPower: 0
  m_colorMapOpacity: 1
  m_geoMapCloseOffset: 0.028
  m_geoMapClosePower: 0.05
  m_geoMapTilingClose: 142
  m_geoMapFarOffset: 0
  m_geoMapFarPower: 0.05
  m_geoMapTilingFar: 100
  m_snowAmount: 0.001
  m_snowMaxAngle: 22.9
  m_snowMaxAngleHardness: 1
  m_snowMinHeight: 145
  m_snowMinHeightBlending: 27
  m_snowNoisePower: 0.8
  m_snowNoiseTiling: 0.02
  m_snowNormalScale: 1
  m_snowDetailPower: 1
  m_snowTilingClose: 6.9
  m_snowTilingFar: 3
  m_snowBrightness: 1
  m_snowBlendNormal: 0.9
  m_snowSmoothness: 1
  m_snowTint: {r: 1, g: 1, b: 1, a: 1}
  m_snowSpecular: 1
  m_snowHeightmapBlendClose: 1
  m_snowHeightmapBlendFar: 1
  m_snowHeightmapDepth: 8
  m_snowHeightmapContrast: 1
  m_snowHeightmapMinValue: 0.18039216
  m_snowHeightmapMaxValue: 0.5019608
  m_snowTesselationDepth: 0
  m_snowAOStrength: 1
  m_snowAverage: {x: 0.5972019, y: 0.5711249, z: 0.61720663, w: 0.17254902}
  terrainLayerAssetRebuild: 1
  m_albedoFormat: 12
  m_albedoAniso: 8
  m_albedoFilterMode: 1
  m_albedoTextureSize: 4
  m_albedoTextureSizePx: 1024
  m_albedoCompress: 1
  m_normalFormat: 12
  m_normalAniso: 8
  m_normalFilterMode: 1
  m_normalTextureSize: 4
  m_normalTextureSizePx: 1024
  m_normalCompress: 1
  m_globalDetailNormalMapIdx: 9
  m_globalDetailNormalMap: {fileID: 2800000, guid: 34f66994040def1499e148b92d4f3b07,
    type: 3}
  m_snowAlbedoTextureIdx: 16
  m_snowAlbedoTexture: {fileID: 2800000, guid: e3d23591e079b694dbef7559cff1c714, type: 3}
  m_snowNormalTextureIdx: 8
  m_snowNormalTexture: {fileID: 2800000, guid: f60384dc9bf570a4990afa5ced417875, type: 3}
  m_snowHeightTextureIdx: 17
  m_snowHeightTexture: {fileID: 2800000, guid: 3c71b7b7f14f6cc4496ae84fa7177113, type: 3}
  m_snowAOTextureIdx: 17
  m_snowAOTexture: {fileID: 2800000, guid: 24fe1b9740d909842b94faaf0f579437, type: 3}
  m_snowEmissionTextureIdx: -1
  m_snowEmissionTexture: {fileID: 0}
  m_snowGlitterTexture: {fileID: 2800000, guid: 0dd347c4b5067a2428dea9a70c418d05,
    type: 3}
  m_snowGlitterColorPower: 0.2
  m_snowGlitterNoiseThreshold: 0.991
  m_snowGlitterSpecularPower: 0.2
  m_snowGlitterSmoothness: 0.9
  m_snowGlitterRefreshSpeed: 4
  m_snowGlitterTiling: 2.5
  m_geoAlbedoTexture: {fileID: 2800000, guid: a8b026679658e0a458404f9f86468a66, type: 3}
  m_terrainTextures:
  - m_isOpenInEditor: 1
    m_textureIdx: 0
    m_name: T_Ground_Sand_02_A_Sm
    m_detailPower: 1
    m_snowReductionPower: 0
    m_geologicalPower: 1
    m_triplanar: 0
    m_tint: {r: 1, g: 1, b: 1, a: 1}
    m_tintBrightness: 1
    m_smoothness: 1
    m_albedoIdx: 0
    m_albedoTilingClose: 12
    m_albedoTilingFar: 3
    m_albedoAverage: {x: 0.47932023, y: 0.39157256, z: 0.27467737, w: 0.2627451}
    m_albedoTexture: {fileID: 2800000, guid: ae548727ed0abc645ad76b70534ca74f, type: 3}
    m_smoothnessTexture: {fileID: 0}
    m_roughnessTexture: {fileID: 0}
    m_normalIdx: 0
    m_normalStrength: 1
    m_normalTexture: {fileID: 2800000, guid: 78e598f8d69ec7e4cb840837fea58ed0, type: 3}
    m_heightIdx: 1
    m_heightDepth: 8
    m_heightContrast: 2
    m_heightBlendClose: 1
    m_heightBlendFar: 1
    m_heightTesselationDepth: 0
    m_heightMin: 0.0627451
    m_heightMax: 0.9843137
    m_heightTexture: {fileID: 2800000, guid: 65e3f7fea0f95334db0c322a4e1d99ef, type: 3}
    m_aoIdx: -1
    m_aoPower: 1
    m_aoTexture: {fileID: 0}
    m_emissionIdx: -1
    m_emissionStrength: 1
    m_emissionTexture: {fileID: 0}
  - m_isOpenInEditor: 1
    m_textureIdx: 1
    m_name: PW_Stone_Grey_01_Cliff_D
    m_detailPower: 1
    m_snowReductionPower: 0
    m_geologicalPower: 1
    m_triplanar: 1
    m_tint: {r: 1, g: 1, b: 1, a: 1}
    m_tintBrightness: 1
    m_smoothness: 1
    m_albedoIdx: 2
    m_albedoTilingClose: 15
    m_albedoTilingFar: 3
    m_albedoAverage: {x: 0.1620294, y: 0.1499598, z: 0.14412849, w: 0.09019608}
    m_albedoTexture: {fileID: 2800000, guid: 86dec3e434b4b5948a30b2bc0bb4b627, type: 3}
    m_smoothnessTexture: {fileID: 0}
    m_roughnessTexture: {fileID: 0}
    m_normalIdx: 1
    m_normalStrength: 1
    m_normalTexture: {fileID: 2800000, guid: 7c973ca0e7e2e8842901012d96aaa40a, type: 3}
    m_heightIdx: 3
    m_heightDepth: 0.4
    m_heightContrast: 7
    m_heightBlendClose: 1
    m_heightBlendFar: 1
    m_heightTesselationDepth: 0
    m_heightMin: 0.10980392
    m_heightMax: 1
    m_heightTexture: {fileID: 2800000, guid: b9bcaa6f1712522479e25661eb7dfa4c, type: 3}
    m_aoIdx: -1
    m_aoPower: 1
    m_aoTexture: {fileID: 0}
    m_emissionIdx: -1
    m_emissionStrength: 1
    m_emissionTexture: {fileID: 0}
  - m_isOpenInEditor: 1
    m_textureIdx: 2
    m_name: PWT_Grass_03_Dark_D
    m_detailPower: 1
    m_snowReductionPower: 0
    m_geologicalPower: 1
    m_triplanar: 0
    m_tint: {r: 1, g: 1, b: 1, a: 1}
    m_tintBrightness: 1
    m_smoothness: 1
    m_albedoIdx: 4
    m_albedoTilingClose: 2
    m_albedoTilingFar: 3
    m_albedoAverage: {x: 0.05448028, y: 0.06124607, z: 0.009134057, w: 0.08627451}
    m_albedoTexture: {fileID: 2800000, guid: 8aeee82e568afb240a2ed53c1318d80b, type: 3}
    m_smoothnessTexture: {fileID: 0}
    m_roughnessTexture: {fileID: 0}
    m_normalIdx: 2
    m_normalStrength: 1
    m_normalTexture: {fileID: 2800000, guid: c0ff98ace5cd21d48b8c8ad2adcf4fd9, type: 3}
    m_heightIdx: 5
    m_heightDepth: 4
    m_heightContrast: 2
    m_heightBlendClose: 1
    m_heightBlendFar: 1
    m_heightTesselationDepth: 0
    m_heightMin: 0.10980392
    m_heightMax: 1
    m_heightTexture: {fileID: 2800000, guid: e71bdbf41a9367845891536d5e76e8a9, type: 3}
    m_aoIdx: -1
    m_aoPower: 1
    m_aoTexture: {fileID: 0}
    m_emissionIdx: -1
    m_emissionStrength: 1
    m_emissionTexture: {fileID: 0}
  - m_isOpenInEditor: 1
    m_textureIdx: 3
    m_name: PW_Grass_Mountain_01_D
    m_detailPower: 1
    m_snowReductionPower: 0
    m_geologicalPower: 1
    m_triplanar: 0
    m_tint: {r: 1, g: 1, b: 1, a: 1}
    m_tintBrightness: 0.7
    m_smoothness: 1
    m_albedoIdx: 6
    m_albedoTilingClose: 1
    m_albedoTilingFar: 3
    m_albedoAverage: {x: 0.07818743, y: 0.10224175, z: 0.049706563, w: 0.07058824}
    m_albedoTexture: {fileID: 2800000, guid: c3166f2f83b429e49ad4ad09c5c027da, type: 3}
    m_smoothnessTexture: {fileID: 0}
    m_roughnessTexture: {fileID: 0}
    m_normalIdx: 3
    m_normalStrength: 1
    m_normalTexture: {fileID: 2800000, guid: 735028648145d2246821d251a2eecc72, type: 3}
    m_heightIdx: 7
    m_heightDepth: 2.5
    m_heightContrast: 5.8
    m_heightBlendClose: 1
    m_heightBlendFar: 1
    m_heightTesselationDepth: 0
    m_heightMin: 0.10980392
    m_heightMax: 1
    m_heightTexture: {fileID: 2800000, guid: 4fdd3c091dcdf394ebdad1892b5f5b2e, type: 3}
    m_aoIdx: -1
    m_aoPower: 1
    m_aoTexture: {fileID: 0}
    m_emissionIdx: -1
    m_emissionStrength: 1
    m_emissionTexture: {fileID: 0}
  - m_isOpenInEditor: 1
    m_textureIdx: 4
    m_name: PW_Forest_Path_D
    m_detailPower: 1
    m_snowReductionPower: 0
    m_geologicalPower: 1
    m_triplanar: 0
    m_tint: {r: 1, g: 1, b: 1, a: 1}
    m_tintBrightness: 1
    m_smoothness: 1
    m_albedoIdx: 8
    m_albedoTilingClose: 3
    m_albedoTilingFar: 3
    m_albedoAverage: {x: 0.13013649, y: 0.084376216, z: 0.07227186, w: 0.08235294}
    m_albedoTexture: {fileID: 2800000, guid: a932f95468a81b048b51d83dde5ddc30, type: 3}
    m_smoothnessTexture: {fileID: 0}
    m_roughnessTexture: {fileID: 0}
    m_normalIdx: 4
    m_normalStrength: 1
    m_normalTexture: {fileID: 2800000, guid: f2bd79b98e582954ca47db8998dbaaac, type: 3}
    m_heightIdx: 9
    m_heightDepth: 6.5
    m_heightContrast: 3.5
    m_heightBlendClose: 1
    m_heightBlendFar: 1
    m_heightTesselationDepth: 0
    m_heightMin: 0.4862745
    m_heightMax: 0.90588236
    m_heightTexture: {fileID: 2800000, guid: 6743b955bd385bc489111c69d8b76100, type: 3}
    m_aoIdx: -1
    m_aoPower: 1
    m_aoTexture: {fileID: 0}
    m_emissionIdx: -1
    m_emissionStrength: 1
    m_emissionTexture: {fileID: 0}
  - m_isOpenInEditor: 1
    m_textureIdx: 5
    m_name: PW_Ground_Forest_Sequia_01_D
    m_detailPower: 1
    m_snowReductionPower: 0
    m_geologicalPower: 1
    m_triplanar: 0
    m_tint: {r: 1, g: 1, b: 1, a: 1}
    m_tintBrightness: 1
    m_smoothness: 1
    m_albedoIdx: 10
    m_albedoTilingClose: 2
    m_albedoTilingFar: 3
    m_albedoAverage: {x: 0.06847818, y: 0.045186203, z: 0.038204364, w: 0.05490196}
    m_albedoTexture: {fileID: 2800000, guid: 1aec01d04426cd248acc98c5f28d7b4d, type: 3}
    m_smoothnessTexture: {fileID: 0}
    m_roughnessTexture: {fileID: 0}
    m_normalIdx: 5
    m_normalStrength: 1
    m_normalTexture: {fileID: 2800000, guid: 678c6be87e8ab044295da704e6b123c5, type: 3}
    m_heightIdx: 11
    m_heightDepth: 6
    m_heightContrast: 4
    m_heightBlendClose: 1
    m_heightBlendFar: 1
    m_heightTesselationDepth: 0
    m_heightMin: 0
    m_heightMax: 1
    m_heightTexture: {fileID: 2800000, guid: b36fbee0e26d16f47b902c75cbf50a91, type: 3}
    m_aoIdx: -1
    m_aoPower: 1
    m_aoTexture: {fileID: 0}
    m_emissionIdx: -1
    m_emissionStrength: 1
    m_emissionTexture: {fileID: 0}
  - m_isOpenInEditor: 1
    m_textureIdx: 6
    m_name: PW_Stone_Grey_02_Cliff_Moss_D
    m_detailPower: 1
    m_snowReductionPower: 0
    m_geologicalPower: 1
    m_triplanar: 1
    m_tint: {r: 1, g: 1, b: 1, a: 1}
    m_tintBrightness: 1
    m_smoothness: 1
    m_albedoIdx: 12
    m_albedoTilingClose: 12
    m_albedoTilingFar: 3
    m_albedoAverage: {x: 0.13843162, y: 0.12477184, z: 0.10946172, w: 0.1764706}
    m_albedoTexture: {fileID: 2800000, guid: 21450933ada8c4243af9e903a9cb0e5b, type: 3}
    m_smoothnessTexture: {fileID: 0}
    m_roughnessTexture: {fileID: 0}
    m_normalIdx: 6
    m_normalStrength: 1
    m_normalTexture: {fileID: 2800000, guid: 63cc63638b46e0c4b91ceea1d9cd1144, type: 3}
    m_heightIdx: 13
    m_heightDepth: 1.8
    m_heightContrast: 3.25
    m_heightBlendClose: 1
    m_heightBlendFar: 1
    m_heightTesselationDepth: 0
    m_heightMin: 0
    m_heightMax: 1
    m_heightTexture: {fileID: 2800000, guid: 7773088b11d17b94a821bc50eac6017f, type: 3}
    m_aoIdx: -1
    m_aoPower: 1
    m_aoTexture: {fileID: 0}
    m_emissionIdx: -1
    m_emissionStrength: 1
    m_emissionTexture: {fileID: 0}
  - m_isOpenInEditor: 1
    m_textureIdx: 7
    m_name: PW_SnowCover_D
    m_detailPower: 1
    m_snowReductionPower: 0
    m_geologicalPower: 1
    m_triplanar: 0
    m_tint: {r: 1, g: 1, b: 1, a: 1}
    m_tintBrightness: 1
    m_smoothness: 1
    m_albedoIdx: 14
    m_albedoTilingClose: 7
    m_albedoTilingFar: 3
    m_albedoAverage: {x: 0.5972019, y: 0.63759696, z: 0.71569365, w: 0.1882353}
    m_albedoTexture: {fileID: 2800000, guid: 9c3c5b0ec643d45449ebbae45215ea5f, type: 3}
    m_smoothnessTexture: {fileID: 0}
    m_roughnessTexture: {fileID: 0}
    m_normalIdx: 7
    m_normalStrength: 1
    m_normalTexture: {fileID: 2800000, guid: 4eeef42163de5e04da31879a9ad0e025, type: 3}
    m_heightIdx: 15
    m_heightDepth: 8
    m_heightContrast: 1
    m_heightBlendClose: 1
    m_heightBlendFar: 1
    m_heightTesselationDepth: 0
    m_heightMin: 0.050980393
    m_heightMax: 1
    m_heightTexture: {fileID: 2800000, guid: 4b32aed25015c1d4a8f941ca67811eba, type: 3}
    m_aoIdx: -1
    m_aoPower: 1
    m_aoTexture: {fileID: 0}
    m_emissionIdx: -1
    m_emissionStrength: 1
    m_emissionTexture: {fileID: 0}
  m_replacementTerrainAlbedos: []
  m_replacementTerrainNormals: []
  m_albedosTextureArray: {fileID: 18700000, guid: 0fe8bd2d59bc6f84e8e91fc8849fbb02,
    type: 2}
  m_needsAlbedosArrayUpdate: 0
  m_normalsTextureArray: {fileID: 18700000, guid: 379247decdb386a45a76572b7a899848,
    type: 2}
  m_needsNormalsArrayUpdate: 0
  cachedTerrainLayers:
  - {fileID: 8574412962073106934, guid: 229c86412d47b3b4c989aa895b2b19a4, type: 2}
  - {fileID: 8574412962073106934, guid: 991e67cf8e3c0f44a80c22e3edd23567, type: 2}
  - {fileID: 8574412962073106934, guid: d28758f7ace862b4490dd79b68b4ec78, type: 2}
  - {fileID: 8574412962073106934, guid: d4169440543e903428ec8cd9fbfeee5b, type: 2}
  - {fileID: 8574412962073106934, guid: 2ed06f8cc0ebd7a4f8af2c93f41f9500, type: 2}
  - {fileID: 8574412962073106934, guid: 479e2f7d3644a3940a53d5713aa15582, type: 2}
  - {fileID: 8574412962073106934, guid: 95f2f893c1d459c4b82d502fcbc7873b, type: 2}
  - {fileID: 8574412962073106934, guid: 1d7fdfd31d152c54b9c44539eb435477, type: 2}
