%YAML 1.1
%TAG !u! tag:unity3d.com,2011:
--- !u!114 &11400000
MonoBehaviour:
  m_ObjectHideFlags: 0
  m_CorrespondingSourceObject: {fileID: 0}
  m_PrefabInstance: {fileID: 0}
  m_PrefabAsset: {fileID: 0}
  m_GameObject: {fileID: 0}
  m_Enabled: 1
  m_EditorHideFlags: 0
  m_Script: {fileID: 11500000, guid: f1d61257710f55f478816040e1d1dfc9, type: 3}
  m_Name: Coniferous Forest-Stone
  m_EditorClassIdentifier: 
  m_resources:
    m_resourcesID: 1b8b07dd-1c4b-4306-92e9-ba5c1d33934a
    m_name: NewResources
    m_beachHeight: 5
    m_terrainHeight: 1000
    m_texturePrototypes:
    - m_name: New Texture 1
      m_texture: {fileID: 0}
      m_textureFileName: 
      m_normal: {fileID: 0}
      m_maskmap: {fileID: 0}
      m_CTSSmoothnessMap: {fileID: 0}
      m_CTSRoughnessMap: {fileID: 0}
      m_CTSHeightMap: {fileID: 0}
      m_CTSAmbientOcclusionMap: {fileID: 0}
      m_normalFileName: 
      m_sizeX: 10
      m_sizeY: 10
      m_offsetX: 0
      m_offsetY: 0
      m_metallic: 0.5
      m_smoothness: 0.5
      m_spawnCriteria: []
      m_LayerGUID: 
      m_normalScale: 0
      m_diffuseRemapMax: {x: 1, y: 1, z: 1, w: 1}
      m_diffuseRemapMin: {x: 0, y: 0, z: 0, w: 0}
      m_maskMapRemapMax: {x: 1, y: 1, z: 1, w: 1}
      m_maskMapRemapMin: {x: 0, y: 0, z: 0, w: 0}
      m_specularColor: {r: 0, g: 0, b: 0, a: 0}
      m_channelRemapFoldedOut: 0
    m_detailPrototypes: []
    m_treePrototypes: []
    m_gameObjectPrototypes:
    - m_name: PW_Stone_01
      m_instances:
      - m_name: PW_Stone_01
        m_desktopPrefab: {fileID: 3242204568188846338, guid: 35348ac853f10584a9e52b978af197f9,
          type: 3}
        m_desktopPrefabFileName: 
        m_minInstances: 1
        m_maxInstances: 1
        m_failureRate: 0
        m_minSpawnOffsetX: 0
        m_maxSpawnOffsetX: 0
        m_minSpawnOffsetY: -0.3
        m_maxSpawnOffsetY: -0.1
        m_minSpawnOffsetZ: 0
        m_maxSpawnOffsetZ: 0
        m_rotateToSlope: 0
        m_yOffsetToSlope: 0
        m_minRotationOffsetX: 0
        m_maxRotationOffsetX: 154.64308
        m_minRotationOffsetY: 0
        m_maxRotationOffsetY: 180
        m_minRotationOffsetZ: 0
        m_maxRotationOffsetZ: 158.28174
        m_minScale: 1
        m_maxScale: 1.5
        m_scaleByDistance:
          serializedVersion: 2
          m_Curve:
          - serializedVersion: 3
            time: 0
            value: 1
            inSlope: 0
            outSlope: 0
            tangentMode: 0
            weightedMode: 0
            inWeight: 0
            outWeight: 0
          - serializedVersion: 3
            time: 1
            value: 1
            inSlope: 0
            outSlope: 0
            tangentMode: 0
            weightedMode: 0
            inWeight: 0
            outWeight: 0
          m_PreInfinity: 2
          m_PostInfinity: 2
          m_RotationOrder: 4
        m_localBounds: 5
        m_virginTerrain: 1
        m_extParam: 
        m_spawnScale: 3
        m_commonScale: 1
        m_minXYZScale: {x: 0.75, y: 0.75, z: 0.75}
        m_maxXYZScale: {x: 1.5, y: 1.5, z: 1.5}
        m_scaleRandomPercentage: 0.5
        m_XYZScaleRandomPercentage: {x: 0.5, y: 0.5, z: 0.5}
        m_foldedOut: 1
      m_dna:
        m_boundsRadius: 1
        m_scaleMultiplier: 1
        m_extParam: 
        m_protoIdx: 0
      m_spawnCriteria: []
      m_spawnExtensions: []
      m_canSpawnAsTree: 0
      m_instancesFoldOut: 1
      m_dnaFoldedOut: 0
    - m_name: PW_Stone_01_ Moss
      m_instances:
      - m_name: PW_Stone_01_ Moss
        m_desktopPrefab: {fileID: 2886385177403745875, guid: d9d0c3d5490f2f542b8ecb4b0b81f89e,
          type: 3}
        m_desktopPrefabFileName: 
        m_minInstances: 1
        m_maxInstances: 1
        m_failureRate: 0
        m_minSpawnOffsetX: 0
        m_maxSpawnOffsetX: 0
        m_minSpawnOffsetY: -0.3
        m_maxSpawnOffsetY: -0.1
        m_minSpawnOffsetZ: 0
        m_maxSpawnOffsetZ: 0
        m_rotateToSlope: 0
        m_yOffsetToSlope: 0
        m_minRotationOffsetX: 0
        m_maxRotationOffsetX: 141.90778
        m_minRotationOffsetY: 0
        m_maxRotationOffsetY: 180
        m_minRotationOffsetZ: 0
        m_maxRotationOffsetZ: 156.46242
        m_minScale: 1
        m_maxScale: 1.5
        m_scaleByDistance:
          serializedVersion: 2
          m_Curve:
          - serializedVersion: 3
            time: 0
            value: 1
            inSlope: 0
            outSlope: 0
            tangentMode: 0
            weightedMode: 0
            inWeight: 0
            outWeight: 0
          - serializedVersion: 3
            time: 1
            value: 1
            inSlope: 0
            outSlope: 0
            tangentMode: 0
            weightedMode: 0
            inWeight: 0
            outWeight: 0
          m_PreInfinity: 2
          m_PostInfinity: 2
          m_RotationOrder: 4
        m_localBounds: 5
        m_virginTerrain: 1
        m_extParam: 
        m_spawnScale: 3
        m_commonScale: 1
        m_minXYZScale: {x: 0.75, y: 0.75, z: 0.75}
        m_maxXYZScale: {x: 1.5, y: 1.5, z: 1.5}
        m_scaleRandomPercentage: 0.5
        m_XYZScaleRandomPercentage: {x: 0.5, y: 0.5, z: 0.5}
        m_foldedOut: 1
      m_dna:
        m_boundsRadius: 1
        m_scaleMultiplier: 1
        m_extParam: 
        m_protoIdx: 0
      m_spawnCriteria: []
      m_spawnExtensions: []
      m_canSpawnAsTree: 0
      m_instancesFoldOut: 1
      m_dnaFoldedOut: 0
    - m_name: PW_Stone_Granite_03_01
      m_instances:
      - m_name: PW_Stone_Granite_03_01
        m_desktopPrefab: {fileID: 493484390007123152, guid: c6430c4024dbab2439b95b50ad84042d,
          type: 3}
        m_desktopPrefabFileName: 
        m_minInstances: 1
        m_maxInstances: 1
        m_failureRate: 0
        m_minSpawnOffsetX: 0
        m_maxSpawnOffsetX: 0
        m_minSpawnOffsetY: -0.3
        m_maxSpawnOffsetY: -0.1
        m_minSpawnOffsetZ: 0
        m_maxSpawnOffsetZ: 0
        m_rotateToSlope: 0
        m_yOffsetToSlope: 0
        m_minRotationOffsetX: 0
        m_maxRotationOffsetX: 0
        m_minRotationOffsetY: 0
        m_maxRotationOffsetY: 180
        m_minRotationOffsetZ: 0
        m_maxRotationOffsetZ: 0
        m_minScale: 1
        m_maxScale: 1.5
        m_scaleByDistance:
          serializedVersion: 2
          m_Curve:
          - serializedVersion: 3
            time: 0
            value: 1
            inSlope: 0
            outSlope: 0
            tangentMode: 0
            weightedMode: 0
            inWeight: 0
            outWeight: 0
          - serializedVersion: 3
            time: 1
            value: 1
            inSlope: 0
            outSlope: 0
            tangentMode: 0
            weightedMode: 0
            inWeight: 0
            outWeight: 0
          m_PreInfinity: 2
          m_PostInfinity: 2
          m_RotationOrder: 4
        m_localBounds: 5
        m_virginTerrain: 1
        m_extParam: 
        m_spawnScale: 3
        m_commonScale: 1
        m_minXYZScale: {x: 0.75, y: 0.75, z: 0.75}
        m_maxXYZScale: {x: 1.5, y: 1.5, z: 1.5}
        m_scaleRandomPercentage: 0.5
        m_XYZScaleRandomPercentage: {x: 0.5, y: 0.5, z: 0.5}
        m_foldedOut: 1
      m_dna:
        m_boundsRadius: 1
        m_scaleMultiplier: 1
        m_extParam: 
        m_protoIdx: 0
      m_spawnCriteria: []
      m_spawnExtensions: []
      m_canSpawnAsTree: 0
      m_instancesFoldOut: 1
      m_dnaFoldedOut: 0
    - m_name: PW_Stone_Granite_03
      m_instances:
      - m_name: PW_Stone_Granite_03
        m_desktopPrefab: {fileID: 1908502226180160634, guid: 78bcf2a04f16b614e894d0d335ea3c07,
          type: 3}
        m_desktopPrefabFileName: 
        m_minInstances: 1
        m_maxInstances: 1
        m_failureRate: 0
        m_minSpawnOffsetX: 0
        m_maxSpawnOffsetX: 0
        m_minSpawnOffsetY: -0.3
        m_maxSpawnOffsetY: -0.1
        m_minSpawnOffsetZ: 0
        m_maxSpawnOffsetZ: 0
        m_rotateToSlope: 0
        m_yOffsetToSlope: 0
        m_minRotationOffsetX: 0
        m_maxRotationOffsetX: 158.28174
        m_minRotationOffsetY: 0
        m_maxRotationOffsetY: 180
        m_minRotationOffsetZ: 0
        m_maxRotationOffsetZ: 158.28174
        m_minScale: 1
        m_maxScale: 2
        m_scaleByDistance:
          serializedVersion: 2
          m_Curve:
          - serializedVersion: 3
            time: 0
            value: 1
            inSlope: 0
            outSlope: 0
            tangentMode: 0
            weightedMode: 0
            inWeight: 0
            outWeight: 0
          - serializedVersion: 3
            time: 1
            value: 1
            inSlope: 0
            outSlope: 0
            tangentMode: 0
            weightedMode: 0
            inWeight: 0
            outWeight: 0
          m_PreInfinity: 2
          m_PostInfinity: 2
          m_RotationOrder: 4
        m_localBounds: 5
        m_virginTerrain: 1
        m_extParam: 
        m_spawnScale: 3
        m_commonScale: 1
        m_minXYZScale: {x: 0.75, y: 0.75, z: 0.75}
        m_maxXYZScale: {x: 1.5, y: 1.5, z: 1.5}
        m_scaleRandomPercentage: 0.5
        m_XYZScaleRandomPercentage: {x: 0.5, y: 0.5, z: 0.5}
        m_foldedOut: 1
      m_dna:
        m_boundsRadius: 1
        m_scaleMultiplier: 1
        m_extParam: 
        m_protoIdx: 0
      m_spawnCriteria: []
      m_spawnExtensions: []
      m_canSpawnAsTree: 0
      m_instancesFoldOut: 1
      m_dnaFoldedOut: 0
    - m_name: PW_Stone_Granite_03_02_Moss
      m_instances:
      - m_name: PW_Stone_Granite_03_02_Moss
        m_desktopPrefab: {fileID: 4160956284196288818, guid: 637b9c2bc3899fd458191124c663e0bf,
          type: 3}
        m_desktopPrefabFileName: 
        m_minInstances: 1
        m_maxInstances: 1
        m_failureRate: 0
        m_minSpawnOffsetX: 0
        m_maxSpawnOffsetX: 0
        m_minSpawnOffsetY: -0.3
        m_maxSpawnOffsetY: -0.1
        m_minSpawnOffsetZ: 0
        m_maxSpawnOffsetZ: 0
        m_rotateToSlope: 0
        m_yOffsetToSlope: 0
        m_minRotationOffsetX: 0
        m_maxRotationOffsetX: 161.9204
        m_minRotationOffsetY: 0
        m_maxRotationOffsetY: 180
        m_minRotationOffsetZ: 0
        m_maxRotationOffsetZ: 169.19772
        m_minScale: 1
        m_maxScale: 1.5
        m_scaleByDistance:
          serializedVersion: 2
          m_Curve:
          - serializedVersion: 3
            time: 0
            value: 1
            inSlope: 0
            outSlope: 0
            tangentMode: 0
            weightedMode: 0
            inWeight: 0
            outWeight: 0
          - serializedVersion: 3
            time: 1
            value: 1
            inSlope: 0
            outSlope: 0
            tangentMode: 0
            weightedMode: 0
            inWeight: 0
            outWeight: 0
          m_PreInfinity: 2
          m_PostInfinity: 2
          m_RotationOrder: 4
        m_localBounds: 5
        m_virginTerrain: 1
        m_extParam: 
        m_spawnScale: 3
        m_commonScale: 1
        m_minXYZScale: {x: 0.75, y: 0.75, z: 0.75}
        m_maxXYZScale: {x: 1.5, y: 1.5, z: 1.5}
        m_scaleRandomPercentage: 0.5
        m_XYZScaleRandomPercentage: {x: 0.5, y: 0.5, z: 0.5}
        m_foldedOut: 1
      m_dna:
        m_boundsRadius: 1
        m_scaleMultiplier: 1
        m_extParam: 
        m_protoIdx: 0
      m_spawnCriteria: []
      m_spawnExtensions: []
      m_canSpawnAsTree: 0
      m_instancesFoldOut: 1
      m_dnaFoldedOut: 0
    - m_name: PW_Stone_05
      m_instances:
      - m_name: PW_Stone_05
        m_desktopPrefab: {fileID: 364788623723675844, guid: 22f27713b52ffc049bd3680b8996cd6e,
          type: 3}
        m_desktopPrefabFileName: 
        m_minInstances: 1
        m_maxInstances: 1
        m_failureRate: 0
        m_minSpawnOffsetX: 0
        m_maxSpawnOffsetX: 0
        m_minSpawnOffsetY: -0.3
        m_maxSpawnOffsetY: -0.1
        m_minSpawnOffsetZ: 0
        m_maxSpawnOffsetZ: 0
        m_rotateToSlope: 0
        m_yOffsetToSlope: 0
        m_minRotationOffsetX: 0
        m_maxRotationOffsetX: 0
        m_minRotationOffsetY: 0
        m_maxRotationOffsetY: 180
        m_minRotationOffsetZ: 0
        m_maxRotationOffsetZ: 0
        m_minScale: 0.8
        m_maxScale: 1.5
        m_scaleByDistance:
          serializedVersion: 2
          m_Curve:
          - serializedVersion: 3
            time: 0
            value: 1
            inSlope: 0
            outSlope: 0
            tangentMode: 0
            weightedMode: 0
            inWeight: 0
            outWeight: 0
          - serializedVersion: 3
            time: 1
            value: 1
            inSlope: 0
            outSlope: 0
            tangentMode: 0
            weightedMode: 0
            inWeight: 0
            outWeight: 0
          m_PreInfinity: 2
          m_PostInfinity: 2
          m_RotationOrder: 4
        m_localBounds: 5
        m_virginTerrain: 1
        m_extParam: 
        m_spawnScale: 3
        m_commonScale: 1
        m_minXYZScale: {x: 0.75, y: 0.75, z: 0.75}
        m_maxXYZScale: {x: 1.5, y: 1.5, z: 1.5}
        m_scaleRandomPercentage: 0.5
        m_XYZScaleRandomPercentage: {x: 0.5, y: 0.5, z: 0.5}
        m_foldedOut: 1
      m_dna:
        m_boundsRadius: 1
        m_scaleMultiplier: 1
        m_extParam: 
        m_protoIdx: 0
      m_spawnCriteria: []
      m_spawnExtensions: []
      m_canSpawnAsTree: 0
      m_instancesFoldOut: 1
      m_dnaFoldedOut: 0
    - m_name: PW_Stone_02_Moss
      m_instances:
      - m_name: PW_Stone_02_Moss
        m_desktopPrefab: {fileID: 7321800305126753187, guid: 76446c09c17b15a48b43a4fa4c788581,
          type: 3}
        m_desktopPrefabFileName: 
        m_minInstances: 1
        m_maxInstances: 1
        m_failureRate: 0
        m_minSpawnOffsetX: 0
        m_maxSpawnOffsetX: 0
        m_minSpawnOffsetY: -0.3
        m_maxSpawnOffsetY: -0.1
        m_minSpawnOffsetZ: 0
        m_maxSpawnOffsetZ: 0
        m_rotateToSlope: 0
        m_yOffsetToSlope: 0
        m_minRotationOffsetX: 0
        m_maxRotationOffsetX: 158.28174
        m_minRotationOffsetY: 0
        m_maxRotationOffsetY: 180
        m_minRotationOffsetZ: 0
        m_maxRotationOffsetZ: 171.01706
        m_minScale: 1
        m_maxScale: 1.5
        m_scaleByDistance:
          serializedVersion: 2
          m_Curve:
          - serializedVersion: 3
            time: 0
            value: 1
            inSlope: 0
            outSlope: 0
            tangentMode: 0
            weightedMode: 0
            inWeight: 0
            outWeight: 0
          - serializedVersion: 3
            time: 1
            value: 1
            inSlope: 0
            outSlope: 0
            tangentMode: 0
            weightedMode: 0
            inWeight: 0
            outWeight: 0
          m_PreInfinity: 2
          m_PostInfinity: 2
          m_RotationOrder: 4
        m_localBounds: 5
        m_virginTerrain: 1
        m_extParam: 
        m_spawnScale: 3
        m_commonScale: 1
        m_minXYZScale: {x: 0.75, y: 0.75, z: 0.75}
        m_maxXYZScale: {x: 1.5, y: 1.5, z: 1.5}
        m_scaleRandomPercentage: 0.5
        m_XYZScaleRandomPercentage: {x: 0.5, y: 0.5, z: 0.5}
        m_foldedOut: 1
      m_dna:
        m_boundsRadius: 1
        m_scaleMultiplier: 1
        m_extParam: 
        m_protoIdx: 0
      m_spawnCriteria: []
      m_spawnExtensions: []
      m_canSpawnAsTree: 0
      m_instancesFoldOut: 1
      m_dnaFoldedOut: 0
    m_spawnExtensionPrototypes: []
    m_stampDistributionPrototypes: []
    m_worldBiomeMaskPrototypes: []
    m_probePrototypes: []
  m_x: 0
  m_y: 50
  m_z: 0
  m_width: 10
  m_height: 10
  m_rotation: 0
  m_isWorldmapSpawner: 0
  m_spawnRange: 512
  m_generateRandomSeed: 1
  m_randomSeed: 1607880617
  m_spawnDensity: 0.8
  m_resourcesPath: 
  m_spawnerRules:
  - m_name: PW_Stone_01
    m_guid: c889e021-dff8-45ed-9bfe-5581988512b7
    m_useExtendedSpawn: 0
    m_minRequiredFitness: 0.25
    m_minInstanceRequiredFitness: 0
    m_failureRate: 0
    m_maxInstances: 40000000
    m_ignoreMaxInstances: 0
    m_minDirection: 0
    m_maxDirection: 359.9
    m_locationIncrementMin: 90
    m_locationIncrementMax: 140
    m_jitterPercent: 1
    m_boundsCheckQuality: 25
    m_resourceType: 3
    m_resourceIdx: 0
    m_imageMasks: []
    m_visualisationColor: {r: 0.7686275, g: 0.3960784, b: 0.3921569, a: 1}
    m_noiseMask: 0
    m_noiseMaskSeed: 0
    m_noiseMaskOctaves: 8
    m_noiseMaskPersistence: 0.25
    m_noiseMaskFrequency: 1
    m_noiseMaskLacunarity: 1.5
    m_noiseZoom: 50
    m_noiseStrength: 1
    m_noiseInvert: 0
    m_isActive: 1
    m_isFoldedOut: 0
    m_currInstanceCnt: 0
    m_activeInstanceCnt: 0
    m_inactiveInstanceCnt: 0
    m_resourceSettingsFoldedOut: 0
    m_isHelpActive: 0
    m_spawnedInstances: 7
    m_goSpawnTargetMode: 0
    m_goSpawnTarget: {fileID: 0}
    m_terrainGOSpawnTargetName: Gaia Game Object Spawns
    m_terrainDetailDensity: 15
    m_terrainDetailMinFitness: 0.5
    m_terrainDetailFitnessBeginFadeOut: 0.6
    m_createdBiomeController: {fileID: 0}
    m_visibleInSceneHierarchy: 1
    m_usesBoxStandIn: 0
    m_boundsCollisionCheck: 0
  - m_name: PW_Stone_01_ Moss
    m_guid: 683b466d-817d-4945-b78c-2412c34604a6
    m_useExtendedSpawn: 0
    m_minRequiredFitness: 0.25
    m_minInstanceRequiredFitness: 0
    m_failureRate: 0
    m_maxInstances: 40000000
    m_ignoreMaxInstances: 0
    m_minDirection: 0
    m_maxDirection: 359.9
    m_locationIncrementMin: 90
    m_locationIncrementMax: 140
    m_jitterPercent: 1
    m_boundsCheckQuality: 25
    m_resourceType: 3
    m_resourceIdx: 1
    m_imageMasks:
    - m_active: 1
      m_invert: 0
      m_hasErrors: 0
      m_influence: 0
      m_operation: 6
      m_blendMode: 0
      m_imageMaskLocation: 0
      m_strength: 1
      m_seaLevel: 25
      m_maxWorldHeight: 96.87648
      m_minWorldHeight: 0
      m_xOffSet: 0
      m_zOffSet: 0
      m_xOffSetScalar: 0
      m_zOffSetScalar: 0
      m_imageMaskTextureGUID: 
      m_imageMaskFilterMode: 0
      m_imageMaskColorSelectionColor: {r: 1, g: 1, b: 1, a: 1}
      m_imageMaskColorSelectionAccuracy: 0.5
      m_distanceMaskCurve:
        serializedVersion: 2
        m_Curve:
        - serializedVersion: 3
          time: 0
          value: 1
          inSlope: 0
          outSlope: 0
          tangentMode: 0
          weightedMode: 0
          inWeight: 0
          outWeight: 0
        - serializedVersion: 3
          time: 1
          value: 0
          inSlope: 0
          outSlope: 0
          tangentMode: 0
          weightedMode: 0
          inWeight: 0
          outWeight: 0
        m_PreInfinity: 2
        m_PostInfinity: 2
        m_RotationOrder: 4
      m_heightMaskCurve:
        serializedVersion: 2
        m_Curve:
        - serializedVersion: 3
          time: 0
          value: 0
          inSlope: 0
          outSlope: 0
          tangentMode: 0
          weightedMode: 0
          inWeight: 0
          outWeight: 0
        - serializedVersion: 3
          time: 1
          value: 1
          inSlope: 0
          outSlope: 0
          tangentMode: 0
          weightedMode: 0
          inWeight: 0
          outWeight: 0
        m_PreInfinity: 2
        m_PostInfinity: 2
        m_RotationOrder: 4
      m_strengthTransformCurve:
        serializedVersion: 2
        m_Curve:
        - serializedVersion: 3
          time: 0
          value: 0
          inSlope: 1
          outSlope: 1
          tangentMode: 0
          weightedMode: 0
          inWeight: 0
          outWeight: 0
        - serializedVersion: 3
          time: 1
          value: 1
          inSlope: 1
          outSlope: 1
          tangentMode: 0
          weightedMode: 0
          inWeight: 0
          outWeight: 0
        m_PreInfinity: 2
        m_PostInfinity: 2
        m_RotationOrder: 4
      m_heightMaskType: 1
      m_heightMaskUnit: 1
      m_relativeHeightMin: 25
      m_relativeHeightMax: 75
      m_absoluteHeightMin: 50
      m_absoluteHeightMax: 150
      m_seaLevelRelativeHeightMin: -109876.55
      m_seaLevelRelativeHeightMax: 109876.55
      tree1active: 0
      tree2active: 0
      m_slopeMaskCurve:
        serializedVersion: 2
        m_Curve:
        - serializedVersion: 3
          time: 0
          value: 1
          inSlope: 0
          outSlope: 0
          tangentMode: 0
          weightedMode: 0
          inWeight: 0
          outWeight: 0
        - serializedVersion: 3
          time: 1
          value: 0
          inSlope: 0
          outSlope: 0
          tangentMode: 0
          weightedMode: 0
          inWeight: 0
          outWeight: 0
        m_PreInfinity: 2
        m_PostInfinity: 2
        m_RotationOrder: 4
      m_slopeMin: 0
      m_slopeMax: 0.1
      m_distanceMaskAxes: 0
      m_gaiaNoiseSettings:
        m_translation: {x: 0, y: 0, z: 0}
        m_rotation: {x: 0, y: 0, z: 0}
        m_scale: {x: 10, y: 1, z: 10}
        m_noiseTypeName: Perlin
        m_noiseTypeParams: 
        m_fractalTypeName: Fbm
        m_fractalTypeParams: 
        m_warpEnabled: 0
        m_warpIterations: 0
        m_warpStrength: 0
        m_warpOffset: {x: 0, y: 0, z: 0, w: 0}
      m_noiseSettings: {fileID: 0}
      m_noiseToolSettings:
        worldHeightRemap: {x: 0, y: 0}
        coordSpace: 0
        noiseAssetGUID: 
      m_ShowNoiseTransformSettings: 0
      m_ShowNoisePreviewTexture: 1
      m_noisePreviewTextureLocked: 0
      m_ShowNoiseTypeSettings: 0
      m_scaleNoiseToTerrainSize: 0
      m_collisionMaskExpanded: 1
      m_collisionMasks: []
      m_erosionMaskOutput: 0
      m_erosionSimScale: 9
      m_erosionHydroTimeDelta: 0.05
      m_erosionHydroIterations: 15
      m_erosionThermalTimeDelta: 0.01
      m_erosionThermalIterations: 80
      m_erosionThermalReposeAngle: 80
      m_erosionPrecipRate: 0.5
      m_erosionEvaporationRate: 0.5
      m_erosionFlowRate: 0.5
      m_erosionSedimentCapacity: 0.5
      m_erosionSedimentDepositRate: 0.8
      m_erosionSedimentDissolveRate: 0.5
      m_erosionRiverBankDepositRate: 7
      m_erosionRiverBankDissolveRate: 5
      m_erosionRiverBedDepositRate: 5
      m_erosionRiverBedDissolveRate: 5
      m_erosionShowAdvancedUI: 0
      m_erosionShowThermalUI: 0
      m_erosionShowWaterUI: 0
      m_erosionShowSedimentUI: 0
      m_erosionShowRiverBankUI: 0
      m_smoothVerticality: 0
      m_smoothBlurRadius: 1
      m_textureMaskSpawnRuleGUID: ee173e40-2162-4f9a-a16d-d959a4e40417
      m_concavity: 1
      m_concavityFeatureSize: 10
      m_foldedOut: 1
      m_selectedWorldBiomeMaskGUID: 
      m_growAndShrinkValue: 0
      m_globalSpawnerMaskStackRT: {fileID: 0}
    - m_active: 1
      m_invert: 0
      m_hasErrors: 0
      m_influence: 0
      m_operation: 9
      m_blendMode: 3
      m_imageMaskLocation: 0
      m_strength: 1
      m_seaLevel: 25
      m_maxWorldHeight: 96.87648
      m_minWorldHeight: 0
      m_xOffSet: 0
      m_zOffSet: 0
      m_xOffSetScalar: 0
      m_zOffSetScalar: 0
      m_imageMaskTextureGUID: 
      m_imageMaskFilterMode: 0
      m_imageMaskColorSelectionColor: {r: 1, g: 1, b: 1, a: 1}
      m_imageMaskColorSelectionAccuracy: 0.5
      m_distanceMaskCurve:
        serializedVersion: 2
        m_Curve:
        - serializedVersion: 3
          time: 0
          value: 1
          inSlope: 0
          outSlope: 0
          tangentMode: 0
          weightedMode: 0
          inWeight: 0
          outWeight: 0
        - serializedVersion: 3
          time: 1
          value: 0
          inSlope: 0
          outSlope: 0
          tangentMode: 0
          weightedMode: 0
          inWeight: 0
          outWeight: 0
        m_PreInfinity: 2
        m_PostInfinity: 2
        m_RotationOrder: 4
      m_heightMaskCurve:
        serializedVersion: 2
        m_Curve:
        - serializedVersion: 3
          time: 0
          value: 0
          inSlope: 0
          outSlope: 0
          tangentMode: 0
          weightedMode: 0
          inWeight: 0
          outWeight: 0
        - serializedVersion: 3
          time: 1
          value: 1
          inSlope: 0
          outSlope: 0
          tangentMode: 0
          weightedMode: 0
          inWeight: 0
          outWeight: 0
        m_PreInfinity: 2
        m_PostInfinity: 2
        m_RotationOrder: 4
      m_strengthTransformCurve:
        serializedVersion: 2
        m_Curve:
        - serializedVersion: 3
          time: 0
          value: 0
          inSlope: 1
          outSlope: 1
          tangentMode: 34
          weightedMode: 0
          inWeight: 0
          outWeight: 0
        - serializedVersion: 3
          time: 1
          value: 1
          inSlope: 1
          outSlope: 1
          tangentMode: 34
          weightedMode: 0
          inWeight: 0
          outWeight: 0
        m_PreInfinity: 2
        m_PostInfinity: 2
        m_RotationOrder: 4
      m_heightMaskType: 1
      m_heightMaskUnit: 1
      m_relativeHeightMin: 25
      m_relativeHeightMax: 75
      m_absoluteHeightMin: 50
      m_absoluteHeightMax: 150
      m_seaLevelRelativeHeightMin: -109876.55
      m_seaLevelRelativeHeightMax: 109876.55
      tree1active: 0
      tree2active: 0
      m_slopeMaskCurve:
        serializedVersion: 2
        m_Curve:
        - serializedVersion: 3
          time: 0
          value: 1
          inSlope: 0
          outSlope: 0
          tangentMode: 0
          weightedMode: 0
          inWeight: 0
          outWeight: 0
        - serializedVersion: 3
          time: 1
          value: 0
          inSlope: 0
          outSlope: 0
          tangentMode: 0
          weightedMode: 0
          inWeight: 0
          outWeight: 0
        m_PreInfinity: 2
        m_PostInfinity: 2
        m_RotationOrder: 4
      m_slopeMin: 0
      m_slopeMax: 0.1
      m_distanceMaskAxes: 0
      m_gaiaNoiseSettings:
        m_translation: {x: 0, y: 0, z: 0}
        m_rotation: {x: 0, y: 0, z: 0}
        m_scale: {x: 10, y: 1, z: 10}
        m_noiseTypeName: Perlin
        m_noiseTypeParams: 
        m_fractalTypeName: Fbm
        m_fractalTypeParams: 
        m_warpEnabled: 0
        m_warpIterations: 0
        m_warpStrength: 0
        m_warpOffset: {x: 0, y: 0, z: 0, w: 0}
      m_noiseSettings: {fileID: 0}
      m_noiseToolSettings:
        worldHeightRemap: {x: 0, y: 0}
        coordSpace: 0
        noiseAssetGUID: 
      m_ShowNoiseTransformSettings: 0
      m_ShowNoisePreviewTexture: 1
      m_noisePreviewTextureLocked: 0
      m_ShowNoiseTypeSettings: 0
      m_scaleNoiseToTerrainSize: 0
      m_collisionMaskExpanded: 1
      m_collisionMasks: []
      m_erosionMaskOutput: 0
      m_erosionSimScale: 9
      m_erosionHydroTimeDelta: 0.05
      m_erosionHydroIterations: 15
      m_erosionThermalTimeDelta: 0.01
      m_erosionThermalIterations: 80
      m_erosionThermalReposeAngle: 80
      m_erosionPrecipRate: 0.5
      m_erosionEvaporationRate: 0.5
      m_erosionFlowRate: 0.5
      m_erosionSedimentCapacity: 0.5
      m_erosionSedimentDepositRate: 0.8
      m_erosionSedimentDissolveRate: 0.5
      m_erosionRiverBankDepositRate: 7
      m_erosionRiverBankDissolveRate: 5
      m_erosionRiverBedDepositRate: 5
      m_erosionRiverBedDissolveRate: 5
      m_erosionShowAdvancedUI: 0
      m_erosionShowThermalUI: 0
      m_erosionShowWaterUI: 0
      m_erosionShowSedimentUI: 0
      m_erosionShowRiverBankUI: 0
      m_smoothVerticality: 0
      m_smoothBlurRadius: 1
      m_textureMaskSpawnRuleGUID: ee173e40-2162-4f9a-a16d-d959a4e40417
      m_concavity: 1
      m_concavityFeatureSize: 10
      m_foldedOut: 1
      m_selectedWorldBiomeMaskGUID: 
      m_growAndShrinkValue: 0
      m_globalSpawnerMaskStackRT: {fileID: 0}
    m_visualisationColor: {r: 0.5294118, g: 0.64603424, b: 0.6666667, a: 1}
    m_noiseMask: 0
    m_noiseMaskSeed: 0
    m_noiseMaskOctaves: 8
    m_noiseMaskPersistence: 0.25
    m_noiseMaskFrequency: 1
    m_noiseMaskLacunarity: 1.5
    m_noiseZoom: 50
    m_noiseStrength: 1
    m_noiseInvert: 0
    m_isActive: 1
    m_isFoldedOut: 0
    m_currInstanceCnt: 0
    m_activeInstanceCnt: 0
    m_inactiveInstanceCnt: 0
    m_resourceSettingsFoldedOut: 0
    m_isHelpActive: 0
    m_spawnedInstances: 3
    m_goSpawnTargetMode: 0
    m_goSpawnTarget: {fileID: 0}
    m_terrainGOSpawnTargetName: Gaia Game Object Spawns
    m_terrainDetailDensity: 15
    m_terrainDetailMinFitness: 0.5
    m_terrainDetailFitnessBeginFadeOut: 0.6
    m_createdBiomeController: {fileID: 0}
    m_visibleInSceneHierarchy: 1
    m_usesBoxStandIn: 0
    m_boundsCollisionCheck: 0
  - m_name: PW_Stone_Granite_03_01
    m_guid: 13354c14-2238-4cb1-b44f-f535e2a29e3f
    m_useExtendedSpawn: 0
    m_minRequiredFitness: 0.25
    m_minInstanceRequiredFitness: 0
    m_failureRate: 0
    m_maxInstances: 40000000
    m_ignoreMaxInstances: 0
    m_minDirection: 0
    m_maxDirection: 359.9
    m_locationIncrementMin: 90
    m_locationIncrementMax: 140
    m_jitterPercent: 1
    m_boundsCheckQuality: 25
    m_resourceType: 3
    m_resourceIdx: 2
    m_imageMasks: []
    m_visualisationColor: {r: 0.9315582, g: 0.88487065, b: 0.5884144, a: 1}
    m_noiseMask: 0
    m_noiseMaskSeed: 0
    m_noiseMaskOctaves: 8
    m_noiseMaskPersistence: 0.25
    m_noiseMaskFrequency: 1
    m_noiseMaskLacunarity: 1.5
    m_noiseZoom: 50
    m_noiseStrength: 1
    m_noiseInvert: 0
    m_isActive: 1
    m_isFoldedOut: 0
    m_currInstanceCnt: 0
    m_activeInstanceCnt: 0
    m_inactiveInstanceCnt: 0
    m_resourceSettingsFoldedOut: 0
    m_isHelpActive: 0
    m_spawnedInstances: 7
    m_goSpawnTargetMode: 0
    m_goSpawnTarget: {fileID: 0}
    m_terrainGOSpawnTargetName: Gaia Game Object Spawns
    m_terrainDetailDensity: 15
    m_terrainDetailMinFitness: 0.5
    m_terrainDetailFitnessBeginFadeOut: 0.6
    m_createdBiomeController: {fileID: 0}
    m_visibleInSceneHierarchy: 1
    m_usesBoxStandIn: 0
    m_boundsCollisionCheck: 0
  - m_name: PW_Stone_Granite_03
    m_guid: cb1783b2-ec41-40c9-a543-3014ff31d871
    m_useExtendedSpawn: 0
    m_minRequiredFitness: 0.25
    m_minInstanceRequiredFitness: 0
    m_failureRate: 0
    m_maxInstances: 40000000
    m_ignoreMaxInstances: 0
    m_minDirection: 0
    m_maxDirection: 359.9
    m_locationIncrementMin: 80
    m_locationIncrementMax: 140
    m_jitterPercent: 1
    m_boundsCheckQuality: 25
    m_resourceType: 3
    m_resourceIdx: 3
    m_imageMasks: []
    m_visualisationColor: {r: 0.7433828, g: 0.5499383, b: 0.402634, a: 1}
    m_noiseMask: 0
    m_noiseMaskSeed: 0
    m_noiseMaskOctaves: 8
    m_noiseMaskPersistence: 0.25
    m_noiseMaskFrequency: 1
    m_noiseMaskLacunarity: 1.5
    m_noiseZoom: 50
    m_noiseStrength: 1
    m_noiseInvert: 0
    m_isActive: 1
    m_isFoldedOut: 0
    m_currInstanceCnt: 0
    m_activeInstanceCnt: 0
    m_inactiveInstanceCnt: 0
    m_resourceSettingsFoldedOut: 0
    m_isHelpActive: 0
    m_spawnedInstances: 4
    m_goSpawnTargetMode: 0
    m_goSpawnTarget: {fileID: 0}
    m_terrainGOSpawnTargetName: Gaia Game Object Spawns
    m_terrainDetailDensity: 15
    m_terrainDetailMinFitness: 0.5
    m_terrainDetailFitnessBeginFadeOut: 0.6
    m_createdBiomeController: {fileID: 0}
    m_visibleInSceneHierarchy: 1
    m_usesBoxStandIn: 0
    m_boundsCollisionCheck: 0
  - m_name: PW_Stone_Granite_03_02_Moss
    m_guid: 425901ec-8565-4868-b259-4684c6b9905a
    m_useExtendedSpawn: 0
    m_minRequiredFitness: 0.25
    m_minInstanceRequiredFitness: 0
    m_failureRate: 0
    m_maxInstances: 40000000
    m_ignoreMaxInstances: 0
    m_minDirection: 0
    m_maxDirection: 359.9
    m_locationIncrementMin: 80
    m_locationIncrementMax: 140
    m_jitterPercent: 1
    m_boundsCheckQuality: 25
    m_resourceType: 3
    m_resourceIdx: 4
    m_imageMasks: []
    m_visualisationColor: {r: 0.74605155, g: 0.80222553, b: 0.6139375, a: 1}
    m_noiseMask: 0
    m_noiseMaskSeed: 0
    m_noiseMaskOctaves: 8
    m_noiseMaskPersistence: 0.25
    m_noiseMaskFrequency: 1
    m_noiseMaskLacunarity: 1.5
    m_noiseZoom: 50
    m_noiseStrength: 1
    m_noiseInvert: 0
    m_isActive: 1
    m_isFoldedOut: 0
    m_currInstanceCnt: 0
    m_activeInstanceCnt: 0
    m_inactiveInstanceCnt: 0
    m_resourceSettingsFoldedOut: 0
    m_isHelpActive: 0
    m_spawnedInstances: 7
    m_goSpawnTargetMode: 0
    m_goSpawnTarget: {fileID: 0}
    m_terrainGOSpawnTargetName: Gaia Game Object Spawns
    m_terrainDetailDensity: 15
    m_terrainDetailMinFitness: 0.5
    m_terrainDetailFitnessBeginFadeOut: 0.6
    m_createdBiomeController: {fileID: 0}
    m_visibleInSceneHierarchy: 1
    m_usesBoxStandIn: 0
    m_boundsCollisionCheck: 0
  - m_name: PW_Stone_05
    m_guid: baa6ead9-353f-4227-b7b8-a603ee68ea64
    m_useExtendedSpawn: 0
    m_minRequiredFitness: 0.25
    m_minInstanceRequiredFitness: 0
    m_failureRate: 0
    m_maxInstances: 40000000
    m_ignoreMaxInstances: 0
    m_minDirection: 0
    m_maxDirection: 359.9
    m_locationIncrementMin: 80
    m_locationIncrementMax: 140
    m_jitterPercent: 1
    m_boundsCheckQuality: 25
    m_resourceType: 3
    m_resourceIdx: 5
    m_imageMasks: []
    m_visualisationColor: {r: 0.83086157, g: 0.58278054, b: 0.46712065, a: 1}
    m_noiseMask: 0
    m_noiseMaskSeed: 0
    m_noiseMaskOctaves: 8
    m_noiseMaskPersistence: 0.25
    m_noiseMaskFrequency: 1
    m_noiseMaskLacunarity: 1.5
    m_noiseZoom: 50
    m_noiseStrength: 1
    m_noiseInvert: 0
    m_isActive: 1
    m_isFoldedOut: 0
    m_currInstanceCnt: 0
    m_activeInstanceCnt: 0
    m_inactiveInstanceCnt: 0
    m_resourceSettingsFoldedOut: 0
    m_isHelpActive: 0
    m_spawnedInstances: 6
    m_goSpawnTargetMode: 0
    m_goSpawnTarget: {fileID: 0}
    m_terrainGOSpawnTargetName: Gaia Game Object Spawns
    m_terrainDetailDensity: 15
    m_terrainDetailMinFitness: 0.5
    m_terrainDetailFitnessBeginFadeOut: 0.6
    m_createdBiomeController: {fileID: 0}
    m_visibleInSceneHierarchy: 1
    m_usesBoxStandIn: 0
    m_boundsCollisionCheck: 0
  - m_name: PW_Stone_02_Moss
    m_guid: 5f2de6db-c04a-44a2-9006-63415b81590e
    m_useExtendedSpawn: 0
    m_minRequiredFitness: 0.25
    m_minInstanceRequiredFitness: 0
    m_failureRate: 0
    m_maxInstances: 40000000
    m_ignoreMaxInstances: 0
    m_minDirection: 0
    m_maxDirection: 359.9
    m_locationIncrementMin: 90
    m_locationIncrementMax: 180
    m_jitterPercent: 1
    m_boundsCheckQuality: 25
    m_resourceType: 3
    m_resourceIdx: 6
    m_imageMasks: []
    m_visualisationColor: {r: 0.6268554, g: 0.5040954, b: 0.46545136, a: 1}
    m_noiseMask: 0
    m_noiseMaskSeed: 0
    m_noiseMaskOctaves: 8
    m_noiseMaskPersistence: 0.25
    m_noiseMaskFrequency: 1
    m_noiseMaskLacunarity: 1.5
    m_noiseZoom: 50
    m_noiseStrength: 1
    m_noiseInvert: 0
    m_isActive: 1
    m_isFoldedOut: 0
    m_currInstanceCnt: 0
    m_activeInstanceCnt: 0
    m_inactiveInstanceCnt: 0
    m_resourceSettingsFoldedOut: 0
    m_isHelpActive: 0
    m_spawnedInstances: 6
    m_goSpawnTargetMode: 0
    m_goSpawnTarget: {fileID: 0}
    m_terrainGOSpawnTargetName: Gaia Game Object Spawns
    m_terrainDetailDensity: 15
    m_terrainDetailMinFitness: 0.5
    m_terrainDetailFitnessBeginFadeOut: 0.6
    m_createdBiomeController: {fileID: 0}
    m_visibleInSceneHierarchy: 1
    m_usesBoxStandIn: 0
    m_boundsCollisionCheck: 0
  m_showGizmos: 1
  m_showDebug: 0
  m_showTerrainHelper: 1
  m_spawnMode: 0
  imageMasks:
  - m_active: 1
    m_invert: 0
    m_hasErrors: 0
    m_influence: 0
    m_operation: 9
    m_blendMode: 0
    m_imageMaskLocation: 0
    m_strength: 1
    m_seaLevel: 25
    m_maxWorldHeight: 96.87648
    m_minWorldHeight: 0
    m_xOffSet: 0
    m_zOffSet: 0
    m_xOffSetScalar: 0
    m_zOffSetScalar: 0
    m_imageMaskTextureGUID: 
    m_imageMaskFilterMode: 0
    m_imageMaskColorSelectionColor: {r: 1, g: 1, b: 1, a: 1}
    m_imageMaskColorSelectionAccuracy: 0.5
    m_distanceMaskCurve:
      serializedVersion: 2
      m_Curve:
      - serializedVersion: 3
        time: 0
        value: 1
        inSlope: 0
        outSlope: 0
        tangentMode: 0
        weightedMode: 0
        inWeight: 0
        outWeight: 0
      - serializedVersion: 3
        time: 1
        value: 0
        inSlope: 0
        outSlope: 0
        tangentMode: 0
        weightedMode: 0
        inWeight: 0
        outWeight: 0
      m_PreInfinity: 2
      m_PostInfinity: 2
      m_RotationOrder: 4
    m_heightMaskCurve:
      serializedVersion: 2
      m_Curve:
      - serializedVersion: 3
        time: 0
        value: 0
        inSlope: 0
        outSlope: 0
        tangentMode: 0
        weightedMode: 0
        inWeight: 0
        outWeight: 0
      - serializedVersion: 3
        time: 1
        value: 1
        inSlope: 0
        outSlope: 0
        tangentMode: 0
        weightedMode: 0
        inWeight: 0
        outWeight: 0
      m_PreInfinity: 2
      m_PostInfinity: 2
      m_RotationOrder: 4
    m_strengthTransformCurve:
      serializedVersion: 2
      m_Curve:
      - serializedVersion: 3
        time: 0
        value: 0
        inSlope: 1
        outSlope: 1
        tangentMode: 0
        weightedMode: 0
        inWeight: 0
        outWeight: 0
      - serializedVersion: 3
        time: 1
        value: 1
        inSlope: 1
        outSlope: 1
        tangentMode: 0
        weightedMode: 0
        inWeight: 0
        outWeight: 0
      m_PreInfinity: 2
      m_PostInfinity: 2
      m_RotationOrder: 4
    m_heightMaskType: 1
    m_heightMaskUnit: 0
    m_relativeHeightMin: -10
    m_relativeHeightMax: 10
    m_absoluteHeightMin: 2.5
    m_absoluteHeightMax: 22.5
    m_seaLevelRelativeHeightMin: -109876.55
    m_seaLevelRelativeHeightMax: 109876.55
    tree1active: 0
    tree2active: 0
    m_slopeMaskCurve:
      serializedVersion: 2
      m_Curve:
      - serializedVersion: 3
        time: 0
        value: 1
        inSlope: 0
        outSlope: 0
        tangentMode: 0
        weightedMode: 0
        inWeight: 0
        outWeight: 0
      - serializedVersion: 3
        time: 1
        value: 0
        inSlope: 0
        outSlope: 0
        tangentMode: 0
        weightedMode: 0
        inWeight: 0
        outWeight: 0
      m_PreInfinity: 2
      m_PostInfinity: 2
      m_RotationOrder: 4
    m_slopeMin: 0
    m_slopeMax: 0.1
    m_distanceMaskAxes: 0
    m_gaiaNoiseSettings:
      m_translation: {x: 0, y: 0, z: 0}
      m_rotation: {x: 0, y: 0, z: 0}
      m_scale: {x: 10, y: 1, z: 10}
      m_noiseTypeName: Perlin
      m_noiseTypeParams: 
      m_fractalTypeName: Fbm
      m_fractalTypeParams: 
      m_warpEnabled: 0
      m_warpIterations: 0
      m_warpStrength: 0
      m_warpOffset: {x: 0, y: 0, z: 0, w: 0}
    m_noiseSettings: {fileID: 0}
    m_noiseToolSettings:
      worldHeightRemap: {x: 0, y: 0}
      coordSpace: 0
      noiseAssetGUID: 
    m_ShowNoiseTransformSettings: 0
    m_ShowNoisePreviewTexture: 1
    m_noisePreviewTextureLocked: 0
    m_ShowNoiseTypeSettings: 0
    m_scaleNoiseToTerrainSize: 0
    m_collisionMaskExpanded: 1
    m_collisionMasks: []
    m_erosionMaskOutput: 0
    m_erosionSimScale: 9
    m_erosionHydroTimeDelta: 0.05
    m_erosionHydroIterations: 15
    m_erosionThermalTimeDelta: 0.01
    m_erosionThermalIterations: 80
    m_erosionThermalReposeAngle: 80
    m_erosionPrecipRate: 0.5
    m_erosionEvaporationRate: 0.5
    m_erosionFlowRate: 0.5
    m_erosionSedimentCapacity: 0.5
    m_erosionSedimentDepositRate: 0.8
    m_erosionSedimentDissolveRate: 0.5
    m_erosionRiverBankDepositRate: 7
    m_erosionRiverBankDissolveRate: 5
    m_erosionRiverBedDepositRate: 5
    m_erosionRiverBedDissolveRate: 5
    m_erosionShowAdvancedUI: 0
    m_erosionShowThermalUI: 0
    m_erosionShowWaterUI: 0
    m_erosionShowSedimentUI: 0
    m_erosionShowRiverBankUI: 0
    m_smoothVerticality: 0
    m_smoothBlurRadius: 1
    m_textureMaskSpawnRuleGUID: f83a3edc-7872-4e7e-91fc-855faf09cc46
    m_concavity: 1
    m_concavityFeatureSize: 10
    m_foldedOut: 0
    m_selectedWorldBiomeMaskGUID: 
    m_growAndShrinkValue: 0
    m_globalSpawnerMaskStackRT: {fileID: 0}
  - m_active: 1
    m_invert: 0
    m_hasErrors: 0
    m_influence: 0
    m_operation: 3
    m_blendMode: 0
    m_imageMaskLocation: 0
    m_strength: 1
    m_seaLevel: 25
    m_maxWorldHeight: 96.87648
    m_minWorldHeight: 0
    m_xOffSet: 0
    m_zOffSet: 0
    m_xOffSetScalar: 0
    m_zOffSetScalar: 0
    m_imageMaskTextureGUID: 
    m_imageMaskFilterMode: 0
    m_imageMaskColorSelectionColor: {r: 1, g: 1, b: 1, a: 1}
    m_imageMaskColorSelectionAccuracy: 0.5
    m_distanceMaskCurve:
      serializedVersion: 2
      m_Curve:
      - serializedVersion: 3
        time: 0
        value: 1
        inSlope: 0
        outSlope: 0
        tangentMode: 0
        weightedMode: 0
        inWeight: 0
        outWeight: 0
      - serializedVersion: 3
        time: 1
        value: 0
        inSlope: 0
        outSlope: 0
        tangentMode: 0
        weightedMode: 0
        inWeight: 0
        outWeight: 0
      m_PreInfinity: 2
      m_PostInfinity: 2
      m_RotationOrder: 4
    m_heightMaskCurve:
      serializedVersion: 2
      m_Curve:
      - serializedVersion: 3
        time: 0
        value: 0
        inSlope: 0
        outSlope: 0
        tangentMode: 0
        weightedMode: 0
        inWeight: 0
        outWeight: 0
      - serializedVersion: 3
        time: 1
        value: 1
        inSlope: 0
        outSlope: 0
        tangentMode: 0
        weightedMode: 0
        inWeight: 0
        outWeight: 0
      m_PreInfinity: 2
      m_PostInfinity: 2
      m_RotationOrder: 4
    m_strengthTransformCurve:
      serializedVersion: 2
      m_Curve:
      - serializedVersion: 3
        time: 0
        value: 0
        inSlope: 1
        outSlope: 1
        tangentMode: 0
        weightedMode: 0
        inWeight: 0
        outWeight: 0
      - serializedVersion: 3
        time: 1
        value: 1
        inSlope: 1
        outSlope: 1
        tangentMode: 0
        weightedMode: 0
        inWeight: 0
        outWeight: 0
      m_PreInfinity: 2
      m_PostInfinity: 2
      m_RotationOrder: 4
    m_heightMaskType: 1
    m_heightMaskUnit: 0
    m_relativeHeightMin: -10
    m_relativeHeightMax: 10
    m_absoluteHeightMin: 2.5
    m_absoluteHeightMax: 22.5
    m_seaLevelRelativeHeightMin: -109876.55
    m_seaLevelRelativeHeightMax: 109876.55
    tree1active: 0
    tree2active: 0
    m_slopeMaskCurve:
      serializedVersion: 2
      m_Curve:
      - serializedVersion: 3
        time: 0
        value: 1
        inSlope: 0
        outSlope: 0
        tangentMode: 0
        weightedMode: 0
        inWeight: 0
        outWeight: 0
      - serializedVersion: 3
        time: 1
        value: 0
        inSlope: 0
        outSlope: 0
        tangentMode: 0
        weightedMode: 0
        inWeight: 0
        outWeight: 0
      m_PreInfinity: 2
      m_PostInfinity: 2
      m_RotationOrder: 4
    m_slopeMin: 0
    m_slopeMax: 0.11444445
    m_distanceMaskAxes: 0
    m_gaiaNoiseSettings:
      m_translation: {x: 0, y: 0, z: 0}
      m_rotation: {x: 0, y: 0, z: 0}
      m_scale: {x: 10, y: 1, z: 10}
      m_noiseTypeName: Perlin
      m_noiseTypeParams: 
      m_fractalTypeName: Fbm
      m_fractalTypeParams: 
      m_warpEnabled: 0
      m_warpIterations: 0
      m_warpStrength: 0
      m_warpOffset: {x: 0, y: 0, z: 0, w: 0}
    m_noiseSettings: {fileID: 0}
    m_noiseToolSettings:
      worldHeightRemap: {x: 0, y: 0}
      coordSpace: 0
      noiseAssetGUID: 
    m_ShowNoiseTransformSettings: 0
    m_ShowNoisePreviewTexture: 1
    m_noisePreviewTextureLocked: 0
    m_ShowNoiseTypeSettings: 0
    m_scaleNoiseToTerrainSize: 0
    m_collisionMaskExpanded: 1
    m_collisionMasks: []
    m_erosionMaskOutput: 0
    m_erosionSimScale: 9
    m_erosionHydroTimeDelta: 0.05
    m_erosionHydroIterations: 15
    m_erosionThermalTimeDelta: 0.01
    m_erosionThermalIterations: 80
    m_erosionThermalReposeAngle: 80
    m_erosionPrecipRate: 0.5
    m_erosionEvaporationRate: 0.5
    m_erosionFlowRate: 0.5
    m_erosionSedimentCapacity: 0.5
    m_erosionSedimentDepositRate: 0.8
    m_erosionSedimentDissolveRate: 0.5
    m_erosionRiverBankDepositRate: 7
    m_erosionRiverBankDissolveRate: 5
    m_erosionRiverBedDepositRate: 5
    m_erosionRiverBedDissolveRate: 5
    m_erosionShowAdvancedUI: 0
    m_erosionShowThermalUI: 0
    m_erosionShowWaterUI: 0
    m_erosionShowSedimentUI: 0
    m_erosionShowRiverBankUI: 0
    m_smoothVerticality: 0
    m_smoothBlurRadius: 1
    m_textureMaskSpawnRuleGUID: 
    m_concavity: 1
    m_concavityFeatureSize: 10
    m_foldedOut: 0
    m_selectedWorldBiomeMaskGUID: 
    m_growAndShrinkValue: 0
    m_globalSpawnerMaskStackRT: {fileID: 0}
  - m_active: 1
    m_invert: 0
    m_hasErrors: 0
    m_influence: 0
    m_operation: 5
    m_blendMode: 0
    m_imageMaskLocation: 0
    m_strength: 1
    m_seaLevel: 25
    m_maxWorldHeight: 96.87648
    m_minWorldHeight: 0
    m_xOffSet: 0
    m_zOffSet: 0
    m_xOffSetScalar: 0
    m_zOffSetScalar: 0
    m_imageMaskTextureGUID: 
    m_imageMaskFilterMode: 0
    m_imageMaskColorSelectionColor: {r: 1, g: 1, b: 1, a: 1}
    m_imageMaskColorSelectionAccuracy: 0.5
    m_distanceMaskCurve:
      serializedVersion: 2
      m_Curve:
      - serializedVersion: 3
        time: 0
        value: 1
        inSlope: 0
        outSlope: 0
        tangentMode: 0
        weightedMode: 0
        inWeight: 0
        outWeight: 0
      - serializedVersion: 3
        time: 1
        value: 0
        inSlope: 0
        outSlope: 0
        tangentMode: 0
        weightedMode: 0
        inWeight: 0
        outWeight: 0
      m_PreInfinity: 2
      m_PostInfinity: 2
      m_RotationOrder: 4
    m_heightMaskCurve:
      serializedVersion: 2
      m_Curve:
      - serializedVersion: 3
        time: 0
        value: 0
        inSlope: 0
        outSlope: 0
        tangentMode: 0
        weightedMode: 0
        inWeight: 0
        outWeight: 0
      - serializedVersion: 3
        time: 1
        value: 1
        inSlope: 0
        outSlope: 0
        tangentMode: 0
        weightedMode: 0
        inWeight: 0
        outWeight: 0
      m_PreInfinity: 2
      m_PostInfinity: 2
      m_RotationOrder: 4
    m_strengthTransformCurve:
      serializedVersion: 2
      m_Curve:
      - serializedVersion: 3
        time: 0
        value: 0
        inSlope: 1
        outSlope: 1
        tangentMode: 0
        weightedMode: 0
        inWeight: 0
        outWeight: 0
      - serializedVersion: 3
        time: 1
        value: 1
        inSlope: 1
        outSlope: 1
        tangentMode: 0
        weightedMode: 0
        inWeight: 0
        outWeight: 0
      m_PreInfinity: 2
      m_PostInfinity: 2
      m_RotationOrder: 4
    m_heightMaskType: 1
    m_heightMaskUnit: 0
    m_relativeHeightMin: -10
    m_relativeHeightMax: 10
    m_absoluteHeightMin: 2.5
    m_absoluteHeightMax: 22.5
    m_seaLevelRelativeHeightMin: -109876.55
    m_seaLevelRelativeHeightMax: 109876.55
    tree1active: 0
    tree2active: 0
    m_slopeMaskCurve:
      serializedVersion: 2
      m_Curve:
      - serializedVersion: 3
        time: 0
        value: 1
        inSlope: 0
        outSlope: 0
        tangentMode: 0
        weightedMode: 0
        inWeight: 0
        outWeight: 0
      - serializedVersion: 3
        time: 1
        value: 0
        inSlope: 0
        outSlope: 0
        tangentMode: 0
        weightedMode: 0
        inWeight: 0
        outWeight: 0
      m_PreInfinity: 2
      m_PostInfinity: 2
      m_RotationOrder: 4
    m_slopeMin: 0
    m_slopeMax: 0.1
    m_distanceMaskAxes: 0
    m_gaiaNoiseSettings:
      m_translation: {x: 0, y: 0, z: 0}
      m_rotation: {x: 0, y: 0, z: 0}
      m_scale: {x: 10, y: 1, z: 10}
      m_noiseTypeName: Perlin
      m_noiseTypeParams: 
      m_fractalTypeName: Fbm
      m_fractalTypeParams: 
      m_warpEnabled: 0
      m_warpIterations: 0
      m_warpStrength: 0
      m_warpOffset: {x: 0, y: 0, z: 0, w: 0}
    m_noiseSettings: {fileID: 0}
    m_noiseToolSettings:
      worldHeightRemap: {x: 0, y: 0}
      coordSpace: 0
      noiseAssetGUID: 
    m_ShowNoiseTransformSettings: 0
    m_ShowNoisePreviewTexture: 1
    m_noisePreviewTextureLocked: 0
    m_ShowNoiseTypeSettings: 0
    m_scaleNoiseToTerrainSize: 0
    m_collisionMaskExpanded: 1
    m_collisionMasks:
    - m_active: 1
      m_invert: 0
      m_type: 1
      m_treeSpawnRuleGUID: fa90cd46-599c-41d1-b03e-089af34cfafd
      m_tag: PW - Building
      m_Radius: 9.03
      m_growShrinkDistance: 0
      m_layerMask:
        serializedVersion: 2
        m_Bits: 0
      m_layerMaskLayerNames: []
    - m_active: 1
      m_invert: 0
      m_type: 1
      m_treeSpawnRuleGUID: fa90cd46-599c-41d1-b03e-089af34cfafd
      m_tag: PW - Prop
      m_Radius: 2.31
      m_growShrinkDistance: 0
      m_layerMask:
        serializedVersion: 2
        m_Bits: 0
      m_layerMaskLayerNames: []
    - m_active: 1
      m_invert: 0
      m_type: 2
      m_treeSpawnRuleGUID: fa90cd46-599c-41d1-b03e-089af34cfafd
      m_tag: 
      m_Radius: 0.79
      m_growShrinkDistance: 3
      m_layerMask:
        serializedVersion: 2
        m_Bits: 3584
      m_layerMaskLayerNames:
      - PW_Object_Small
      - PW_Object_Medium
      - PW_Object_Large
    m_erosionMaskOutput: 0
    m_erosionSimScale: 9
    m_erosionHydroTimeDelta: 0.05
    m_erosionHydroIterations: 15
    m_erosionThermalTimeDelta: 0.01
    m_erosionThermalIterations: 80
    m_erosionThermalReposeAngle: 80
    m_erosionPrecipRate: 0.5
    m_erosionEvaporationRate: 0.5
    m_erosionFlowRate: 0.5
    m_erosionSedimentCapacity: 0.5
    m_erosionSedimentDepositRate: 0.8
    m_erosionSedimentDissolveRate: 0.5
    m_erosionRiverBankDepositRate: 7
    m_erosionRiverBankDissolveRate: 5
    m_erosionRiverBedDepositRate: 5
    m_erosionRiverBedDissolveRate: 5
    m_erosionShowAdvancedUI: 0
    m_erosionShowThermalUI: 0
    m_erosionShowWaterUI: 0
    m_erosionShowSedimentUI: 0
    m_erosionShowRiverBankUI: 0
    m_smoothVerticality: 0
    m_smoothBlurRadius: 1
    m_textureMaskSpawnRuleGUID: 
    m_concavity: 1
    m_concavityFeatureSize: 10
    m_foldedOut: 0
    m_selectedWorldBiomeMaskGUID: 
    m_growAndShrinkValue: 0
    m_globalSpawnerMaskStackRT: {fileID: 0}
  m_clearSpawnsToggleTrees: 0
  m_clearSpawnsToggleDetails: 0
  m_clearSpawnsToggleGOs: 0
  m_clearSpawnsToggleSpawnExtensions: 0
  m_clearSpawnsToggleProbes: 0
  m_clearSpawnsFor: 1
  m_clearSpawnsFrom: 0
  m_lastGUIDSaved: be45de93ac1acaa4bbba541897d92a84
