%YAML 1.1
%TAG !u! tag:unity3d.com,2011:
--- !u!114 &11400000
MonoBehaviour:
  m_ObjectHideFlags: 0
  m_CorrespondingSourceObject: {fileID: 0}
  m_PrefabInstance: {fileID: 0}
  m_PrefabAsset: {fileID: 0}
  m_GameObject: {fileID: 0}
  m_Enabled: 1
  m_EditorHideFlags: 0
  m_Script: {fileID: 11500000, guid: f1d61257710f55f478816040e1d1dfc9, type: 3}
  m_Name: Coniferous Forest-Tree Spruce
  m_EditorClassIdentifier: 
  m_resources:
    m_resourcesID: 15211b73-899b-418d-a0e4-f9816661767a
    m_name: NewResources
    m_beachHeight: 5
    m_terrainHeight: 1000
    m_texturePrototypes: []
    m_detailPrototypes: []
    m_treePrototypes:
    - m_name: PW_Tree_Spruce_05
      m_desktopPrefab: {fileID: 3971247770807929274, guid: 7a69b0670b5c0e149863a33410944c9a,
        type: 3}
      m_desktopPrefabFileName: 
      m_mobilePrefabFileName: 
      m_bendFactor: 0
      m_healthyColour: {r: 1, g: 1, b: 1, a: 1}
      m_dryColour: {r: 1, g: 1, b: 1, a: 1}
      m_spawnScale: 3
      m_minWidth: 0.75
      m_maxWidth: 1.5
      m_minHeight: 0.75
      m_maxHeight: 1.5
      m_widthRandomPercentage: 0.248
      m_heightRandomPercentage: 0.235
      m_lastUsedSpawnScale: 3
      m_lastUsedMinWidth: 0.75
      m_lastUsedMaxWidth: 1.5
      m_lastUsedMinHeight: 0.75
      m_lastUsedMaxHeight: 1.5
      m_lastUsedWidthRandomPercentage: 0.248
      m_lastUsedHeightRandomPercentage: 0.235
      m_spawnCriteria: []
      m_spawnExtensions: []
      m_instancesFoldOut: 0
      m_dnaFoldedOut: 0
    - m_name: PW_Tree_Spruce_04
      m_desktopPrefab: {fileID: 8027248633461390152, guid: eb24491611266984e80a94a0cbfdc8ad,
        type: 3}
      m_desktopPrefabFileName: 
      m_mobilePrefabFileName: 
      m_bendFactor: 0
      m_healthyColour: {r: 1, g: 1, b: 1, a: 1}
      m_dryColour: {r: 1, g: 1, b: 1, a: 1}
      m_spawnScale: 3
      m_minWidth: 0.75
      m_maxWidth: 1.5
      m_minHeight: 0.75
      m_maxHeight: 1.5
      m_widthRandomPercentage: 0.275
      m_heightRandomPercentage: 0.288
      m_lastUsedSpawnScale: 3
      m_lastUsedMinWidth: 0.75
      m_lastUsedMaxWidth: 1.5
      m_lastUsedMinHeight: 0.75
      m_lastUsedMaxHeight: 1.5
      m_lastUsedWidthRandomPercentage: 0.275
      m_lastUsedHeightRandomPercentage: 0.288
      m_spawnCriteria: []
      m_spawnExtensions: []
      m_instancesFoldOut: 0
      m_dnaFoldedOut: 0
    - m_name: PW_Tree_Spruce_06
      m_desktopPrefab: {fileID: 6847023277904564872, guid: a4cb8c2a723ad6c4998e2c6a4ace99ca,
        type: 3}
      m_desktopPrefabFileName: 
      m_mobilePrefabFileName: 
      m_bendFactor: 0
      m_healthyColour: {r: 1, g: 1, b: 1, a: 1}
      m_dryColour: {r: 1, g: 1, b: 1, a: 1}
      m_spawnScale: 3
      m_minWidth: 0.75
      m_maxWidth: 1.5
      m_minHeight: 0.75
      m_maxHeight: 1.5
      m_widthRandomPercentage: 0.26700002
      m_heightRandomPercentage: 0.291
      m_lastUsedSpawnScale: 3
      m_lastUsedMinWidth: 0.75
      m_lastUsedMaxWidth: 1.5
      m_lastUsedMinHeight: 0.75
      m_lastUsedMaxHeight: 1.5
      m_lastUsedWidthRandomPercentage: 0.26700002
      m_lastUsedHeightRandomPercentage: 0.291
      m_spawnCriteria: []
      m_spawnExtensions: []
      m_instancesFoldOut: 0
      m_dnaFoldedOut: 0
    - m_name: PW_Tree_Spruce_07_Hero
      m_desktopPrefab: {fileID: 6847023277904564872, guid: 0af82a2ab0505bb4b9c279fc7e27eeea,
        type: 3}
      m_desktopPrefabFileName: 
      m_mobilePrefabFileName: 
      m_bendFactor: 0
      m_healthyColour: {r: 1, g: 1, b: 1, a: 1}
      m_dryColour: {r: 1, g: 1, b: 1, a: 1}
      m_spawnScale: 3
      m_minWidth: 0.75
      m_maxWidth: 1.5
      m_minHeight: 0.75
      m_maxHeight: 1.5
      m_widthRandomPercentage: 0.248
      m_heightRandomPercentage: 0.262
      m_lastUsedSpawnScale: 3
      m_lastUsedMinWidth: 0.75
      m_lastUsedMaxWidth: 1.5
      m_lastUsedMinHeight: 0.75
      m_lastUsedMaxHeight: 1.5
      m_lastUsedWidthRandomPercentage: 0.248
      m_lastUsedHeightRandomPercentage: 0.262
      m_spawnCriteria: []
      m_spawnExtensions: []
      m_instancesFoldOut: 0
      m_dnaFoldedOut: 0
    - m_name: PW_Tree_Spruce_02
      m_desktopPrefab: {fileID: 7441485611270874908, guid: 7f88b0ba2baaef0488923234242ff152,
        type: 3}
      m_desktopPrefabFileName: 
      m_mobilePrefabFileName: 
      m_bendFactor: 0
      m_healthyColour: {r: 1, g: 1, b: 1, a: 1}
      m_dryColour: {r: 1, g: 1, b: 1, a: 1}
      m_spawnScale: 3
      m_minWidth: 0.75
      m_maxWidth: 1.5
      m_minHeight: 0.75
      m_maxHeight: 1.5
      m_widthRandomPercentage: 0.16299999
      m_heightRandomPercentage: 0.168
      m_lastUsedSpawnScale: 3
      m_lastUsedMinWidth: 0.75
      m_lastUsedMaxWidth: 1.5
      m_lastUsedMinHeight: 0.75
      m_lastUsedMaxHeight: 1.5
      m_lastUsedWidthRandomPercentage: 0.16299999
      m_lastUsedHeightRandomPercentage: 0.168
      m_spawnCriteria: []
      m_spawnExtensions: []
      m_instancesFoldOut: 0
      m_dnaFoldedOut: 0
    - m_name: PW_Tree_Spruce_01
      m_desktopPrefab: {fileID: 7025381963333907101, guid: 471788783c85bbf4281010ba8d944acf,
        type: 3}
      m_desktopPrefabFileName: 
      m_mobilePrefabFileName: 
      m_bendFactor: 0
      m_healthyColour: {r: 1, g: 1, b: 1, a: 1}
      m_dryColour: {r: 1, g: 1, b: 1, a: 1}
      m_spawnScale: 3
      m_minWidth: 0.75
      m_maxWidth: 1.5
      m_minHeight: 0.75
      m_maxHeight: 1.5
      m_widthRandomPercentage: 0.19
      m_heightRandomPercentage: 0.23
      m_lastUsedSpawnScale: 3
      m_lastUsedMinWidth: 0.75
      m_lastUsedMaxWidth: 1.5
      m_lastUsedMinHeight: 0.75
      m_lastUsedMaxHeight: 1.5
      m_lastUsedWidthRandomPercentage: 0.19
      m_lastUsedHeightRandomPercentage: 0.23
      m_spawnCriteria: []
      m_spawnExtensions: []
      m_instancesFoldOut: 0
      m_dnaFoldedOut: 0
    m_gameObjectPrototypes: []
    m_spawnExtensionPrototypes: []
    m_stampDistributionPrototypes: []
    m_worldBiomeMaskPrototypes: []
    m_probePrototypes: []
  m_x: 0
  m_y: 50
  m_z: 0
  m_width: 10
  m_height: 10
  m_rotation: 0
  m_isWorldmapSpawner: 0
  m_spawnRange: 512
  m_generateRandomSeed: 1
  m_randomSeed: 2023208904
  m_spawnDensity: 0.8
  m_resourcesPath: 
  m_spawnerRules:
  - m_name: PW_Tree_Spruce_05
    m_guid: a994fe6b-310b-40f7-a8d3-4aaaeebd1e7e
    m_useExtendedSpawn: 0
    m_minRequiredFitness: 0.18
    m_minInstanceRequiredFitness: 0
    m_failureRate: 0
    m_maxInstances: 40000000
    m_ignoreMaxInstances: 0
    m_minDirection: 0
    m_maxDirection: 359.9
    m_locationIncrementMin: 8
    m_locationIncrementMax: 22
    m_jitterPercent: 0.6
    m_boundsCheckQuality: 25
    m_resourceType: 2
    m_resourceIdx: 0
    m_imageMasks: []
    m_visualisationColor: {r: 0.7686275, g: 0.3960784, b: 0.3921569, a: 1}
    m_noiseMask: 0
    m_noiseMaskSeed: 0
    m_noiseMaskOctaves: 8
    m_noiseMaskPersistence: 0.25
    m_noiseMaskFrequency: 1
    m_noiseMaskLacunarity: 1.5
    m_noiseZoom: 50
    m_noiseStrength: 1
    m_noiseInvert: 0
    m_isActive: 1
    m_isFoldedOut: 0
    m_currInstanceCnt: 0
    m_activeInstanceCnt: 0
    m_inactiveInstanceCnt: 0
    m_resourceSettingsFoldedOut: 0
    m_isHelpActive: 0
    m_spawnedInstances: 3334
    m_goSpawnTargetMode: 0
    m_goSpawnTarget: {fileID: 0}
    m_terrainGOSpawnTargetName: Gaia Game Object Spawns
    m_terrainDetailDensity: 15
    m_terrainDetailMinFitness: 0.5
    m_terrainDetailFitnessBeginFadeOut: 0.6
    m_createdBiomeController: {fileID: 0}
    m_visibleInSceneHierarchy: 1
    m_usesBoxStandIn: 0
    m_boundsCollisionCheck: 0
  - m_name: PW_Tree_Spruce_04
    m_guid: a24576f2-d13a-4886-9e60-9d66a7e266e8
    m_useExtendedSpawn: 0
    m_minRequiredFitness: 0.22799999
    m_minInstanceRequiredFitness: 0
    m_failureRate: 0
    m_maxInstances: 40000000
    m_ignoreMaxInstances: 0
    m_minDirection: 0
    m_maxDirection: 359.9
    m_locationIncrementMin: 10
    m_locationIncrementMax: 35
    m_jitterPercent: 0.71
    m_boundsCheckQuality: 25
    m_resourceType: 2
    m_resourceIdx: 1
    m_imageMasks: []
    m_visualisationColor: {r: 0.66787577, g: 0.6271566, b: 0.53051823, a: 1}
    m_noiseMask: 0
    m_noiseMaskSeed: 0
    m_noiseMaskOctaves: 8
    m_noiseMaskPersistence: 0.25
    m_noiseMaskFrequency: 1
    m_noiseMaskLacunarity: 1.5
    m_noiseZoom: 50
    m_noiseStrength: 1
    m_noiseInvert: 0
    m_isActive: 1
    m_isFoldedOut: 0
    m_currInstanceCnt: 0
    m_activeInstanceCnt: 0
    m_inactiveInstanceCnt: 0
    m_resourceSettingsFoldedOut: 0
    m_isHelpActive: 0
    m_spawnedInstances: 2058
    m_goSpawnTargetMode: 0
    m_goSpawnTarget: {fileID: 0}
    m_terrainGOSpawnTargetName: Gaia Game Object Spawns
    m_terrainDetailDensity: 15
    m_terrainDetailMinFitness: 0.5
    m_terrainDetailFitnessBeginFadeOut: 0.6
    m_createdBiomeController: {fileID: 0}
    m_visibleInSceneHierarchy: 1
    m_usesBoxStandIn: 0
    m_boundsCollisionCheck: 0
  - m_name: PW_Tree_Spruce_06
    m_guid: 720ee741-0c9a-44f9-a143-2c568bf68c5b
    m_useExtendedSpawn: 0
    m_minRequiredFitness: 0.184
    m_minInstanceRequiredFitness: 0
    m_failureRate: 0
    m_maxInstances: 40000000
    m_ignoreMaxInstances: 0
    m_minDirection: 0
    m_maxDirection: 359.9
    m_locationIncrementMin: 9
    m_locationIncrementMax: 25
    m_jitterPercent: 0.686
    m_boundsCheckQuality: 25
    m_resourceType: 2
    m_resourceIdx: 2
    m_imageMasks: []
    m_visualisationColor: {r: 0.9315582, g: 0.88487065, b: 0.5884144, a: 1}
    m_noiseMask: 0
    m_noiseMaskSeed: 0
    m_noiseMaskOctaves: 8
    m_noiseMaskPersistence: 0.25
    m_noiseMaskFrequency: 1
    m_noiseMaskLacunarity: 1.5
    m_noiseZoom: 50
    m_noiseStrength: 1
    m_noiseInvert: 0
    m_isActive: 1
    m_isFoldedOut: 0
    m_currInstanceCnt: 0
    m_activeInstanceCnt: 0
    m_inactiveInstanceCnt: 0
    m_resourceSettingsFoldedOut: 0
    m_isHelpActive: 0
    m_spawnedInstances: 2465
    m_goSpawnTargetMode: 0
    m_goSpawnTarget: {fileID: 0}
    m_terrainGOSpawnTargetName: Gaia Game Object Spawns
    m_terrainDetailDensity: 15
    m_terrainDetailMinFitness: 0.5
    m_terrainDetailFitnessBeginFadeOut: 0.6
    m_createdBiomeController: {fileID: 0}
    m_visibleInSceneHierarchy: 1
    m_usesBoxStandIn: 0
    m_boundsCollisionCheck: 0
  - m_name: PW_Tree_Spruce_07_Hero
    m_guid: 13ab9ba7-dbf2-4254-ab98-f06be259f947
    m_useExtendedSpawn: 0
    m_minRequiredFitness: 0.25
    m_minInstanceRequiredFitness: 0
    m_failureRate: 0
    m_maxInstances: 40000000
    m_ignoreMaxInstances: 0
    m_minDirection: 0
    m_maxDirection: 359.9
    m_locationIncrementMin: 20
    m_locationIncrementMax: 25
    m_jitterPercent: 0.6
    m_boundsCheckQuality: 25
    m_resourceType: 2
    m_resourceIdx: 3
    m_imageMasks: []
    m_visualisationColor: {r: 0.7433828, g: 0.5499383, b: 0.402634, a: 1}
    m_noiseMask: 0
    m_noiseMaskSeed: 0
    m_noiseMaskOctaves: 8
    m_noiseMaskPersistence: 0.25
    m_noiseMaskFrequency: 1
    m_noiseMaskLacunarity: 1.5
    m_noiseZoom: 50
    m_noiseStrength: 1
    m_noiseInvert: 0
    m_isActive: 0
    m_isFoldedOut: 0
    m_currInstanceCnt: 0
    m_activeInstanceCnt: 0
    m_inactiveInstanceCnt: 0
    m_resourceSettingsFoldedOut: 0
    m_isHelpActive: 0
    m_spawnedInstances: 0
    m_goSpawnTargetMode: 0
    m_goSpawnTarget: {fileID: 0}
    m_terrainGOSpawnTargetName: Gaia Game Object Spawns
    m_terrainDetailDensity: 15
    m_terrainDetailMinFitness: 0.5
    m_terrainDetailFitnessBeginFadeOut: 0.6
    m_createdBiomeController: {fileID: 0}
    m_visibleInSceneHierarchy: 1
    m_usesBoxStandIn: 0
    m_boundsCollisionCheck: 0
  - m_name: PW_Tree_Spruce_02
    m_guid: 6f765a9b-eb79-4de2-9b2b-88412abf9b1f
    m_useExtendedSpawn: 0
    m_minRequiredFitness: 0.25
    m_minInstanceRequiredFitness: 0
    m_failureRate: 0
    m_maxInstances: 40000000
    m_ignoreMaxInstances: 0
    m_minDirection: 0
    m_maxDirection: 359.9
    m_locationIncrementMin: 25
    m_locationIncrementMax: 25
    m_jitterPercent: 0.6
    m_boundsCheckQuality: 25
    m_resourceType: 2
    m_resourceIdx: 4
    m_imageMasks: []
    m_visualisationColor: {r: 0.74605155, g: 0.80222553, b: 0.6139375, a: 1}
    m_noiseMask: 0
    m_noiseMaskSeed: 0
    m_noiseMaskOctaves: 8
    m_noiseMaskPersistence: 0.25
    m_noiseMaskFrequency: 1
    m_noiseMaskLacunarity: 1.5
    m_noiseZoom: 50
    m_noiseStrength: 1
    m_noiseInvert: 0
    m_isActive: 0
    m_isFoldedOut: 0
    m_currInstanceCnt: 0
    m_activeInstanceCnt: 0
    m_inactiveInstanceCnt: 0
    m_resourceSettingsFoldedOut: 0
    m_isHelpActive: 0
    m_spawnedInstances: 0
    m_goSpawnTargetMode: 0
    m_goSpawnTarget: {fileID: 0}
    m_terrainGOSpawnTargetName: Gaia Game Object Spawns
    m_terrainDetailDensity: 15
    m_terrainDetailMinFitness: 0.5
    m_terrainDetailFitnessBeginFadeOut: 0.6
    m_createdBiomeController: {fileID: 0}
    m_visibleInSceneHierarchy: 1
    m_usesBoxStandIn: 0
    m_boundsCollisionCheck: 0
  - m_name: PW_Tree_Spruce_01
    m_guid: 3929cc31-5485-4d1a-865c-54ef8baaf280
    m_useExtendedSpawn: 0
    m_minRequiredFitness: 0.25
    m_minInstanceRequiredFitness: 0
    m_failureRate: 0
    m_maxInstances: 40000000
    m_ignoreMaxInstances: 0
    m_minDirection: 0
    m_maxDirection: 359.9
    m_locationIncrementMin: 20
    m_locationIncrementMax: 65
    m_jitterPercent: 0.6
    m_boundsCheckQuality: 25
    m_resourceType: 2
    m_resourceIdx: 5
    m_imageMasks: []
    m_visualisationColor: {r: 0.83086157, g: 0.58278054, b: 0.46712065, a: 1}
    m_noiseMask: 0
    m_noiseMaskSeed: 0
    m_noiseMaskOctaves: 8
    m_noiseMaskPersistence: 0.25
    m_noiseMaskFrequency: 1
    m_noiseMaskLacunarity: 1.5
    m_noiseZoom: 50
    m_noiseStrength: 1
    m_noiseInvert: 0
    m_isActive: 0
    m_isFoldedOut: 0
    m_currInstanceCnt: 0
    m_activeInstanceCnt: 0
    m_inactiveInstanceCnt: 0
    m_resourceSettingsFoldedOut: 0
    m_isHelpActive: 0
    m_spawnedInstances: 0
    m_goSpawnTargetMode: 0
    m_goSpawnTarget: {fileID: 0}
    m_terrainGOSpawnTargetName: Gaia Game Object Spawns
    m_terrainDetailDensity: 15
    m_terrainDetailMinFitness: 0.5
    m_terrainDetailFitnessBeginFadeOut: 0.6
    m_createdBiomeController: {fileID: 0}
    m_visibleInSceneHierarchy: 1
    m_usesBoxStandIn: 0
    m_boundsCollisionCheck: 0
  m_showGizmos: 1
  m_showDebug: 0
  m_showTerrainHelper: 1
  m_spawnMode: 0
  imageMasks:
  - m_active: 1
    m_invert: 0
    m_hasErrors: 0
    m_influence: 0
    m_operation: 9
    m_blendMode: 0
    m_imageMaskLocation: 0
    m_strength: 1
    m_seaLevel: 25
    m_maxWorldHeight: 96.188965
    m_minWorldHeight: 0
    m_xOffSet: 0
    m_zOffSet: 0
    m_xOffSetScalar: 0
    m_zOffSetScalar: 0
    m_imageMaskTextureGUID: 
    m_imageMaskFilterMode: 0
    m_imageMaskColorSelectionColor: {r: 1, g: 1, b: 1, a: 1}
    m_imageMaskColorSelectionAccuracy: 0.5
    m_distanceMaskCurve:
      serializedVersion: 2
      m_Curve:
      - serializedVersion: 3
        time: 0
        value: 1
        inSlope: 0
        outSlope: 0
        tangentMode: 0
        weightedMode: 0
        inWeight: 0
        outWeight: 0
      - serializedVersion: 3
        time: 1
        value: 0
        inSlope: 0
        outSlope: 0
        tangentMode: 0
        weightedMode: 0
        inWeight: 0
        outWeight: 0
      m_PreInfinity: 2
      m_PostInfinity: 2
      m_RotationOrder: 4
    m_heightMaskCurve:
      serializedVersion: 2
      m_Curve:
      - serializedVersion: 3
        time: 0
        value: 0
        inSlope: 0
        outSlope: 0
        tangentMode: 0
        weightedMode: 0
        inWeight: 0
        outWeight: 0
      - serializedVersion: 3
        time: 1
        value: 1
        inSlope: 0
        outSlope: 0
        tangentMode: 0
        weightedMode: 0
        inWeight: 0
        outWeight: 0
      m_PreInfinity: 2
      m_PostInfinity: 2
      m_RotationOrder: 4
    m_strengthTransformCurve:
      serializedVersion: 2
      m_Curve:
      - serializedVersion: 3
        time: 0
        value: 0
        inSlope: 1
        outSlope: 1
        tangentMode: 0
        weightedMode: 0
        inWeight: 0
        outWeight: 0
      - serializedVersion: 3
        time: 0.23396453
        value: 0.692639
        inSlope: 1
        outSlope: 1
        tangentMode: 0
        weightedMode: 0
        inWeight: 0.33333334
        outWeight: 0.33333334
      - serializedVersion: 3
        time: 1
        value: 1
        inSlope: 0.3819785
        outSlope: 0.3819785
        tangentMode: 0
        weightedMode: 0
        inWeight: 0.15131044
        outWeight: 0
      m_PreInfinity: 2
      m_PostInfinity: 2
      m_RotationOrder: 4
    m_heightMaskType: 1
    m_heightMaskUnit: 0
    m_relativeHeightMin: -10
    m_relativeHeightMax: 10
    m_absoluteHeightMin: 2.5
    m_absoluteHeightMax: 22.5
    m_seaLevelRelativeHeightMin: -109876.55
    m_seaLevelRelativeHeightMax: 109876.55
    tree1active: 0
    tree2active: 0
    m_slopeMaskCurve:
      serializedVersion: 2
      m_Curve:
      - serializedVersion: 3
        time: 0
        value: 1
        inSlope: 0
        outSlope: 0
        tangentMode: 0
        weightedMode: 0
        inWeight: 0
        outWeight: 0
      - serializedVersion: 3
        time: 1
        value: 0
        inSlope: 0
        outSlope: 0
        tangentMode: 0
        weightedMode: 0
        inWeight: 0
        outWeight: 0
      m_PreInfinity: 2
      m_PostInfinity: 2
      m_RotationOrder: 4
    m_slopeMin: 0
    m_slopeMax: 0.1
    m_distanceMaskAxes: 0
    m_gaiaNoiseSettings:
      m_translation: {x: 0, y: 0, z: 0}
      m_rotation: {x: 0, y: 0, z: 0}
      m_scale: {x: 10, y: 1, z: 10}
      m_noiseTypeName: Perlin
      m_noiseTypeParams: 
      m_fractalTypeName: Fbm
      m_fractalTypeParams: 
      m_warpEnabled: 0
      m_warpIterations: 0
      m_warpStrength: 0
      m_warpOffset: {x: 0, y: 0, z: 0, w: 0}
    m_noiseSettings: {fileID: 0}
    m_noiseToolSettings:
      worldHeightRemap: {x: 0, y: 0}
      coordSpace: 0
      noiseAssetGUID: 
    m_ShowNoiseTransformSettings: 0
    m_ShowNoisePreviewTexture: 1
    m_noisePreviewTextureLocked: 0
    m_ShowNoiseTypeSettings: 0
    m_scaleNoiseToTerrainSize: 0
    m_collisionMaskExpanded: 1
    m_collisionMasks: []
    m_erosionMaskOutput: 0
    m_erosionSimScale: 9
    m_erosionHydroTimeDelta: 0.05
    m_erosionHydroIterations: 15
    m_erosionThermalTimeDelta: 0.01
    m_erosionThermalIterations: 80
    m_erosionThermalReposeAngle: 80
    m_erosionPrecipRate: 0.5
    m_erosionEvaporationRate: 0.5
    m_erosionFlowRate: 0.5
    m_erosionSedimentCapacity: 0.5
    m_erosionSedimentDepositRate: 0.8
    m_erosionSedimentDissolveRate: 0.5
    m_erosionRiverBankDepositRate: 7
    m_erosionRiverBankDissolveRate: 5
    m_erosionRiverBedDepositRate: 5
    m_erosionRiverBedDissolveRate: 5
    m_erosionShowAdvancedUI: 0
    m_erosionShowThermalUI: 0
    m_erosionShowWaterUI: 0
    m_erosionShowSedimentUI: 0
    m_erosionShowRiverBankUI: 0
    m_smoothVerticality: 0
    m_smoothBlurRadius: 1
    m_textureMaskSpawnRuleGUID: f83a3edc-7872-4e7e-91fc-855faf09cc46
    m_concavity: 1
    m_concavityFeatureSize: 10
    m_foldedOut: 0
    m_selectedWorldBiomeMaskGUID: 
    m_growAndShrinkValue: 0
    m_globalSpawnerMaskStackRT: {fileID: 0}
  - m_active: 1
    m_invert: 0
    m_hasErrors: 0
    m_influence: 0
    m_operation: 9
    m_blendMode: 3
    m_imageMaskLocation: 0
    m_strength: 1
    m_seaLevel: 25
    m_maxWorldHeight: 96.188965
    m_minWorldHeight: 0
    m_xOffSet: 0
    m_zOffSet: 0
    m_xOffSetScalar: 0
    m_zOffSetScalar: 0
    m_imageMaskTextureGUID: 
    m_imageMaskFilterMode: 0
    m_imageMaskColorSelectionColor: {r: 1, g: 1, b: 1, a: 1}
    m_imageMaskColorSelectionAccuracy: 0.5
    m_distanceMaskCurve:
      serializedVersion: 2
      m_Curve:
      - serializedVersion: 3
        time: 0
        value: 1
        inSlope: 0
        outSlope: 0
        tangentMode: 0
        weightedMode: 0
        inWeight: 0
        outWeight: 0
      - serializedVersion: 3
        time: 1
        value: 0
        inSlope: 0
        outSlope: 0
        tangentMode: 0
        weightedMode: 0
        inWeight: 0
        outWeight: 0
      m_PreInfinity: 2
      m_PostInfinity: 2
      m_RotationOrder: 4
    m_heightMaskCurve:
      serializedVersion: 2
      m_Curve:
      - serializedVersion: 3
        time: 0
        value: 0
        inSlope: 0
        outSlope: 0
        tangentMode: 0
        weightedMode: 0
        inWeight: 0
        outWeight: 0
      - serializedVersion: 3
        time: 1
        value: 1
        inSlope: 0
        outSlope: 0
        tangentMode: 0
        weightedMode: 0
        inWeight: 0
        outWeight: 0
      m_PreInfinity: 2
      m_PostInfinity: 2
      m_RotationOrder: 4
    m_strengthTransformCurve:
      serializedVersion: 2
      m_Curve:
      - serializedVersion: 3
        time: 0
        value: 0
        inSlope: 0.08061069
        outSlope: 0.08061069
        tangentMode: 0
        weightedMode: 0
        inWeight: 0
        outWeight: 0.12427546
      - serializedVersion: 3
        time: 0.9462091
        value: 0.08465458
        inSlope: 0.21925512
        outSlope: 0.21925512
        tangentMode: 0
        weightedMode: 0
        inWeight: 0.117644206
        outWeight: 0.33333334
      - serializedVersion: 3
        time: 1
        value: 0.66412354
        inSlope: 1
        outSlope: 1
        tangentMode: 0
        weightedMode: 0
        inWeight: 0
        outWeight: 0
      m_PreInfinity: 2
      m_PostInfinity: 2
      m_RotationOrder: 4
    m_heightMaskType: 1
    m_heightMaskUnit: 0
    m_relativeHeightMin: -10
    m_relativeHeightMax: 10
    m_absoluteHeightMin: 2.5
    m_absoluteHeightMax: 22.5
    m_seaLevelRelativeHeightMin: -109876.55
    m_seaLevelRelativeHeightMax: 109876.55
    tree1active: 0
    tree2active: 0
    m_slopeMaskCurve:
      serializedVersion: 2
      m_Curve:
      - serializedVersion: 3
        time: 0
        value: 1
        inSlope: 0
        outSlope: 0
        tangentMode: 0
        weightedMode: 0
        inWeight: 0
        outWeight: 0
      - serializedVersion: 3
        time: 1
        value: 0
        inSlope: 0
        outSlope: 0
        tangentMode: 0
        weightedMode: 0
        inWeight: 0
        outWeight: 0
      m_PreInfinity: 2
      m_PostInfinity: 2
      m_RotationOrder: 4
    m_slopeMin: 0
    m_slopeMax: 0.1
    m_distanceMaskAxes: 0
    m_gaiaNoiseSettings:
      m_translation: {x: 0, y: 0, z: 0}
      m_rotation: {x: 0, y: 0, z: 0}
      m_scale: {x: 10, y: 1, z: 10}
      m_noiseTypeName: Perlin
      m_noiseTypeParams: 
      m_fractalTypeName: Fbm
      m_fractalTypeParams: 
      m_warpEnabled: 0
      m_warpIterations: 0
      m_warpStrength: 0
      m_warpOffset: {x: 0, y: 0, z: 0, w: 0}
    m_noiseSettings: {fileID: 0}
    m_noiseToolSettings:
      worldHeightRemap: {x: 0, y: 0}
      coordSpace: 0
      noiseAssetGUID: 
    m_ShowNoiseTransformSettings: 0
    m_ShowNoisePreviewTexture: 1
    m_noisePreviewTextureLocked: 0
    m_ShowNoiseTypeSettings: 0
    m_scaleNoiseToTerrainSize: 0
    m_collisionMaskExpanded: 1
    m_collisionMasks: []
    m_erosionMaskOutput: 0
    m_erosionSimScale: 9
    m_erosionHydroTimeDelta: 0.05
    m_erosionHydroIterations: 15
    m_erosionThermalTimeDelta: 0.01
    m_erosionThermalIterations: 80
    m_erosionThermalReposeAngle: 80
    m_erosionPrecipRate: 0.5
    m_erosionEvaporationRate: 0.5
    m_erosionFlowRate: 0.5
    m_erosionSedimentCapacity: 0.5
    m_erosionSedimentDepositRate: 0.8
    m_erosionSedimentDissolveRate: 0.5
    m_erosionRiverBankDepositRate: 7
    m_erosionRiverBankDissolveRate: 5
    m_erosionRiverBedDepositRate: 5
    m_erosionRiverBedDissolveRate: 5
    m_erosionShowAdvancedUI: 0
    m_erosionShowThermalUI: 0
    m_erosionShowWaterUI: 0
    m_erosionShowSedimentUI: 0
    m_erosionShowRiverBankUI: 0
    m_smoothVerticality: 0
    m_smoothBlurRadius: 1
    m_textureMaskSpawnRuleGUID: ee173e40-2162-4f9a-a16d-d959a4e40417
    m_concavity: 1
    m_concavityFeatureSize: 10
    m_foldedOut: 0
    m_selectedWorldBiomeMaskGUID: 
    m_growAndShrinkValue: 0
    m_globalSpawnerMaskStackRT: {fileID: 0}
  - m_active: 1
    m_invert: 0
    m_hasErrors: 0
    m_influence: 0
    m_operation: 3
    m_blendMode: 0
    m_imageMaskLocation: 0
    m_strength: 1
    m_seaLevel: 25
    m_maxWorldHeight: 96.188965
    m_minWorldHeight: 0
    m_xOffSet: 0
    m_zOffSet: 0
    m_xOffSetScalar: 0
    m_zOffSetScalar: 0
    m_imageMaskTextureGUID: 
    m_imageMaskFilterMode: 0
    m_imageMaskColorSelectionColor: {r: 1, g: 1, b: 1, a: 1}
    m_imageMaskColorSelectionAccuracy: 0.5
    m_distanceMaskCurve:
      serializedVersion: 2
      m_Curve:
      - serializedVersion: 3
        time: 0
        value: 1
        inSlope: 0
        outSlope: 0
        tangentMode: 0
        weightedMode: 0
        inWeight: 0
        outWeight: 0
      - serializedVersion: 3
        time: 1
        value: 0
        inSlope: 0
        outSlope: 0
        tangentMode: 0
        weightedMode: 0
        inWeight: 0
        outWeight: 0
      m_PreInfinity: 2
      m_PostInfinity: 2
      m_RotationOrder: 4
    m_heightMaskCurve:
      serializedVersion: 2
      m_Curve:
      - serializedVersion: 3
        time: 0
        value: 0
        inSlope: 0
        outSlope: 0
        tangentMode: 0
        weightedMode: 0
        inWeight: 0
        outWeight: 0
      - serializedVersion: 3
        time: 1
        value: 1
        inSlope: 0
        outSlope: 0
        tangentMode: 0
        weightedMode: 0
        inWeight: 0
        outWeight: 0
      m_PreInfinity: 2
      m_PostInfinity: 2
      m_RotationOrder: 4
    m_strengthTransformCurve:
      serializedVersion: 2
      m_Curve:
      - serializedVersion: 3
        time: 0
        value: 0
        inSlope: 1
        outSlope: 1
        tangentMode: 0
        weightedMode: 0
        inWeight: 0
        outWeight: 0
      - serializedVersion: 3
        time: 1
        value: 1
        inSlope: 1
        outSlope: 1
        tangentMode: 0
        weightedMode: 0
        inWeight: 0
        outWeight: 0
      m_PreInfinity: 2
      m_PostInfinity: 2
      m_RotationOrder: 4
    m_heightMaskType: 1
    m_heightMaskUnit: 0
    m_relativeHeightMin: -10
    m_relativeHeightMax: 10
    m_absoluteHeightMin: 2.5
    m_absoluteHeightMax: 22.5
    m_seaLevelRelativeHeightMin: -109876.55
    m_seaLevelRelativeHeightMax: 109876.55
    tree1active: 0
    tree2active: 0
    m_slopeMaskCurve:
      serializedVersion: 2
      m_Curve:
      - serializedVersion: 3
        time: 0
        value: 1
        inSlope: 0
        outSlope: 0
        tangentMode: 0
        weightedMode: 0
        inWeight: 0
        outWeight: 0
      - serializedVersion: 3
        time: 1
        value: 0
        inSlope: 0
        outSlope: 0
        tangentMode: 0
        weightedMode: 0
        inWeight: 0
        outWeight: 0
      m_PreInfinity: 2
      m_PostInfinity: 2
      m_RotationOrder: 4
    m_slopeMin: 0
    m_slopeMax: 0.179
    m_distanceMaskAxes: 0
    m_gaiaNoiseSettings:
      m_translation: {x: 0, y: 0, z: 0}
      m_rotation: {x: 0, y: 0, z: 0}
      m_scale: {x: 10, y: 1, z: 10}
      m_noiseTypeName: Perlin
      m_noiseTypeParams: 
      m_fractalTypeName: Fbm
      m_fractalTypeParams: 
      m_warpEnabled: 0
      m_warpIterations: 0
      m_warpStrength: 0
      m_warpOffset: {x: 0, y: 0, z: 0, w: 0}
    m_noiseSettings: {fileID: 0}
    m_noiseToolSettings:
      worldHeightRemap: {x: 0, y: 0}
      coordSpace: 0
      noiseAssetGUID: 
    m_ShowNoiseTransformSettings: 0
    m_ShowNoisePreviewTexture: 1
    m_noisePreviewTextureLocked: 0
    m_ShowNoiseTypeSettings: 0
    m_scaleNoiseToTerrainSize: 0
    m_collisionMaskExpanded: 1
    m_collisionMasks: []
    m_erosionMaskOutput: 0
    m_erosionSimScale: 9
    m_erosionHydroTimeDelta: 0.05
    m_erosionHydroIterations: 15
    m_erosionThermalTimeDelta: 0.01
    m_erosionThermalIterations: 80
    m_erosionThermalReposeAngle: 80
    m_erosionPrecipRate: 0.5
    m_erosionEvaporationRate: 0.5
    m_erosionFlowRate: 0.5
    m_erosionSedimentCapacity: 0.5
    m_erosionSedimentDepositRate: 0.8
    m_erosionSedimentDissolveRate: 0.5
    m_erosionRiverBankDepositRate: 7
    m_erosionRiverBankDissolveRate: 5
    m_erosionRiverBedDepositRate: 5
    m_erosionRiverBedDissolveRate: 5
    m_erosionShowAdvancedUI: 0
    m_erosionShowThermalUI: 0
    m_erosionShowWaterUI: 0
    m_erosionShowSedimentUI: 0
    m_erosionShowRiverBankUI: 0
    m_smoothVerticality: 0
    m_smoothBlurRadius: 1
    m_textureMaskSpawnRuleGUID: 
    m_concavity: 1
    m_concavityFeatureSize: 10
    m_foldedOut: 0
    m_selectedWorldBiomeMaskGUID: 
    m_growAndShrinkValue: 0
    m_globalSpawnerMaskStackRT: {fileID: 0}
  - m_active: 1
    m_invert: 0
    m_hasErrors: 0
    m_influence: 0
    m_operation: 5
    m_blendMode: 0
    m_imageMaskLocation: 0
    m_strength: 1
    m_seaLevel: 25
    m_maxWorldHeight: 96.188965
    m_minWorldHeight: 0
    m_xOffSet: 0
    m_zOffSet: 0
    m_xOffSetScalar: 0
    m_zOffSetScalar: 0
    m_imageMaskTextureGUID: 
    m_imageMaskFilterMode: 0
    m_imageMaskColorSelectionColor: {r: 1, g: 1, b: 1, a: 1}
    m_imageMaskColorSelectionAccuracy: 0.5
    m_distanceMaskCurve:
      serializedVersion: 2
      m_Curve:
      - serializedVersion: 3
        time: 0
        value: 1
        inSlope: 0
        outSlope: 0
        tangentMode: 0
        weightedMode: 0
        inWeight: 0
        outWeight: 0
      - serializedVersion: 3
        time: 1
        value: 0
        inSlope: 0
        outSlope: 0
        tangentMode: 0
        weightedMode: 0
        inWeight: 0
        outWeight: 0
      m_PreInfinity: 2
      m_PostInfinity: 2
      m_RotationOrder: 4
    m_heightMaskCurve:
      serializedVersion: 2
      m_Curve:
      - serializedVersion: 3
        time: 0
        value: 0
        inSlope: 0
        outSlope: 0
        tangentMode: 0
        weightedMode: 0
        inWeight: 0
        outWeight: 0
      - serializedVersion: 3
        time: 1
        value: 1
        inSlope: 0
        outSlope: 0
        tangentMode: 0
        weightedMode: 0
        inWeight: 0
        outWeight: 0
      m_PreInfinity: 2
      m_PostInfinity: 2
      m_RotationOrder: 4
    m_strengthTransformCurve:
      serializedVersion: 2
      m_Curve:
      - serializedVersion: 3
        time: 0
        value: 0
        inSlope: 1
        outSlope: 1
        tangentMode: 0
        weightedMode: 0
        inWeight: 0
        outWeight: 0
      - serializedVersion: 3
        time: 0.587151
        value: 0.53179514
        inSlope: 1
        outSlope: 1
        tangentMode: 0
        weightedMode: 0
        inWeight: 0.33333334
        outWeight: 0.33333334
      - serializedVersion: 3
        time: 1
        value: 1
        inSlope: 1
        outSlope: 1
        tangentMode: 0
        weightedMode: 0
        inWeight: 0
        outWeight: 0
      m_PreInfinity: 2
      m_PostInfinity: 2
      m_RotationOrder: 4
    m_heightMaskType: 1
    m_heightMaskUnit: 0
    m_relativeHeightMin: -10
    m_relativeHeightMax: 10
    m_absoluteHeightMin: 2.5
    m_absoluteHeightMax: 22.5
    m_seaLevelRelativeHeightMin: -109876.55
    m_seaLevelRelativeHeightMax: 109876.55
    tree1active: 0
    tree2active: 0
    m_slopeMaskCurve:
      serializedVersion: 2
      m_Curve:
      - serializedVersion: 3
        time: 0
        value: 1
        inSlope: 0
        outSlope: 0
        tangentMode: 0
        weightedMode: 0
        inWeight: 0
        outWeight: 0
      - serializedVersion: 3
        time: 1
        value: 0
        inSlope: 0
        outSlope: 0
        tangentMode: 0
        weightedMode: 0
        inWeight: 0
        outWeight: 0
      m_PreInfinity: 2
      m_PostInfinity: 2
      m_RotationOrder: 4
    m_slopeMin: 0
    m_slopeMax: 0.1
    m_distanceMaskAxes: 0
    m_gaiaNoiseSettings:
      m_translation: {x: 0, y: 0, z: 0}
      m_rotation: {x: 0, y: 0, z: 0}
      m_scale: {x: 10, y: 1, z: 10}
      m_noiseTypeName: Perlin
      m_noiseTypeParams: 
      m_fractalTypeName: Fbm
      m_fractalTypeParams: 
      m_warpEnabled: 0
      m_warpIterations: 0
      m_warpStrength: 0
      m_warpOffset: {x: 0, y: 0, z: 0, w: 0}
    m_noiseSettings: {fileID: 0}
    m_noiseToolSettings:
      worldHeightRemap: {x: 0, y: 0}
      coordSpace: 0
      noiseAssetGUID: 
    m_ShowNoiseTransformSettings: 0
    m_ShowNoisePreviewTexture: 1
    m_noisePreviewTextureLocked: 0
    m_ShowNoiseTypeSettings: 0
    m_scaleNoiseToTerrainSize: 0
    m_collisionMaskExpanded: 1
    m_collisionMasks:
    - m_active: 1
      m_invert: 0
      m_type: 2
      m_treeSpawnRuleGUID: fa90cd46-599c-41d1-b03e-089af34cfafd
      m_tag: 
      m_Radius: 0.79
      m_growShrinkDistance: 3
      m_layerMask:
        serializedVersion: 2
        m_Bits: 3584
      m_layerMaskLayerNames:
      - PW_Object_Small
      - PW_Object_Medium
      - PW_Object_Large
    - m_active: 1
      m_invert: 0
      m_type: 3
      m_treeSpawnRuleGUID: fa90cd46-599c-41d1-b03e-089af34cfafd
      m_tag: 
      m_Radius: 0.79
      m_growShrinkDistance: -3
      m_layerMask:
        serializedVersion: 2
        m_Bits: 3584
      m_layerMaskLayerNames:
      - PW_Object_Small
      - PW_Object_Medium
      - PW_Object_Large
    - m_active: 1
      m_invert: 0
      m_type: 1
      m_treeSpawnRuleGUID: 
      m_tag: PW - Nature
      m_Radius: 7
      m_growShrinkDistance: 0
      m_layerMask:
        serializedVersion: 2
        m_Bits: 0
      m_layerMaskLayerNames: []
    - m_active: 1
      m_invert: 0
      m_type: 1
      m_treeSpawnRuleGUID: fa90cd46-599c-41d1-b03e-089af34cfafd
      m_tag: PW - Building
      m_Radius: 9.03
      m_growShrinkDistance: 0
      m_layerMask:
        serializedVersion: 2
        m_Bits: 0
      m_layerMaskLayerNames: []
    - m_active: 1
      m_invert: 0
      m_type: 1
      m_treeSpawnRuleGUID: fa90cd46-599c-41d1-b03e-089af34cfafd
      m_tag: PW - Prop
      m_Radius: 2.31
      m_growShrinkDistance: 0
      m_layerMask:
        serializedVersion: 2
        m_Bits: 0
      m_layerMaskLayerNames: []
    m_erosionMaskOutput: 0
    m_erosionSimScale: 9
    m_erosionHydroTimeDelta: 0.05
    m_erosionHydroIterations: 15
    m_erosionThermalTimeDelta: 0.01
    m_erosionThermalIterations: 80
    m_erosionThermalReposeAngle: 80
    m_erosionPrecipRate: 0.5
    m_erosionEvaporationRate: 0.5
    m_erosionFlowRate: 0.5
    m_erosionSedimentCapacity: 0.5
    m_erosionSedimentDepositRate: 0.8
    m_erosionSedimentDissolveRate: 0.5
    m_erosionRiverBankDepositRate: 7
    m_erosionRiverBankDissolveRate: 5
    m_erosionRiverBedDepositRate: 5
    m_erosionRiverBedDissolveRate: 5
    m_erosionShowAdvancedUI: 0
    m_erosionShowThermalUI: 0
    m_erosionShowWaterUI: 0
    m_erosionShowSedimentUI: 0
    m_erosionShowRiverBankUI: 0
    m_smoothVerticality: 0
    m_smoothBlurRadius: 1
    m_textureMaskSpawnRuleGUID: 
    m_concavity: 1
    m_concavityFeatureSize: 10
    m_foldedOut: 0
    m_selectedWorldBiomeMaskGUID: 
    m_growAndShrinkValue: 0
    m_globalSpawnerMaskStackRT: {fileID: 0}
  - m_active: 0
    m_invert: 0
    m_hasErrors: 0
    m_influence: 0
    m_operation: 6
    m_blendMode: 0
    m_imageMaskLocation: 0
    m_strength: 1
    m_seaLevel: 25
    m_maxWorldHeight: 96.188965
    m_minWorldHeight: 0
    m_xOffSet: 0
    m_zOffSet: 0
    m_xOffSetScalar: 0
    m_zOffSetScalar: 0
    m_imageMaskTextureGUID: 
    m_imageMaskFilterMode: 0
    m_imageMaskColorSelectionColor: {r: 1, g: 1, b: 1, a: 1}
    m_imageMaskColorSelectionAccuracy: 0.5
    m_distanceMaskCurve:
      serializedVersion: 2
      m_Curve:
      - serializedVersion: 3
        time: 0
        value: 1
        inSlope: 0
        outSlope: 0
        tangentMode: 0
        weightedMode: 0
        inWeight: 0
        outWeight: 0
      - serializedVersion: 3
        time: 1
        value: 0
        inSlope: 0
        outSlope: 0
        tangentMode: 0
        weightedMode: 0
        inWeight: 0
        outWeight: 0
      m_PreInfinity: 2
      m_PostInfinity: 2
      m_RotationOrder: 4
    m_heightMaskCurve:
      serializedVersion: 2
      m_Curve:
      - serializedVersion: 3
        time: 0
        value: 0
        inSlope: 0
        outSlope: 0
        tangentMode: 0
        weightedMode: 0
        inWeight: 0
        outWeight: 0
      - serializedVersion: 3
        time: 1
        value: 1
        inSlope: 0
        outSlope: 0
        tangentMode: 0
        weightedMode: 0
        inWeight: 0
        outWeight: 0
      m_PreInfinity: 2
      m_PostInfinity: 2
      m_RotationOrder: 4
    m_strengthTransformCurve:
      serializedVersion: 2
      m_Curve:
      - serializedVersion: 3
        time: 0
        value: 0
        inSlope: 1
        outSlope: 1
        tangentMode: 0
        weightedMode: 0
        inWeight: 0
        outWeight: 0
      - serializedVersion: 3
        time: 0.41975754
        value: 0.5539563
        inSlope: 0.98878956
        outSlope: 0.98878956
        tangentMode: 0
        weightedMode: 0
        inWeight: 0.33333334
        outWeight: 0.18137665
      - serializedVersion: 3
        time: 1
        value: 1
        inSlope: 1
        outSlope: 1
        tangentMode: 0
        weightedMode: 0
        inWeight: 0
        outWeight: 0
      m_PreInfinity: 2
      m_PostInfinity: 2
      m_RotationOrder: 4
    m_heightMaskType: 1
    m_heightMaskUnit: 0
    m_relativeHeightMin: -10
    m_relativeHeightMax: 10
    m_absoluteHeightMin: 2.5
    m_absoluteHeightMax: 22.5
    m_seaLevelRelativeHeightMin: -109876.55
    m_seaLevelRelativeHeightMax: 109876.55
    tree1active: 0
    tree2active: 0
    m_slopeMaskCurve:
      serializedVersion: 2
      m_Curve:
      - serializedVersion: 3
        time: 0
        value: 1
        inSlope: 0
        outSlope: 0
        tangentMode: 0
        weightedMode: 0
        inWeight: 0
        outWeight: 0
      - serializedVersion: 3
        time: 1
        value: 0
        inSlope: 0
        outSlope: 0
        tangentMode: 0
        weightedMode: 0
        inWeight: 0
        outWeight: 0
      m_PreInfinity: 2
      m_PostInfinity: 2
      m_RotationOrder: 4
    m_slopeMin: 0
    m_slopeMax: 0.1
    m_distanceMaskAxes: 0
    m_gaiaNoiseSettings:
      m_translation: {x: 0, y: 0, z: 0}
      m_rotation: {x: 0, y: 0, z: 0}
      m_scale: {x: 10, y: 1, z: 10}
      m_noiseTypeName: Perlin
      m_noiseTypeParams: 
      m_fractalTypeName: Fbm
      m_fractalTypeParams: 
      m_warpEnabled: 0
      m_warpIterations: 0
      m_warpStrength: 0
      m_warpOffset: {x: 0, y: 0, z: 0, w: 0}
    m_noiseSettings: {fileID: 0}
    m_noiseToolSettings:
      worldHeightRemap: {x: 0, y: 0}
      coordSpace: 0
      noiseAssetGUID: 
    m_ShowNoiseTransformSettings: 0
    m_ShowNoisePreviewTexture: 1
    m_noisePreviewTextureLocked: 0
    m_ShowNoiseTypeSettings: 0
    m_scaleNoiseToTerrainSize: 0
    m_collisionMaskExpanded: 1
    m_collisionMasks: []
    m_erosionMaskOutput: 0
    m_erosionSimScale: 9
    m_erosionHydroTimeDelta: 0.05
    m_erosionHydroIterations: 15
    m_erosionThermalTimeDelta: 0.01
    m_erosionThermalIterations: 80
    m_erosionThermalReposeAngle: 80
    m_erosionPrecipRate: 0.5
    m_erosionEvaporationRate: 0.5
    m_erosionFlowRate: 0.5
    m_erosionSedimentCapacity: 0.5
    m_erosionSedimentDepositRate: 0.8
    m_erosionSedimentDissolveRate: 0.5
    m_erosionRiverBankDepositRate: 7
    m_erosionRiverBankDissolveRate: 5
    m_erosionRiverBedDepositRate: 5
    m_erosionRiverBedDissolveRate: 5
    m_erosionShowAdvancedUI: 0
    m_erosionShowThermalUI: 0
    m_erosionShowWaterUI: 0
    m_erosionShowSedimentUI: 0
    m_erosionShowRiverBankUI: 0
    m_smoothVerticality: 0
    m_smoothBlurRadius: 1
    m_textureMaskSpawnRuleGUID: 
    m_concavity: 1
    m_concavityFeatureSize: 10
    m_foldedOut: 0
    m_selectedWorldBiomeMaskGUID: 
    m_growAndShrinkValue: 0
    m_globalSpawnerMaskStackRT: {fileID: 0}
  - m_active: 0
    m_invert: 0
    m_hasErrors: 0
    m_influence: 0
    m_operation: 4
    m_blendMode: 0
    m_imageMaskLocation: 0
    m_strength: 1
    m_seaLevel: 25
    m_maxWorldHeight: 96.188965
    m_minWorldHeight: 0
    m_xOffSet: 0
    m_zOffSet: 0
    m_xOffSetScalar: 0
    m_zOffSetScalar: 0
    m_imageMaskTextureGUID: 
    m_imageMaskFilterMode: 0
    m_imageMaskColorSelectionColor: {r: 1, g: 1, b: 1, a: 1}
    m_imageMaskColorSelectionAccuracy: 0.5
    m_distanceMaskCurve:
      serializedVersion: 2
      m_Curve:
      - serializedVersion: 3
        time: 0
        value: 1
        inSlope: 0
        outSlope: 0
        tangentMode: 0
        weightedMode: 0
        inWeight: 0
        outWeight: 0
      - serializedVersion: 3
        time: 1
        value: 0
        inSlope: 0
        outSlope: 0
        tangentMode: 0
        weightedMode: 0
        inWeight: 0
        outWeight: 0
      m_PreInfinity: 2
      m_PostInfinity: 2
      m_RotationOrder: 4
    m_heightMaskCurve:
      serializedVersion: 2
      m_Curve:
      - serializedVersion: 3
        time: 0
        value: 0
        inSlope: 0
        outSlope: 0
        tangentMode: 0
        weightedMode: 0
        inWeight: 0
        outWeight: 0
      - serializedVersion: 3
        time: 1
        value: 1
        inSlope: 0
        outSlope: 0
        tangentMode: 0
        weightedMode: 0
        inWeight: 0
        outWeight: 0
      m_PreInfinity: 2
      m_PostInfinity: 2
      m_RotationOrder: 4
    m_strengthTransformCurve:
      serializedVersion: 2
      m_Curve:
      - serializedVersion: 3
        time: 0
        value: 0
        inSlope: 0
        outSlope: 0
        tangentMode: 0
        weightedMode: 0
        inWeight: 0
        outWeight: 0
      - serializedVersion: 3
        time: 0.3950928
        value: 0.0061035156
        inSlope: 0
        outSlope: 0
        tangentMode: 0
        weightedMode: 0
        inWeight: 0
        outWeight: 0.3333333
      - serializedVersion: 3
        time: 0.6547297
        value: 0.99239737
        inSlope: 2.5
        outSlope: 0.010222003
        tangentMode: 1
        weightedMode: 0
        inWeight: 0
        outWeight: 0.32467085
      - serializedVersion: 3
        time: 1
        value: 1
        inSlope: 0
        outSlope: 0
        tangentMode: 0
        weightedMode: 0
        inWeight: 0
        outWeight: 0
      m_PreInfinity: 2
      m_PostInfinity: 2
      m_RotationOrder: 4
    m_heightMaskType: 1
    m_heightMaskUnit: 1
    m_relativeHeightMin: 25
    m_relativeHeightMax: 75
    m_absoluteHeightMin: 50
    m_absoluteHeightMax: 150
    m_seaLevelRelativeHeightMin: -109876.55
    m_seaLevelRelativeHeightMax: 109876.55
    tree1active: 0
    tree2active: 0
    m_slopeMaskCurve:
      serializedVersion: 2
      m_Curve:
      - serializedVersion: 3
        time: 0
        value: 0
        inSlope: 1
        outSlope: 1
        tangentMode: 0
        weightedMode: 0
        inWeight: 0
        outWeight: 0
      - serializedVersion: 3
        time: 1
        value: 1
        inSlope: 1
        outSlope: 1
        tangentMode: 0
        weightedMode: 0
        inWeight: 0
        outWeight: 0
      m_PreInfinity: 2
      m_PostInfinity: 2
      m_RotationOrder: 4
    m_slopeMin: 0
    m_slopeMax: 0.1
    m_distanceMaskAxes: 0
    m_gaiaNoiseSettings:
      m_translation: {x: 11.358731, y: 0, z: 0.4879518}
      m_rotation: {x: 0, y: 0, z: 0}
      m_scale: {x: 3.2029657, y: 1, z: 3.2029657}
      m_noiseTypeName: Perlin
      m_noiseTypeParams: 
      m_fractalTypeName: Fbm
      m_fractalTypeParams: '{"warpOffsets":{"x":2.5,"y":1.399999976158142,"z":3.200000047683716,"w":2.700000047683716},"octavesMinMax":{"x":0.0,"y":16.0},"amplitudeMinMax":{"x":0.0,"y":1.0},"frequencyMinMax":{"x":0.0,"y":2.0},"lacunarityMinMax":{"x":0.0,"y":4.0},"persistenceMinMax":{"x":0.0,"y":1.0},"warpIterationsMinMax":{"x":0.0,"y":8.0},"warpStrengthMinMax":{"x":-2.0,"y":2.0},"octaves":8.0,"amplitude":0.5350000262260437,"frequency":0.9879999756813049,"persistence":0.5320000052452087,"lacunarity":2.0199999809265138,"warpIterations":1.0,"warpStrength":0.5,"warpEnabled":true,"warpExpanded":true}'
      m_warpEnabled: 0
      m_warpIterations: 0
      m_warpStrength: 0
      m_warpOffset: {x: 0, y: 0, z: 0, w: 0}
    m_noiseSettings: {fileID: 0}
    m_noiseToolSettings:
      worldHeightRemap: {x: 0, y: 0}
      coordSpace: 0
      noiseAssetGUID: 
    m_ShowNoiseTransformSettings: 0
    m_ShowNoisePreviewTexture: 0
    m_noisePreviewTextureLocked: 1
    m_ShowNoiseTypeSettings: 0
    m_scaleNoiseToTerrainSize: 0
    m_collisionMaskExpanded: 1
    m_collisionMasks: []
    m_erosionMaskOutput: 0
    m_erosionSimScale: 9
    m_erosionHydroTimeDelta: 0.05
    m_erosionHydroIterations: 15
    m_erosionThermalTimeDelta: 0.01
    m_erosionThermalIterations: 80
    m_erosionThermalReposeAngle: 80
    m_erosionPrecipRate: 0.5
    m_erosionEvaporationRate: 0.5
    m_erosionFlowRate: 0.5
    m_erosionSedimentCapacity: 0.5
    m_erosionSedimentDepositRate: 0.8
    m_erosionSedimentDissolveRate: 0.5
    m_erosionRiverBankDepositRate: 7
    m_erosionRiverBankDissolveRate: 5
    m_erosionRiverBedDepositRate: 5
    m_erosionRiverBedDissolveRate: 5
    m_erosionShowAdvancedUI: 0
    m_erosionShowThermalUI: 0
    m_erosionShowWaterUI: 0
    m_erosionShowSedimentUI: 0
    m_erosionShowRiverBankUI: 0
    m_smoothVerticality: 0
    m_smoothBlurRadius: 1
    m_textureMaskSpawnRuleGUID: 
    m_concavity: 1
    m_concavityFeatureSize: 10
    m_foldedOut: 0
    m_selectedWorldBiomeMaskGUID: 
    m_growAndShrinkValue: 0
    m_globalSpawnerMaskStackRT: {fileID: 0}
  m_clearSpawnsToggleTrees: 1
  m_clearSpawnsToggleDetails: 0
  m_clearSpawnsToggleGOs: 0
  m_clearSpawnsToggleSpawnExtensions: 0
  m_clearSpawnsToggleProbes: 0
  m_clearSpawnsFor: 1
  m_clearSpawnsFrom: 1
  m_lastGUIDSaved: 842981c28b406bf4facaca0bfe512783
