%YAML 1.1
%TAG !u! tag:unity3d.com,2011:
--- !u!21 &2100000
Material:
  serializedVersion: 6
  m_ObjectHideFlags: 0
  m_CorrespondingSourceObject: {fileID: 0}
  m_PrefabInstance: {fileID: 0}
  m_PrefabAsset: {fileID: 0}
  m_Name: PW_Plant_Fern_Realistic_02
  m_Shader: {fileID: -6465566751694194690, guid: 896c4566c534d544085eac02e8d305d9,
    type: 3}
  m_ShaderKeywords: '_ALPHATEST_OFF _ALPHATEST_ON _PW_SF_COVER_ON _PW_SF_SSS_ON _PW_SF_WIND_ON
    _PW_SF_WORLDMAP_ON _PW_SF_WORLDMAP_ON

'
  m_LightmapFlags: 0
  m_EnableInstancingVariants: 1
  m_DoubleSidedGI: 0
  m_CustomRenderQueue: -1
  stringTagMap: {}
  disabledShaderPasses: []
  m_SavedProperties:
    serializedVersion: 3
    m_TexEnvs:
    - _BumpMap:
        m_Texture: {fileID: 2800000, guid: 633d87c06b07aed448a96dbed90d8913, type: 3}
        m_Scale: {x: 1, y: 1}
        m_Offset: {x: 0, y: 0}
    - _MainTex:
        m_Texture: {fileID: 2800000, guid: 9c37298228c924148b3c6ebe576a63f6, type: 3}
        m_Scale: {x: 1, y: 1}
        m_Offset: {x: 0, y: 0}
    - _MetallicGlossMap:
        m_Texture: {fileID: 2800000, guid: 082ec944596930b4191c309a9ecd13eb, type: 3}
        m_Scale: {x: 1, y: 1}
        m_Offset: {x: 0, y: 0}
    - _PW_CoverLayer0:
        m_Texture: {fileID: 0}
        m_Scale: {x: 1, y: 1}
        m_Offset: {x: 0, y: 0}
    - _PW_CoverLayer0Normal:
        m_Texture: {fileID: 0}
        m_Scale: {x: 1, y: 1}
        m_Offset: {x: 0, y: 0}
    - _PW_CoverLayer1:
        m_Texture: {fileID: 0}
        m_Scale: {x: 1, y: 1}
        m_Offset: {x: 0, y: 0}
    - _PW_CoverLayer1Normal:
        m_Texture: {fileID: 0}
        m_Scale: {x: 1, y: 1}
        m_Offset: {x: 0, y: 0}
    - _PW_WorldMap:
        m_Texture: {fileID: 2800000, guid: ac3b2ed1a99d17745854441701a7c5d2, type: 3}
        m_Scale: {x: 1, y: 1}
        m_Offset: {x: 0, y: 0}
    - unity_Lightmaps:
        m_Texture: {fileID: 0}
        m_Scale: {x: 1, y: 1}
        m_Offset: {x: 0, y: 0}
    - unity_LightmapsInd:
        m_Texture: {fileID: 0}
        m_Scale: {x: 1, y: 1}
        m_Offset: {x: 0, y: 0}
    - unity_ShadowMasks:
        m_Texture: {fileID: 0}
        m_Scale: {x: 1, y: 1}
        m_Offset: {x: 0, y: 0}
    m_Floats:
    - _ALPHATEST: 1
    - _AOPower: 0.6
    - _AOPowerExp: 1
    - _AOVertexMask: 0.2
    - _AlphaTest: 0
    - _BumpMapScale: 1
    - _CullMode: 0
    - _Cutoff: 0.33
    - _Glossiness: 0
    - _Metallic: 0.1
    - _PW_Cover: 0
    - _PW_CoverLayer0AlphaClamp: 1
    - _PW_CoverLayer0Edge: 0.1
    - _PW_CoverLayer0FadeDist: 0
    - _PW_CoverLayer0FadeStart: 0
    - _PW_CoverLayer0Metallic: 0.2
    - _PW_CoverLayer0NormalScale: 1
    - _PW_CoverLayer0Progress: 0
    - _PW_CoverLayer0Smoothness: 0.75
    - _PW_CoverLayer0Tiling: 64
    - _PW_CoverLayer0Wrap: 0
    - _PW_CoverLayer1AlphaClamp: 1
    - _PW_CoverLayer1Edge: 0.1
    - _PW_CoverLayer1FadeDist: 0
    - _PW_CoverLayer1FadeStart: 0
    - _PW_CoverLayer1Metallic: 0.2
    - _PW_CoverLayer1NormalScale: 1
    - _PW_CoverLayer1Progress: 0
    - _PW_CoverLayer1Smoothness: 0.75
    - _PW_CoverLayer1Tiling: 64
    - _PW_CoverLayer1Wrap: 0
    - _PW_GlobalControl: 1
    - _PW_Global_Metallic: 0
    - _PW_Global_SeasonalTintAmount: 1
    - _PW_Global_Smoothness: 0
    - _PW_SF_BILLBOARD: 0
    - _PW_SF_COVER: 1
    - _PW_SF_SSS: 1
    - _PW_SF_WIND: 1
    - _PW_SF_WORLDMAP: 1
    - _PW_SSS: 0
    - _PW_SSSDistortion: 0.1
    - _PW_SSSPower: 2
    - _PW_SSS_1: 0
    - _PW_ShaderID: 1
    - _PW_ShaderMode: 1
    - _PW_TerrainSizeX: 2048
    - _PW_TerrainSizeY: 0
    - _PW_TerrainSizeZ: 2048
    - _PW_WindToggle: 0
    - _PW_WorldMapToggle: 0
    - _PW_WorldMapUVScale: 2048
    - _WrapLighting: 0
    m_Colors:
    - _Color: {r: 1.0607809, g: 1.319508, b: 1.003861, a: 1}
    - _PW_CoverLayer0Color: {r: 1, g: 1, b: 1, a: 1}
    - _PW_CoverLayer1Color: {r: 0.7490196, g: 0.7490196, b: 0.7490196, a: 1}
    - _PW_SSSTint: {r: 1, g: 1, b: 1, a: 1}
    - _PW_WindTreeFlex: {r: 1.1, g: 1.3, b: 0.01, a: 0}
    - _PW_WindTreeFrequency: {r: 0.2, g: 2, b: 4, a: 0}
    - _PW_WindTreeWidthHeight: {r: 1, g: 1.6, b: 0, a: 0}
    - _PW_WorldMapColorCover0: {r: 1, g: 1, b: 1, a: 1}
    - _PW_WorldMapColorCover1: {r: 1, g: 1, b: 1, a: 1}
    - _PW_WorldMapColorObject: {r: 0.6037736, g: 0.5183983, b: 0.3218227, a: 1}
  m_BuildTextureStacks: []
