%YAML 1.1
%TAG !u! tag:unity3d.com,2011:
--- !u!21 &2100000
Material:
  serializedVersion: 6
  m_ObjectHideFlags: 0
  m_CorrespondingSourceObject: {fileID: 0}
  m_PrefabInstance: {fileID: 0}
  m_PrefabAsset: {fileID: 0}
  m_Name: PW_Stone_Granite_03_02_02 Moss
  m_Shader: {fileID: -6465566751694194690, guid: 896c4566c534d544085eac02e8d305d9,
    type: 3}
  m_ShaderKeywords: _PW_SF_COVER_ON
  m_LightmapFlags: 4
  m_EnableInstancingVariants: 1
  m_DoubleSidedGI: 0
  m_CustomRenderQueue: -1
  stringTagMap: {}
  disabledShaderPasses: []
  m_SavedProperties:
    serializedVersion: 3
    m_TexEnvs:
    - _BumpMap:
        m_Texture: {fileID: 2800000, guid: 1899b3498e2129a47999a3a6be7fe990, type: 3}
        m_Scale: {x: 1, y: 1}
        m_Offset: {x: 0, y: 0}
    - _MainTex:
        m_Texture: {fileID: 2800000, guid: fd8288f87e7c7214cb313ede547a31c1, type: 3}
        m_Scale: {x: 1, y: 1}
        m_Offset: {x: 0, y: 0}
    - _MetallicGlossMap:
        m_Texture: {fileID: 2800000, guid: ac53642f017842f449d99234af147264, type: 3}
        m_Scale: {x: 1, y: 1}
        m_Offset: {x: 0, y: 0}
    - _PW_CoverLayer0:
        m_Texture: {fileID: 2800000, guid: 5f2b87aae4410274b8cdac5536a13a9e, type: 3}
        m_Scale: {x: 1, y: 1}
        m_Offset: {x: 0, y: 0}
    - _PW_CoverLayer0Normal:
        m_Texture: {fileID: 2800000, guid: 2c50d3ec8a1368447818af8b0b10a986, type: 3}
        m_Scale: {x: 1, y: 1}
        m_Offset: {x: 0, y: 0}
    - _PW_CoverLayer1:
        m_Texture: {fileID: 0}
        m_Scale: {x: 1, y: 1}
        m_Offset: {x: 0, y: 0}
    - _PW_CoverLayer1Normal:
        m_Texture: {fileID: 0}
        m_Scale: {x: 1, y: 1}
        m_Offset: {x: 0, y: 0}
    - _PW_WorldMap:
        m_Texture: {fileID: 0}
        m_Scale: {x: 1, y: 1}
        m_Offset: {x: 0, y: 0}
    - unity_Lightmaps:
        m_Texture: {fileID: 0}
        m_Scale: {x: 1, y: 1}
        m_Offset: {x: 0, y: 0}
    - unity_LightmapsInd:
        m_Texture: {fileID: 0}
        m_Scale: {x: 1, y: 1}
        m_Offset: {x: 0, y: 0}
    - unity_ShadowMasks:
        m_Texture: {fileID: 0}
        m_Scale: {x: 1, y: 1}
        m_Offset: {x: 0, y: 0}
    m_Floats:
    - _ALPHATEST: 0
    - _AOPower: 1
    - _AOPowerExp: 1
    - _AOVertexMask: 1
    - _AlphaTest: 0
    - _BumpMapScale: 0.85
    - _CullMode: 2
    - _Cutoff: 0
    - _Glossiness: 0.05
    - _Metallic: 0.2
    - _PW_Cover: 0
    - _PW_CoverLayer0AlphaClamp: 1
    - _PW_CoverLayer0Edge: 0.137
    - _PW_CoverLayer0FadeDist: 0
    - _PW_CoverLayer0FadeStart: 0
    - _PW_CoverLayer0Metallic: 0
    - _PW_CoverLayer0NormalScale: 0.897
    - _PW_CoverLayer0Progress: 0.375
    - _PW_CoverLayer0Smoothness: 0
    - _PW_CoverLayer0Tiling: 512
    - _PW_CoverLayer0Wrap: 0
    - _PW_CoverLayer1AlphaClamp: 1
    - _PW_CoverLayer1Edge: 0.1
    - _PW_CoverLayer1FadeDist: 0
    - _PW_CoverLayer1FadeStart: 0
    - _PW_CoverLayer1Metallic: 0
    - _PW_CoverLayer1NormalScale: 1
    - _PW_CoverLayer1Progress: 0
    - _PW_CoverLayer1Smoothness: 0.1
    - _PW_CoverLayer1Tiling: 2048
    - _PW_CoverLayer1Wrap: 0
    - _PW_GlobalControl: 1
    - _PW_Global_Metallic: 0
    - _PW_Global_SeasonalTintAmount: 0
    - _PW_Global_Smoothness: 0
    - _PW_SF_BILLBOARD: 0
    - _PW_SF_COVER: 1
    - _PW_SF_SSS: 0
    - _PW_SF_WIND: 0
    - _PW_SF_WORLDMAP: 0
    - _PW_SSS: 0
    - _PW_SSSDistortion: 0.5
    - _PW_SSSPower: 1
    - _PW_SSS_1: 0
    - _PW_ShaderID: 2
    - _PW_ShaderMode: 0
    - _PW_TerrainSizeX: 2048
    - _PW_TerrainSizeY: 0
    - _PW_TerrainSizeZ: 2048
    - _PW_WindToggle: 0
    - _PW_WorldMapToggle: 0
    - _PW_WorldMapUVScale: 1
    - _WrapLighting: 0
    m_Colors:
    - _Color: {r: 0.8113208, g: 0.8113208, b: 0.8113208, a: 1}
    - _PW_CoverLayer0Color: {r: 1, g: 1, b: 1, a: 1}
    - _PW_CoverLayer1Color: {r: 0.7490196, g: 0.7490196, b: 0.7490196, a: 1}
    - _PW_SSSTint: {r: 1, g: 1, b: 1, a: 1}
    - _PW_WindTreeFlex: {r: 0.8, g: 1.15, b: 0.1, a: 0}
    - _PW_WindTreeFrequency: {r: 0.25, g: 0.5, b: 1.3, a: 0}
    - _PW_WindTreeWidthHeight: {r: 4, g: 8, b: 0, a: 0}
    - _PW_WorldMapColorCover0: {r: 1, g: 1, b: 1, a: 1}
    - _PW_WorldMapColorCover1: {r: 1, g: 1, b: 1, a: 1}
    - _PW_WorldMapColorObject: {r: 1, g: 1, b: 1, a: 1}
  m_BuildTextureStacks: []
