%YAML 1.1
%TAG !u! tag:unity3d.com,2011:
--- !u!114 &-2136548065864740825
MonoBehaviour:
  m_ObjectHideFlags: 11
  m_CorrespondingSourceObject: {fileID: 0}
  m_PrefabInstance: {fileID: 0}
  m_PrefabAsset: {fileID: 0}
  m_GameObject: {fileID: 0}
  m_Enabled: 1
  m_EditorHideFlags: 0
  m_Script: {fileID: 11500000, guid: da692e001514ec24dbc4cca1949ff7e8, type: 3}
  m_Name: 
  m_EditorClassIdentifier: 
  version: 2
--- !u!21 &2100000
Material:
  serializedVersion: 6
  m_ObjectHideFlags: 0
  m_CorrespondingSourceObject: {fileID: 0}
  m_PrefabInstance: {fileID: 0}
  m_PrefabAsset: {fileID: 0}
  m_Name: PW_Tree_Spruce_01_Needles
  m_Shader: {fileID: -6465566751694194690, guid: 896c4566c534d544085eac02e8d305d9,
    type: 3}
  m_ShaderKeywords: '_ALPHATEST_ON _PW_SF_COVER_ON _PW_SF_SSS_ON _PW_SF_WIND_ON _PW_SF_WORLDMAP_ON
    _PW_SF_WORLDMAP_ON

'
  m_LightmapFlags: 4
  m_EnableInstancingVariants: 1
  m_DoubleSidedGI: 1
  m_CustomRenderQueue: -1
  stringTagMap: {}
  disabledShaderPasses:
  - DistortionVectors
  - MOTIONVECTORS
  - TransparentDepthPrepass
  - TransparentDepthPostpass
  - TransparentBackface
  m_SavedProperties:
    serializedVersion: 3
    m_TexEnvs:
    - _BumpMap:
        m_Texture: {fileID: 2800000, guid: 3503df966c700cd4e8b91dea39fca002, type: 3}
        m_Scale: {x: 1, y: 1}
        m_Offset: {x: 0, y: 0}
    - _MainTex:
        m_Texture: {fileID: 2800000, guid: f42aae3eed274084eb1a10e49735831f, type: 3}
        m_Scale: {x: 1, y: 1}
        m_Offset: {x: 0, y: 0}
    - _MetallicGlossMap:
        m_Texture: {fileID: 2800000, guid: d52b7bc970bf83547ade208511b343ff, type: 3}
        m_Scale: {x: 1, y: 1}
        m_Offset: {x: 0, y: 0}
    - _PW_CoverLayer0:
        m_Texture: {fileID: 0}
        m_Scale: {x: 1, y: 1}
        m_Offset: {x: 0, y: 0}
    - _PW_CoverLayer0Normal:
        m_Texture: {fileID: 0}
        m_Scale: {x: 1, y: 1}
        m_Offset: {x: 0, y: 0}
    - _PW_CoverLayer1:
        m_Texture: {fileID: 0}
        m_Scale: {x: 1, y: 1}
        m_Offset: {x: 0, y: 0}
    - _PW_CoverLayer1Normal:
        m_Texture: {fileID: 0}
        m_Scale: {x: 1, y: 1}
        m_Offset: {x: 0, y: 0}
    - _PW_WorldMap:
        m_Texture: {fileID: 2800000, guid: ac3b2ed1a99d17745854441701a7c5d2, type: 3}
        m_Scale: {x: 1, y: 1}
        m_Offset: {x: 0, y: 0}
    - unity_Lightmaps:
        m_Texture: {fileID: 0}
        m_Scale: {x: 1, y: 1}
        m_Offset: {x: 0, y: 0}
    - unity_LightmapsInd:
        m_Texture: {fileID: 0}
        m_Scale: {x: 1, y: 1}
        m_Offset: {x: 0, y: 0}
    - unity_ShadowMasks:
        m_Texture: {fileID: 0}
        m_Scale: {x: 1, y: 1}
        m_Offset: {x: 0, y: 0}
    m_Floats:
    - _ALPHATEST: 1
    - _AOPower: 0.6
    - _AOPowerExp: 1
    - _AOVertexMask: 0.2
    - _AlphaTest: 0
    - _BumpMapScale: 1
    - _CullMode: 0
    - _Cutoff: 0.4
    - _Glossiness: 0.1
    - _Metallic: 0
    - _PW_Cover: 0
    - _PW_CoverLayer0AlphaClamp: 1
    - _PW_CoverLayer0Edge: 0.1
    - _PW_CoverLayer0FadeDist: 0
    - _PW_CoverLayer0FadeStart: 0
    - _PW_CoverLayer0Metallic: 0
    - _PW_CoverLayer0NormalScale: 1
    - _PW_CoverLayer0Progress: 0
    - _PW_CoverLayer0Smoothness: 0.1
    - _PW_CoverLayer0Tiling: 64
    - _PW_CoverLayer0Wrap: 0.01
    - _PW_CoverLayer1AlphaClamp: 1
    - _PW_CoverLayer1Edge: 0.1
    - _PW_CoverLayer1FadeDist: 0
    - _PW_CoverLayer1FadeStart: 0
    - _PW_CoverLayer1Metallic: 0
    - _PW_CoverLayer1NormalScale: 1
    - _PW_CoverLayer1Progress: 0
    - _PW_CoverLayer1Smoothness: 0.1
    - _PW_CoverLayer1Tiling: 64
    - _PW_CoverLayer1Wrap: 0.25
    - _PW_GlobalControl: 1
    - _PW_Global_Metallic: 0
    - _PW_Global_SeasonalTintAmount: 1
    - _PW_Global_Smoothness: 0
    - _PW_SF_BILLBOARD: 0
    - _PW_SF_COVER: 1
    - _PW_SF_SSS: 1
    - _PW_SF_WIND: 1
    - _PW_SF_WORLDMAP: 1
    - _PW_SSS: 0
    - _PW_SSSDistortion: 0.05
    - _PW_SSSPower: 3.5
    - _PW_SSS_1: 0
    - _PW_ShaderID: 1
    - _PW_ShaderMode: 1
    - _PW_TerrainSizeX: 2048
    - _PW_TerrainSizeY: 0
    - _PW_TerrainSizeZ: 2048
    - _PW_WindToggle: 0
    - _PW_WorldMapToggle: 0
    - _PW_WorldMapUVScale: 256
    - _WrapLighting: 0.7
    m_Colors:
    - _Color: {r: 0.88807887, g: 1, b: 0.8632076, a: 1}
    - _PW_CoverLayer0Color: {r: 1, g: 1, b: 1, a: 1}
    - _PW_CoverLayer1Color: {r: 0.7490196, g: 0.7490196, b: 0.7490196, a: 1}
    - _PW_SSSTint: {r: 1, g: 1, b: 1, a: 1}
    - _PW_WindTreeFlex: {r: 0.8, g: 1.15, b: 0.1, a: 0}
    - _PW_WindTreeFrequency: {r: 0.25, g: 0.5, b: 1.3, a: 0}
    - _PW_WindTreeWidthHeight: {r: 4, g: 8, b: 0, a: 0}
    - _PW_WorldMapColorCover0: {r: 1, g: 1, b: 1, a: 1}
    - _PW_WorldMapColorCover1: {r: 1, g: 1, b: 1, a: 1}
    - _PW_WorldMapColorObject: {r: 1, g: 0.41492146, b: 0.25, a: 1}
  m_BuildTextureStacks: []
