%YAML 1.1
%TAG !u! tag:unity3d.com,2011:
--- !u!1953259897 &8574412962073106934
TerrainLayer:
  m_ObjectHideFlags: 0
  m_CorrespondingSourceObject: {fileID: 0}
  m_PrefabInstance: {fileID: 0}
  m_PrefabAsset: {fileID: 0}
  m_Name: Gaia_-20210210-142636_2
  m_DiffuseTexture: {fileID: 2800000, guid: 8aeee82e568afb240a2ed53c1318d80b, type: 3}
  m_NormalMapTexture: {fileID: 2800000, guid: c0ff98ace5cd21d48b8c8ad2adcf4fd9, type: 3}
  m_MaskMapTexture: {fileID: 2800000, guid: 7de3bed47578ee84c8d4cfc89a36260f, type: 3}
  m_TileSize: {x: 2, y: 2}
  m_TileOffset: {x: 0, y: 0}
  m_Specular: {r: 0, g: 0, b: 0, a: 0}
  m_Metallic: 0
  m_Smoothness: 0
  m_NormalScale: 1
  m_DiffuseRemapMin: {x: 0, y: 0, z: 0, w: 0}
  m_DiffuseRemapMax: {x: 1, y: 1, z: 1, w: 1}
  m_MaskMapRemapMin: {x: 0, y: 0, z: 0, w: 0}
  m_MaskMapRemapMax: {x: 1, y: 1, z: 1, w: 1}
