%YAML 1.1
%TAG !u! tag:unity3d.com,2011:
--- !u!114 &11400000
MonoBehaviour:
  m_ObjectHideFlags: 0
  m_CorrespondingSourceObject: {fileID: 0}
  m_PrefabInstance: {fileID: 0}
  m_PrefabAsset: {fileID: 0}
  m_GameObject: {fileID: 0}
  m_Enabled: 1
  m_EditorHideFlags: 0
  m_Script: {fileID: 11500000, guid: e251860fcd970734c9f14ebd98a146c3, type: 3}
  m_Name: GS-20210118 - 173817
  m_EditorClassIdentifier: 
  m_name: Session 20210118-173817
  m_description: 'Rocking out at Creativity Central!


    If you like Gaia please
    consider rating it :)'
  m_previewImage: {fileID: 0}
  m_dateCreated: 1/18/2021 5:38:17 PM
  m_terrainWidth: 512
  m_terrainDepth: 512
  m_terrainHeight: 512
  m_seaLevel: 12.5
  m_spawnDensity: 0.8
  m_isLocked: 0
  m_previewImageBytes: 
  m_previewImageWidth: 0
  m_previewImageHeight: 0
  m_operations:
  - m_description: 'Creating World: 1 x 1 tiles, tile size: 512'
    m_operationType: 0
    m_isActive: 1
    m_affectedTerrainNames: []
    m_operationDateTime: 1/18/2021 5:38:18 PM
    scriptableObjectAssetGUID: 43d9d88100114d941a5711f28cea4563
    m_isFoldedOut: 0
    sessionPlaybackState: 1
    m_terrainsFoldedOut: 0
    m_serializedExternalAction: 
  m_terrainMinMaxCache: []
  m_bakedMaskCacheEntries: []
  m_worldBiomeMaskSettings: {fileID: 0}
