%YAML 1.1
%TAG !u! tag:unity3d.com,2011:
--- !u!114 &11400000
MonoBehaviour:
  m_ObjectHideFlags: 0
  m_CorrespondingSourceObject: {fileID: 0}
  m_PrefabInstance: {fileID: 0}
  m_PrefabAsset: {fileID: 0}
  m_GameObject: {fileID: 0}
  m_Enabled: 1
  m_EditorHideFlags: 0
  m_Script: {fileID: 11500000, guid: e251860fcd970734c9f14ebd98a146c3, type: 3}
  m_Name: GS-20210115 - 163716
  m_EditorClassIdentifier: 
  m_name: Session 20210115-163716
  m_description: 'Rocking out at Creativity Central!


    If you like Gaia please
    consider rating it :)'
  m_previewImage: {fileID: 0}
  m_dateCreated: 1/15/2021 4:37:16 PM
  m_terrainWidth: 512
  m_terrainDepth: 512
  m_terrainHeight: 512
  m_seaLevel: 12.5
  m_spawnDensity: 0.8
  m_isLocked: 0
  m_previewImageBytes: 
  m_previewImageWidth: 0
  m_previewImageHeight: 0
  m_operations:
  - m_description: 'Creating World: 1 x 1 tiles, tile size: 512'
    m_operationType: 0
    m_isActive: 1
    m_affectedTerrainNames: []
    m_operationDateTime: 1/15/2021 4:37:16 PM
    scriptableObjectAssetGUID: 440f6ce6f5b35d8418b061bf69933dbc
    m_isFoldedOut: 0
    sessionPlaybackState: 1
    m_terrainsFoldedOut: 0
    m_serializedExternalAction: 
  - m_description: RaiseHeight - No Masks
    m_operationType: 4
    m_isActive: 1
    m_affectedTerrainNames:
    - Terrain_0_0-20210115 - 163716
    m_operationDateTime: 1/15/2021 4:38:11 PM
    scriptableObjectAssetGUID: c63dcd6b52669444ca9565723dd6c0a3
    m_isFoldedOut: 0
    sessionPlaybackState: 1
    m_terrainsFoldedOut: 0
    m_serializedExternalAction: 
  - m_description: Spawning - Gaia Pro Sample-Texture(Clone)
    m_operationType: 7
    m_isActive: 1
    m_affectedTerrainNames:
    - Terrain_0_0-20210115 - 163716
    m_operationDateTime: 1/15/2021 4:38:12 PM
    scriptableObjectAssetGUID: 97a502fcb3df5aa4ba300f02d4bab041
    m_isFoldedOut: 0
    sessionPlaybackState: 1
    m_terrainsFoldedOut: 0
    m_serializedExternalAction: 
  - m_description: Spawning - Multiple Spawners (7)
    m_operationType: 7
    m_isActive: 1
    m_affectedTerrainNames:
    - Terrain_0_0-20210115 - 163716
    m_operationDateTime: 1/15/2021 4:38:18 PM
    scriptableObjectAssetGUID: 9f025e22e324cb44fb19254c852208a8
    m_isFoldedOut: 0
    sessionPlaybackState: 1
    m_terrainsFoldedOut: 0
    m_serializedExternalAction: 
  - m_description: 'Spawning - '
    m_operationType: 7
    m_isActive: 1
    m_affectedTerrainNames:
    - Terrain_0_0-20210115 - 163716
    m_operationDateTime: 1/15/2021 4:44:17 PM
    scriptableObjectAssetGUID: 3579616fb5a267e4fb7086c48d839437
    m_isFoldedOut: 0
    sessionPlaybackState: 1
    m_terrainsFoldedOut: 0
    m_serializedExternalAction: 
  m_terrainMinMaxCache:
  - guid: dd0a9e371bbc24749a6a72506754ff7a
    isWorldmap: 0
    recalculate: 0
    min: 8.906386
    max: 49.766384
  m_bakedMaskCacheEntries:
  - fileName: Terrain_0_0-20210115 - 163716_LayerGameObject_57344_12
    assetPath: Assets/Procedural Worlds/Gaia/TerrainCollisionData/Terrain_0_0-20210115
      - 163716/Terrain_0_0-20210115 - 163716_LayerGameObject_57344_12
    fullPath: C:/Users/Milzan-PC/Documents/UnityProject/SafetyMan HD/Assets/Procedural
      Worlds/Gaia/TerrainCollisionData/Terrain_0_0-20210115 - 163716/Terrain_0_0-20210115
      - 163716_LayerGameObject_57344_12
    texture: {fileID: 0}
  - fileName: Terrain_0_0-20210115 - 163716_LayerTree_57345_5
    assetPath: Assets/Procedural Worlds/Gaia/TerrainCollisionData/Terrain_0_0-20210115
      - 163716/Terrain_0_0-20210115 - 163716_LayerTree_57345_5
    fullPath: C:/Users/Milzan-PC/Documents/UnityProject/SafetyMan HD/Assets/Procedural
      Worlds/Gaia/TerrainCollisionData/Terrain_0_0-20210115 - 163716/Terrain_0_0-20210115
      - 163716_LayerTree_57345_5
    texture: {fileID: 0}
  - fileName: Terrain_0_0-20210115 - 163716_RadiusTag_PW - Building_12
    assetPath: Assets/Procedural Worlds/Gaia/TerrainCollisionData/Terrain_0_0-20210115
      - 163716/Terrain_0_0-20210115 - 163716_RadiusTag_PW - Building_12
    fullPath: C:/Users/Milzan-PC/Documents/UnityProject/SafetyMan HD/Assets/Procedural
      Worlds/Gaia/TerrainCollisionData/Terrain_0_0-20210115 - 163716/Terrain_0_0-20210115
      - 163716_RadiusTag_PW - Building_12
    texture: {fileID: 0}
  - fileName: Terrain_0_0-20210115 - 163716_RadiusTag_PW - Prop_1.19
    assetPath: Assets/Procedural Worlds/Gaia/TerrainCollisionData/Terrain_0_0-20210115
      - 163716/Terrain_0_0-20210115 - 163716_RadiusTag_PW - Prop_1.19
    fullPath: C:/Users/Milzan-PC/Documents/UnityProject/SafetyMan HD/Assets/Procedural
      Worlds/Gaia/TerrainCollisionData/Terrain_0_0-20210115 - 163716/Terrain_0_0-20210115
      - 163716_RadiusTag_PW - Prop_1.19
    texture: {fileID: 0}
  - fileName: Terrain_0_0-20210115 - 163716_LayerGameObject_57344_5
    assetPath: Assets/Procedural Worlds/Gaia/TerrainCollisionData/Terrain_0_0-20210115
      - 163716/Terrain_0_0-20210115 - 163716_LayerGameObject_57344_5
    fullPath: C:/Users/Milzan-PC/Documents/UnityProject/SafetyMan HD/Assets/Procedural
      Worlds/Gaia/TerrainCollisionData/Terrain_0_0-20210115 - 163716/Terrain_0_0-20210115
      - 163716_LayerGameObject_57344_5
    texture: {fileID: 0}
  - fileName: Terrain_0_0-20210115 - 163716_RadiusTag_PW - Building_10
    assetPath: Assets/Procedural Worlds/Gaia/TerrainCollisionData/Terrain_0_0-20210115
      - 163716/Terrain_0_0-20210115 - 163716_RadiusTag_PW - Building_10
    fullPath: C:/Users/Milzan-PC/Documents/UnityProject/SafetyMan HD/Assets/Procedural
      Worlds/Gaia/TerrainCollisionData/Terrain_0_0-20210115 - 163716/Terrain_0_0-20210115
      - 163716_RadiusTag_PW - Building_10
    texture: {fileID: 0}
  - fileName: Terrain_0_0-20210115 - 163716_RadiusTag_PW - Prop_3
    assetPath: Assets/Procedural Worlds/Gaia/TerrainCollisionData/Terrain_0_0-20210115
      - 163716/Terrain_0_0-20210115 - 163716_RadiusTag_PW - Prop_3
    fullPath: C:/Users/Milzan-PC/Documents/UnityProject/SafetyMan HD/Assets/Procedural
      Worlds/Gaia/TerrainCollisionData/Terrain_0_0-20210115 - 163716/Terrain_0_0-20210115
      - 163716_RadiusTag_PW - Prop_3
    texture: {fileID: 0}
  - fileName: Terrain_0_0-20210115 - 163716_RadiusTag_PW - Building_3.69
    assetPath: Assets/Procedural Worlds/Gaia/TerrainCollisionData/Terrain_0_0-20210115
      - 163716/Terrain_0_0-20210115 - 163716_RadiusTag_PW - Building_3.69
    fullPath: C:/Users/Milzan-PC/Documents/UnityProject/SafetyMan HD/Assets/Procedural
      Worlds/Gaia/TerrainCollisionData/Terrain_0_0-20210115 - 163716/Terrain_0_0-20210115
      - 163716_RadiusTag_PW - Building_3.69
    texture: {fileID: 0}
  - fileName: Terrain_0_0-20210115 - 163716_LayerGameObject_57344_0.5
    assetPath: Assets/Procedural Worlds/Gaia/TerrainCollisionData/Terrain_0_0-20210115
      - 163716/Terrain_0_0-20210115 - 163716_LayerGameObject_57344_0.5
    fullPath: C:/Users/Milzan-PC/Documents/UnityProject/SafetyMan HD/Assets/Procedural
      Worlds/Gaia/TerrainCollisionData/Terrain_0_0-20210115 - 163716/Terrain_0_0-20210115
      - 163716_LayerGameObject_57344_0.5
    texture: {fileID: 0}
  m_worldBiomeMaskSettings: {fileID: 0}
