%YAML 1.1
%TAG !u! tag:unity3d.com,2011:
--- !u!114 &11400000
MonoBehaviour:
  m_ObjectHideFlags: 0
  m_CorrespondingSourceObject: {fileID: 0}
  m_PrefabInstance: {fileID: 0}
  m_PrefabAsset: {fileID: 0}
  m_GameObject: {fileID: 0}
  m_Enabled: 1
  m_EditorHideFlags: 0
  m_Script: {fileID: 11500000, guid: e251860fcd970734c9f14ebd98a146c3, type: 3}
  m_Name: GS-20210208 - 170019
  m_EditorClassIdentifier: 
  m_name: Session 20210208-170019
  m_description: 'Rocking out at Creativity Central!


    If you like Gaia please
    consider rating it :)'
  m_previewImage: {fileID: 0}
  m_dateCreated: 2/8/2021 5:00:19 PM
  m_terrainWidth: 512
  m_terrainDepth: 512
  m_terrainHeight: 512
  m_seaLevel: 12.5
  m_spawnDensity: 0.8
  m_isLocked: 0
  m_previewImageBytes: 
  m_previewImageWidth: 0
  m_previewImageHeight: 0
  m_operations:
  - m_description: 'Creating World: 1 x 1 tiles, tile size: 512'
    m_operationType: 0
    m_isActive: 1
    m_affectedTerrainNames: []
    m_operationDateTime: 2/8/2021 5:00:20 PM
    scriptableObjectAssetGUID: 1a1689c3a224ab2499e74d3a84da0cd0
    m_isFoldedOut: 0
    sessionPlaybackState: 1
    m_terrainsFoldedOut: 0
    m_serializedExternalAction: 
  - m_description: Flatten - 1 Terrains
    m_operationType: 1
    m_isActive: 1
    m_affectedTerrainNames:
    - Terrain_0_0-20210208 - 170019
    m_operationDateTime: 2/8/2021 5:02:02 PM
    scriptableObjectAssetGUID: c8d66cf60257f2348b60248128ea1a4a
    m_isFoldedOut: 0
    sessionPlaybackState: 1
    m_terrainsFoldedOut: 0
    m_serializedExternalAction: 
  - m_description: RaiseHeight - No Masks
    m_operationType: 4
    m_isActive: 1
    m_affectedTerrainNames:
    - Terrain_0_0-20210208 - 170019
    m_operationDateTime: 2/8/2021 5:02:43 PM
    scriptableObjectAssetGUID: 56df4dbb75d963c44a1a4ce84a3aa41d
    m_isFoldedOut: 0
    sessionPlaybackState: 1
    m_terrainsFoldedOut: 0
    m_serializedExternalAction: 
  - m_description: Spawning - Gaia Pro Sample-Texture(Clone)
    m_operationType: 7
    m_isActive: 1
    m_affectedTerrainNames:
    - Terrain_0_0-20210208 - 170019
    m_operationDateTime: 2/8/2021 5:02:44 PM
    scriptableObjectAssetGUID: d6a34cb9804d5f54c9ea980b36ab7558
    m_isFoldedOut: 0
    sessionPlaybackState: 1
    m_terrainsFoldedOut: 0
    m_serializedExternalAction: 
  - m_description: Spawning - Multiple Spawners (5)
    m_operationType: 7
    m_isActive: 1
    m_affectedTerrainNames:
    - Terrain_0_0-20210208 - 170019
    m_operationDateTime: 2/8/2021 5:02:50 PM
    scriptableObjectAssetGUID: de91d37345b24d24b99b5966c62e1e14
    m_isFoldedOut: 0
    sessionPlaybackState: 1
    m_terrainsFoldedOut: 0
    m_serializedExternalAction: 
  m_terrainMinMaxCache:
  - guid: c628d3be203438e499b82b41dace5043
    isWorldmap: 0
    recalculate: 0
    min: 1.4531472
    max: 49.282
  m_bakedMaskCacheEntries: []
  m_worldBiomeMaskSettings: {fileID: 0}
