%YAML 1.1
%TAG !u! tag:unity3d.com,2011:
--- !u!114 &11400000
MonoBehaviour:
  m_ObjectHideFlags: 0
  m_CorrespondingSourceObject: {fileID: 0}
  m_PrefabInstance: {fileID: 0}
  m_PrefabAsset: {fileID: 0}
  m_GameObject: {fileID: 0}
  m_Enabled: 1
  m_EditorHideFlags: 0
  m_Script: {fileID: 11500000, guid: f1d61257710f55f478816040e1d1dfc9, type: 3}
  m_Name: Alpine Meadow-VFX
  m_EditorClassIdentifier: 
  m_resources:
    m_resourcesID: 0145a356-34ff-4fab-b197-c98d3afc701b
    m_name: NewResources
    m_beachHeight: 5
    m_terrainHeight: 1000
    m_texturePrototypes:
    - m_name: New Texture 1
      m_texture: {fileID: 0}
      m_textureFileName: 
      m_normal: {fileID: 0}
      m_maskmap: {fileID: 0}
      m_CTSSmoothnessMap: {fileID: 0}
      m_CTSRoughnessMap: {fileID: 0}
      m_CTSHeightMap: {fileID: 0}
      m_CTSAmbientOcclusionMap: {fileID: 0}
      m_normalFileName: 
      m_sizeX: 10
      m_sizeY: 10
      m_offsetX: 0
      m_offsetY: 0
      m_metallic: 0.5
      m_smoothness: 0.5
      m_spawnCriteria: []
      m_LayerGUID: 
      m_normalScale: 0
      m_diffuseRemapMax: {x: 1, y: 1, z: 1, w: 1}
      m_diffuseRemapMin: {x: 0, y: 0, z: 0, w: 0}
      m_maskMapRemapMax: {x: 1, y: 1, z: 1, w: 1}
      m_maskMapRemapMin: {x: 0, y: 0, z: 0, w: 0}
      m_specularColor: {r: 0, g: 0, b: 0, a: 0}
      m_channelRemapFoldedOut: 0
    m_detailPrototypes: []
    m_treePrototypes: []
    m_gameObjectPrototypes:
    - m_name: Butterfly
      m_instances:
      - m_name: Butterfly
        m_desktopPrefab: {fileID: 3626015154497079009, guid: 7b2aa901361134c41ab5d7d475e237e0,
          type: 3}
        m_desktopPrefabFileName: 
        m_minInstances: 1
        m_maxInstances: 1
        m_failureRate: 0
        m_minSpawnOffsetX: 0
        m_maxSpawnOffsetX: 0
        m_minSpawnOffsetY: 1.5
        m_maxSpawnOffsetY: 2
        m_minSpawnOffsetZ: 0
        m_maxSpawnOffsetZ: 0
        m_rotateToSlope: 0
        m_yOffsetToSlope: 0
        m_minRotationOffsetX: 0
        m_maxRotationOffsetX: 0
        m_minRotationOffsetY: 0
        m_maxRotationOffsetY: 180
        m_minRotationOffsetZ: 0
        m_maxRotationOffsetZ: 0
        m_minScale: 1
        m_maxScale: 1
        m_scaleByDistance:
          serializedVersion: 2
          m_Curve:
          - serializedVersion: 3
            time: 0
            value: 1
            inSlope: 0
            outSlope: 0
            tangentMode: 0
            weightedMode: 0
            inWeight: 0
            outWeight: 0
          - serializedVersion: 3
            time: 1
            value: 1
            inSlope: 0
            outSlope: 0
            tangentMode: 0
            weightedMode: 0
            inWeight: 0
            outWeight: 0
          m_PreInfinity: 2
          m_PostInfinity: 2
          m_RotationOrder: 4
        m_localBounds: 5
        m_virginTerrain: 1
        m_extParam: 
        m_spawnScale: 0
        m_commonScale: 1
        m_minXYZScale: {x: 0.75, y: 0.75, z: 0.75}
        m_maxXYZScale: {x: 1.5, y: 1.5, z: 1.5}
        m_scaleRandomPercentage: 0.5
        m_XYZScaleRandomPercentage: {x: 0.5, y: 0.5, z: 0.5}
        m_foldedOut: 1
      m_dna:
        m_boundsRadius: 1
        m_scaleMultiplier: 1
        m_extParam: 
        m_protoIdx: 0
      m_spawnCriteria: []
      m_spawnExtensions: []
      m_canSpawnAsTree: 0
      m_instancesFoldOut: 1
      m_dnaFoldedOut: 0
    - m_name: Birds
      m_instances:
      - m_name: Birds
        m_desktopPrefab: {fileID: 8009441548408254674, guid: 8a91754fe033b6e43b3701eeb9589cdc,
          type: 3}
        m_desktopPrefabFileName: 
        m_minInstances: 1
        m_maxInstances: 1
        m_failureRate: 0
        m_minSpawnOffsetX: 0
        m_maxSpawnOffsetX: 0
        m_minSpawnOffsetY: 1.5
        m_maxSpawnOffsetY: 2
        m_minSpawnOffsetZ: 0
        m_maxSpawnOffsetZ: 0
        m_rotateToSlope: 0
        m_yOffsetToSlope: 0
        m_minRotationOffsetX: 0
        m_maxRotationOffsetX: 0
        m_minRotationOffsetY: 0
        m_maxRotationOffsetY: 180
        m_minRotationOffsetZ: 0
        m_maxRotationOffsetZ: 0
        m_minScale: 1
        m_maxScale: 1
        m_scaleByDistance:
          serializedVersion: 2
          m_Curve:
          - serializedVersion: 3
            time: 0
            value: 1
            inSlope: 0
            outSlope: 0
            tangentMode: 0
            weightedMode: 0
            inWeight: 0
            outWeight: 0
          - serializedVersion: 3
            time: 1
            value: 1
            inSlope: 0
            outSlope: 0
            tangentMode: 0
            weightedMode: 0
            inWeight: 0
            outWeight: 0
          m_PreInfinity: 2
          m_PostInfinity: 2
          m_RotationOrder: 4
        m_localBounds: 5
        m_virginTerrain: 1
        m_extParam: 
        m_spawnScale: 0
        m_commonScale: 1
        m_minXYZScale: {x: 0.75, y: 0.75, z: 0.75}
        m_maxXYZScale: {x: 1.5, y: 1.5, z: 1.5}
        m_scaleRandomPercentage: 0.5
        m_XYZScaleRandomPercentage: {x: 0.5, y: 0.5, z: 0.5}
        m_foldedOut: 1
      m_dna:
        m_boundsRadius: 1
        m_scaleMultiplier: 1
        m_extParam: 
        m_protoIdx: 0
      m_spawnCriteria: []
      m_spawnExtensions: []
      m_canSpawnAsTree: 0
      m_instancesFoldOut: 1
      m_dnaFoldedOut: 0
    - m_name: Pollen
      m_instances:
      - m_name: Pollen
        m_desktopPrefab: {fileID: 3453288751576082919, guid: 6d89f1e103fe0944ab5284132b4bfcd3,
          type: 3}
        m_desktopPrefabFileName: 
        m_minInstances: 1
        m_maxInstances: 1
        m_failureRate: 0
        m_minSpawnOffsetX: 0
        m_maxSpawnOffsetX: 0
        m_minSpawnOffsetY: 1
        m_maxSpawnOffsetY: 1.5
        m_minSpawnOffsetZ: 0
        m_maxSpawnOffsetZ: 0
        m_rotateToSlope: 0
        m_yOffsetToSlope: 0
        m_minRotationOffsetX: 0
        m_maxRotationOffsetX: 0
        m_minRotationOffsetY: 0
        m_maxRotationOffsetY: 180
        m_minRotationOffsetZ: 0
        m_maxRotationOffsetZ: 0
        m_minScale: 1
        m_maxScale: 1
        m_scaleByDistance:
          serializedVersion: 2
          m_Curve:
          - serializedVersion: 3
            time: 0
            value: 1
            inSlope: 0
            outSlope: 0
            tangentMode: 0
            weightedMode: 0
            inWeight: 0
            outWeight: 0
          - serializedVersion: 3
            time: 1
            value: 1
            inSlope: 0
            outSlope: 0
            tangentMode: 0
            weightedMode: 0
            inWeight: 0
            outWeight: 0
          m_PreInfinity: 2
          m_PostInfinity: 2
          m_RotationOrder: 4
        m_localBounds: 5
        m_virginTerrain: 1
        m_extParam: 
        m_spawnScale: 0
        m_commonScale: 1
        m_minXYZScale: {x: 0.75, y: 0.75, z: 0.75}
        m_maxXYZScale: {x: 1.5, y: 1.5, z: 1.5}
        m_scaleRandomPercentage: 0.5
        m_XYZScaleRandomPercentage: {x: 0.5, y: 0.5, z: 0.5}
        m_foldedOut: 1
      m_dna:
        m_boundsRadius: 1
        m_scaleMultiplier: 1
        m_extParam: 
        m_protoIdx: 0
      m_spawnCriteria: []
      m_spawnExtensions: []
      m_canSpawnAsTree: 0
      m_instancesFoldOut: 1
      m_dnaFoldedOut: 0
    m_spawnExtensionPrototypes:
    - m_name: New Spawn Extension 1
      m_instances:
      - m_name: New Spawn Extension
        m_spawnerPrefab: {fileID: 0}
        m_spawnerPrefabFileName: 
        m_minSpawnerRuns: 1
        m_maxSpawnerRuns: 1
        m_failureRate: 0
        m_minSpawnOffsetX: 0
        m_maxSpawnOffsetX: 0
        m_minSpawnOffsetY: -0.3
        m_maxSpawnOffsetY: -0.1
        m_minSpawnOffsetZ: 0
        m_maxSpawnOffsetZ: 0
        m_minRotationOffsetX: 0
        m_maxRotationOffsetX: 0
        m_minRotationOffsetY: 0
        m_maxRotationOffsetY: 180
        m_minRotationOffsetZ: 0
        m_maxRotationOffsetZ: 0
        m_minScale: 1
        m_maxScale: 1
        m_scaleByDistance:
          serializedVersion: 2
          m_Curve:
          - serializedVersion: 3
            time: 0
            value: 1
            inSlope: 0
            outSlope: 0
            tangentMode: 0
            weightedMode: 0
            inWeight: 0
            outWeight: 0
          - serializedVersion: 3
            time: 1
            value: 1
            inSlope: 0
            outSlope: 0
            tangentMode: 0
            weightedMode: 0
            inWeight: 0
            outWeight: 0
          m_PreInfinity: 2
          m_PostInfinity: 2
          m_RotationOrder: 4
        m_spawnScale: 0
        m_commonScale: 1
        m_minXYZScale: {x: 0.75, y: 0.75, z: 0.75}
        m_maxXYZScale: {x: 1.5, y: 1.5, z: 1.5}
        m_scaleRandomPercentage: 0.5
        m_XYZScaleRandomPercentage: {x: 0.5, y: 0.5, z: 0.5}
        m_foldedOut: 1
        m_invalidPrefabSupplied: 1
      m_dna:
        m_boundsRadius: 1
        m_scaleMultiplier: 1
        m_extParam: 
        m_protoIdx: 0
      m_instancesFoldOut: 1
      m_dnaFoldedOut: 0
    m_stampDistributionPrototypes: []
    m_worldBiomeMaskPrototypes: []
    m_probePrototypes: []
  m_x: 0
  m_y: 50
  m_z: 0
  m_width: 10
  m_height: 10
  m_rotation: 0
  m_isWorldmapSpawner: 0
  m_spawnRange: 256
  m_generateRandomSeed: 1
  m_randomSeed: 1809445787
  m_spawnDensity: 1
  m_resourcesPath: 
  m_spawnerRules:
  - m_name: Butterfly
    m_guid: 5b1cf81c-fd52-4ee5-978c-a72c99941f65
    m_useExtendedSpawn: 0
    m_minRequiredFitness: 0.3
    m_minInstanceRequiredFitness: 0
    m_failureRate: 0
    m_maxInstances: 40000000
    m_ignoreMaxInstances: 0
    m_minDirection: 0
    m_maxDirection: 359.9
    m_locationIncrementMin: 35
    m_locationIncrementMax: 80
    m_jitterPercent: 1
    m_boundsCheckQuality: 25
    m_resourceType: 3
    m_resourceIdx: 0
    m_imageMasks:
    - m_active: 1
      m_invert: 0
      m_hasErrors: 0
      m_influence: 0
      m_operation: 9
      m_blendMode: 0
      m_imageMaskLocation: 0
      m_strength: 1
      m_seaLevel: 12.5
      m_maxWorldHeight: 112.8611
      m_minWorldHeight: 18.109652
      m_xOffSet: 0
      m_zOffSet: 0
      m_xOffSetScalar: 0
      m_zOffSetScalar: 0
      m_imageMaskTextureGUID: 
      m_imageMaskFilterMode: 0
      m_imageMaskColorSelectionColor: {r: 1, g: 1, b: 1, a: 1}
      m_imageMaskColorSelectionAccuracy: 0.5
      m_distanceMaskCurve:
        serializedVersion: 2
        m_Curve:
        - serializedVersion: 3
          time: 0
          value: 1
          inSlope: 0
          outSlope: 0
          tangentMode: 0
          weightedMode: 0
          inWeight: 0
          outWeight: 0
        - serializedVersion: 3
          time: 1
          value: 0
          inSlope: 0
          outSlope: 0
          tangentMode: 0
          weightedMode: 0
          inWeight: 0
          outWeight: 0
        m_PreInfinity: 2
        m_PostInfinity: 2
        m_RotationOrder: 4
      m_heightMaskCurve:
        serializedVersion: 2
        m_Curve:
        - serializedVersion: 3
          time: 0
          value: 0
          inSlope: 0
          outSlope: 0
          tangentMode: 0
          weightedMode: 0
          inWeight: 0
          outWeight: 0
        - serializedVersion: 3
          time: 1
          value: 1
          inSlope: 0
          outSlope: 0
          tangentMode: 0
          weightedMode: 0
          inWeight: 0
          outWeight: 0
        m_PreInfinity: 2
        m_PostInfinity: 2
        m_RotationOrder: 4
      m_strengthTransformCurve:
        serializedVersion: 2
        m_Curve:
        - serializedVersion: 3
          time: 0
          value: 0
          inSlope: 0
          outSlope: 0
          tangentMode: 0
          weightedMode: 0
          inWeight: 0
          outWeight: 0
        - serializedVersion: 3
          time: 0.13815033
          value: 0.9994726
          inSlope: 0
          outSlope: 0
          tangentMode: 0
          weightedMode: 0
          inWeight: 0.33333334
          outWeight: 0.33333334
        - serializedVersion: 3
          time: 0.8382825
          value: 0.9968498
          inSlope: 0
          outSlope: 0
          tangentMode: 0
          weightedMode: 0
          inWeight: 0.062909804
          outWeight: 0.33333334
        - serializedVersion: 3
          time: 1
          value: 0.004219413
          inSlope: 0
          outSlope: 0
          tangentMode: 0
          weightedMode: 0
          inWeight: 0
          outWeight: 0
        m_PreInfinity: 2
        m_PostInfinity: 2
        m_RotationOrder: 4
      m_heightMaskType: 1
      m_heightMaskUnit: 0
      m_relativeHeightMin: -10
      m_relativeHeightMax: 10
      m_absoluteHeightMin: 2.5
      m_absoluteHeightMax: 22.5
      m_seaLevelRelativeHeightMin: -109876.55
      m_seaLevelRelativeHeightMax: 109876.55
      tree1active: 0
      tree2active: 0
      m_slopeMaskCurve:
        serializedVersion: 2
        m_Curve:
        - serializedVersion: 3
          time: 0
          value: 1
          inSlope: 0
          outSlope: 0
          tangentMode: 0
          weightedMode: 0
          inWeight: 0
          outWeight: 0
        - serializedVersion: 3
          time: 1
          value: 0
          inSlope: 0
          outSlope: 0
          tangentMode: 0
          weightedMode: 0
          inWeight: 0
          outWeight: 0
        m_PreInfinity: 2
        m_PostInfinity: 2
        m_RotationOrder: 4
      m_slopeMin: 0
      m_slopeMax: 0.1
      m_distanceMaskAxes: 0
      m_gaiaNoiseSettings:
        m_translation: {x: 0, y: 0, z: 0}
        m_rotation: {x: 0, y: 0, z: 0}
        m_scale: {x: 10, y: 1, z: 10}
        m_noiseTypeName: Perlin
        m_noiseTypeParams: 
        m_fractalTypeName: Fbm
        m_fractalTypeParams: 
        m_warpEnabled: 0
        m_warpIterations: 0
        m_warpStrength: 0
        m_warpOffset: {x: 0, y: 0, z: 0, w: 0}
      m_noiseSettings: {fileID: 0}
      m_noiseToolSettings:
        worldHeightRemap: {x: 0, y: 0}
        coordSpace: 0
        noiseAssetGUID: 
      m_ShowNoiseTransformSettings: 0
      m_ShowNoisePreviewTexture: 1
      m_noisePreviewTextureLocked: 0
      m_ShowNoiseTypeSettings: 0
      m_scaleNoiseToTerrainSize: 0
      m_collisionMaskExpanded: 1
      m_collisionMasks: []
      m_erosionMaskOutput: 0
      m_erosionSimScale: 9
      m_erosionHydroTimeDelta: 0.05
      m_erosionHydroIterations: 15
      m_erosionThermalTimeDelta: 0.01
      m_erosionThermalIterations: 80
      m_erosionThermalReposeAngle: 80
      m_erosionPrecipRate: 0.5
      m_erosionEvaporationRate: 0.5
      m_erosionFlowRate: 0.5
      m_erosionSedimentCapacity: 0.5
      m_erosionSedimentDepositRate: 0.8
      m_erosionSedimentDissolveRate: 0.5
      m_erosionRiverBankDepositRate: 7
      m_erosionRiverBankDissolveRate: 5
      m_erosionRiverBedDepositRate: 5
      m_erosionRiverBedDissolveRate: 5
      m_erosionShowAdvancedUI: 0
      m_erosionShowThermalUI: 0
      m_erosionShowWaterUI: 0
      m_erosionShowSedimentUI: 0
      m_erosionShowRiverBankUI: 0
      m_smoothVerticality: 0
      m_smoothBlurRadius: 1
      m_textureMaskSpawnRuleGUID: efe809a8-0457-4e40-912a-8c5fe2311f08
      m_concavity: 1
      m_concavityFeatureSize: 10
      m_foldedOut: 1
      m_selectedWorldBiomeMaskGUID: 
      m_growAndShrinkValue: 0
      m_globalSpawnerMaskStackRT: {fileID: 0}
    m_visualisationColor: {r: 0.7686275, g: 0.3960784, b: 0.3921569, a: 1}
    m_noiseMask: 0
    m_noiseMaskSeed: 0
    m_noiseMaskOctaves: 8
    m_noiseMaskPersistence: 0.25
    m_noiseMaskFrequency: 1
    m_noiseMaskLacunarity: 1.5
    m_noiseZoom: 50
    m_noiseStrength: 1
    m_noiseInvert: 0
    m_isActive: 1
    m_isFoldedOut: 0
    m_currInstanceCnt: 0
    m_activeInstanceCnt: 0
    m_inactiveInstanceCnt: 0
    m_resourceSettingsFoldedOut: 0
    m_isHelpActive: 0
    m_spawnedInstances: 0
    m_goSpawnTargetMode: 0
    m_goSpawnTarget: {fileID: 0}
    m_terrainGOSpawnTargetName: Gaia Game Object Spawns
    m_terrainDetailDensity: 15
    m_terrainDetailMinFitness: 0.5
    m_terrainDetailFitnessBeginFadeOut: 0.6
    m_createdBiomeController: {fileID: 0}
    m_visibleInSceneHierarchy: 1
    m_usesBoxStandIn: 0
    m_boundsCollisionCheck: 0
  - m_name: Birds
    m_guid: 25f6e4d7-61c5-4313-8f4c-ee9298341a48
    m_useExtendedSpawn: 0
    m_minRequiredFitness: 0.3
    m_minInstanceRequiredFitness: 0
    m_failureRate: 0
    m_maxInstances: 40000000
    m_ignoreMaxInstances: 0
    m_minDirection: 0
    m_maxDirection: 359.9
    m_locationIncrementMin: 80
    m_locationIncrementMax: 115
    m_jitterPercent: 1
    m_boundsCheckQuality: 25
    m_resourceType: 3
    m_resourceIdx: 1
    m_imageMasks:
    - m_active: 1
      m_invert: 0
      m_hasErrors: 0
      m_influence: 0
      m_operation: 9
      m_blendMode: 0
      m_imageMaskLocation: 0
      m_strength: 1
      m_seaLevel: 12.5
      m_maxWorldHeight: 112.8611
      m_minWorldHeight: 18.109652
      m_xOffSet: 0
      m_zOffSet: 0
      m_xOffSetScalar: 0
      m_zOffSetScalar: 0
      m_imageMaskTextureGUID: 
      m_imageMaskFilterMode: 0
      m_imageMaskColorSelectionColor: {r: 1, g: 1, b: 1, a: 1}
      m_imageMaskColorSelectionAccuracy: 0.5
      m_distanceMaskCurve:
        serializedVersion: 2
        m_Curve:
        - serializedVersion: 3
          time: 0
          value: 1
          inSlope: 0
          outSlope: 0
          tangentMode: 0
          weightedMode: 0
          inWeight: 0
          outWeight: 0
        - serializedVersion: 3
          time: 1
          value: 0
          inSlope: 0
          outSlope: 0
          tangentMode: 0
          weightedMode: 0
          inWeight: 0
          outWeight: 0
        m_PreInfinity: 2
        m_PostInfinity: 2
        m_RotationOrder: 4
      m_heightMaskCurve:
        serializedVersion: 2
        m_Curve:
        - serializedVersion: 3
          time: 0
          value: 0
          inSlope: 0
          outSlope: 0
          tangentMode: 0
          weightedMode: 0
          inWeight: 0
          outWeight: 0
        - serializedVersion: 3
          time: 1
          value: 1
          inSlope: 0
          outSlope: 0
          tangentMode: 0
          weightedMode: 0
          inWeight: 0
          outWeight: 0
        m_PreInfinity: 2
        m_PostInfinity: 2
        m_RotationOrder: 4
      m_strengthTransformCurve:
        serializedVersion: 2
        m_Curve:
        - serializedVersion: 3
          time: 0
          value: 0
          inSlope: 1
          outSlope: 1
          tangentMode: 0
          weightedMode: 0
          inWeight: 0
          outWeight: 0
        - serializedVersion: 3
          time: 1
          value: 1
          inSlope: 1
          outSlope: 1
          tangentMode: 0
          weightedMode: 0
          inWeight: 0
          outWeight: 0
        m_PreInfinity: 2
        m_PostInfinity: 2
        m_RotationOrder: 4
      m_heightMaskType: 1
      m_heightMaskUnit: 0
      m_relativeHeightMin: -10
      m_relativeHeightMax: 10
      m_absoluteHeightMin: 2.5
      m_absoluteHeightMax: 22.5
      m_seaLevelRelativeHeightMin: -109876.55
      m_seaLevelRelativeHeightMax: 109876.55
      tree1active: 0
      tree2active: 0
      m_slopeMaskCurve:
        serializedVersion: 2
        m_Curve:
        - serializedVersion: 3
          time: 0
          value: 1
          inSlope: 0
          outSlope: 0
          tangentMode: 0
          weightedMode: 0
          inWeight: 0
          outWeight: 0
        - serializedVersion: 3
          time: 1
          value: 0
          inSlope: 0
          outSlope: 0
          tangentMode: 0
          weightedMode: 0
          inWeight: 0
          outWeight: 0
        m_PreInfinity: 2
        m_PostInfinity: 2
        m_RotationOrder: 4
      m_slopeMin: 0
      m_slopeMax: 0.1
      m_distanceMaskAxes: 0
      m_gaiaNoiseSettings:
        m_translation: {x: 0, y: 0, z: 0}
        m_rotation: {x: 0, y: 0, z: 0}
        m_scale: {x: 10, y: 1, z: 10}
        m_noiseTypeName: Perlin
        m_noiseTypeParams: 
        m_fractalTypeName: Fbm
        m_fractalTypeParams: 
        m_warpEnabled: 0
        m_warpIterations: 0
        m_warpStrength: 0
        m_warpOffset: {x: 0, y: 0, z: 0, w: 0}
      m_noiseSettings: {fileID: 0}
      m_noiseToolSettings:
        worldHeightRemap: {x: 0, y: 0}
        coordSpace: 0
        noiseAssetGUID: 
      m_ShowNoiseTransformSettings: 0
      m_ShowNoisePreviewTexture: 1
      m_noisePreviewTextureLocked: 0
      m_ShowNoiseTypeSettings: 0
      m_scaleNoiseToTerrainSize: 0
      m_collisionMaskExpanded: 1
      m_collisionMasks: []
      m_erosionMaskOutput: 0
      m_erosionSimScale: 9
      m_erosionHydroTimeDelta: 0.05
      m_erosionHydroIterations: 15
      m_erosionThermalTimeDelta: 0.01
      m_erosionThermalIterations: 80
      m_erosionThermalReposeAngle: 80
      m_erosionPrecipRate: 0.5
      m_erosionEvaporationRate: 0.5
      m_erosionFlowRate: 0.5
      m_erosionSedimentCapacity: 0.5
      m_erosionSedimentDepositRate: 0.8
      m_erosionSedimentDissolveRate: 0.5
      m_erosionRiverBankDepositRate: 7
      m_erosionRiverBankDissolveRate: 5
      m_erosionRiverBedDepositRate: 5
      m_erosionRiverBedDissolveRate: 5
      m_erosionShowAdvancedUI: 0
      m_erosionShowThermalUI: 0
      m_erosionShowWaterUI: 0
      m_erosionShowSedimentUI: 0
      m_erosionShowRiverBankUI: 0
      m_smoothVerticality: 0
      m_smoothBlurRadius: 1
      m_textureMaskSpawnRuleGUID: efe809a8-0457-4e40-912a-8c5fe2311f08
      m_concavity: 1
      m_concavityFeatureSize: 10
      m_foldedOut: 1
      m_selectedWorldBiomeMaskGUID: 
      m_growAndShrinkValue: 0
      m_globalSpawnerMaskStackRT: {fileID: 0}
    m_visualisationColor: {r: 0.5294118, g: 0.6666667, b: 0.5993278, a: 1}
    m_noiseMask: 0
    m_noiseMaskSeed: 0
    m_noiseMaskOctaves: 8
    m_noiseMaskPersistence: 0.25
    m_noiseMaskFrequency: 1
    m_noiseMaskLacunarity: 1.5
    m_noiseZoom: 50
    m_noiseStrength: 1
    m_noiseInvert: 0
    m_isActive: 1
    m_isFoldedOut: 0
    m_currInstanceCnt: 0
    m_activeInstanceCnt: 0
    m_inactiveInstanceCnt: 0
    m_resourceSettingsFoldedOut: 0
    m_isHelpActive: 0
    m_spawnedInstances: 0
    m_goSpawnTargetMode: 0
    m_goSpawnTarget: {fileID: 0}
    m_terrainGOSpawnTargetName: Gaia Game Object Spawns
    m_terrainDetailDensity: 15
    m_terrainDetailMinFitness: 0.5
    m_terrainDetailFitnessBeginFadeOut: 0.6
    m_createdBiomeController: {fileID: 0}
    m_visibleInSceneHierarchy: 1
    m_usesBoxStandIn: 0
    m_boundsCollisionCheck: 0
  - m_name: Pollen
    m_guid: 8d1390ac-1328-46bf-bc43-9383344f0aa2
    m_useExtendedSpawn: 0
    m_minRequiredFitness: 0.25
    m_minInstanceRequiredFitness: 0
    m_failureRate: 0
    m_maxInstances: 40000000
    m_ignoreMaxInstances: 0
    m_minDirection: 0
    m_maxDirection: 359.9
    m_locationIncrementMin: 20
    m_locationIncrementMax: 75
    m_jitterPercent: 1
    m_boundsCheckQuality: 25
    m_resourceType: 3
    m_resourceIdx: 2
    m_imageMasks:
    - m_active: 1
      m_invert: 0
      m_hasErrors: 0
      m_influence: 0
      m_operation: 3
      m_blendMode: 0
      m_imageMaskLocation: 0
      m_strength: 1
      m_seaLevel: 12.5
      m_maxWorldHeight: 112.8611
      m_minWorldHeight: 18.109652
      m_xOffSet: 0
      m_zOffSet: 0
      m_xOffSetScalar: 0
      m_zOffSetScalar: 0
      m_imageMaskTextureGUID: 
      m_imageMaskFilterMode: 0
      m_imageMaskColorSelectionColor: {r: 1, g: 1, b: 1, a: 1}
      m_imageMaskColorSelectionAccuracy: 0.5
      m_distanceMaskCurve:
        serializedVersion: 2
        m_Curve:
        - serializedVersion: 3
          time: 0
          value: 1
          inSlope: 0
          outSlope: 0
          tangentMode: 0
          weightedMode: 0
          inWeight: 0
          outWeight: 0
        - serializedVersion: 3
          time: 1
          value: 0
          inSlope: 0
          outSlope: 0
          tangentMode: 0
          weightedMode: 0
          inWeight: 0
          outWeight: 0
        m_PreInfinity: 2
        m_PostInfinity: 2
        m_RotationOrder: 4
      m_heightMaskCurve:
        serializedVersion: 2
        m_Curve:
        - serializedVersion: 3
          time: 0
          value: 0
          inSlope: 0
          outSlope: 0
          tangentMode: 0
          weightedMode: 0
          inWeight: 0
          outWeight: 0
        - serializedVersion: 3
          time: 1
          value: 1
          inSlope: 0
          outSlope: 0
          tangentMode: 0
          weightedMode: 0
          inWeight: 0
          outWeight: 0
        m_PreInfinity: 2
        m_PostInfinity: 2
        m_RotationOrder: 4
      m_strengthTransformCurve:
        serializedVersion: 2
        m_Curve:
        - serializedVersion: 3
          time: 0
          value: 0
          inSlope: 1
          outSlope: 1
          tangentMode: 0
          weightedMode: 0
          inWeight: 0
          outWeight: 0
        - serializedVersion: 3
          time: 1
          value: 1
          inSlope: 1
          outSlope: 1
          tangentMode: 0
          weightedMode: 0
          inWeight: 0
          outWeight: 0
        m_PreInfinity: 2
        m_PostInfinity: 2
        m_RotationOrder: 4
      m_heightMaskType: 0
      m_heightMaskUnit: 1
      m_relativeHeightMin: -1225
      m_relativeHeightMax: -1175
      m_absoluteHeightMin: 25
      m_absoluteHeightMax: 75
      m_seaLevelRelativeHeightMin: -109876.55
      m_seaLevelRelativeHeightMax: 109876.55
      tree1active: 0
      tree2active: 0
      m_slopeMaskCurve:
        serializedVersion: 2
        m_Curve:
        - serializedVersion: 3
          time: -0.002544403
          value: 0
          inSlope: 0
          outSlope: 0
          tangentMode: 0
          weightedMode: 0
          inWeight: 0
          outWeight: 0
        - serializedVersion: 3
          time: 0.054582085
          value: 0.030340571
          inSlope: 1.2944286
          outSlope: 1.2944286
          tangentMode: 0
          weightedMode: 0
          inWeight: 0.8836998
          outWeight: 0.33333334
        - serializedVersion: 3
          time: 0.11707167
          value: 0.99587226
          inSlope: 0
          outSlope: 0
          tangentMode: 0
          weightedMode: 0
          inWeight: 0.33333334
          outWeight: 0.33333334
        - serializedVersion: 3
          time: 0.5445525
          value: 0.81491673
          inSlope: -1.5834001
          outSlope: -1.5834001
          tangentMode: 0
          weightedMode: 0
          inWeight: 0.33333334
          outWeight: 0.33333334
        - serializedVersion: 3
          time: 1
          value: 0
          inSlope: 0
          outSlope: 0
          tangentMode: 0
          weightedMode: 0
          inWeight: 0
          outWeight: 0
        m_PreInfinity: 2
        m_PostInfinity: 2
        m_RotationOrder: 4
      m_slopeMin: 0
      m_slopeMax: 0.028777776
      m_distanceMaskAxes: 0
      m_gaiaNoiseSettings:
        m_translation: {x: 0, y: 0, z: 0}
        m_rotation: {x: 0, y: 0, z: 0}
        m_scale: {x: 10, y: 1, z: 10}
        m_noiseTypeName: Perlin
        m_noiseTypeParams: 
        m_fractalTypeName: Fbm
        m_fractalTypeParams: 
        m_warpEnabled: 0
        m_warpIterations: 0
        m_warpStrength: 0
        m_warpOffset: {x: 0, y: 0, z: 0, w: 0}
      m_noiseSettings: {fileID: 0}
      m_noiseToolSettings:
        worldHeightRemap: {x: 0, y: 0}
        coordSpace: 0
        noiseAssetGUID: 
      m_ShowNoiseTransformSettings: 0
      m_ShowNoisePreviewTexture: 1
      m_noisePreviewTextureLocked: 0
      m_ShowNoiseTypeSettings: 0
      m_scaleNoiseToTerrainSize: 0
      m_collisionMaskExpanded: 1
      m_collisionMasks: []
      m_erosionMaskOutput: 0
      m_erosionSimScale: 9
      m_erosionHydroTimeDelta: 0.05
      m_erosionHydroIterations: 15
      m_erosionThermalTimeDelta: 0.01
      m_erosionThermalIterations: 80
      m_erosionThermalReposeAngle: 80
      m_erosionPrecipRate: 0.5
      m_erosionEvaporationRate: 0.5
      m_erosionFlowRate: 0.5
      m_erosionSedimentCapacity: 0.5
      m_erosionSedimentDepositRate: 0.8
      m_erosionSedimentDissolveRate: 0.5
      m_erosionRiverBankDepositRate: 7
      m_erosionRiverBankDissolveRate: 5
      m_erosionRiverBedDepositRate: 5
      m_erosionRiverBedDissolveRate: 5
      m_erosionShowAdvancedUI: 0
      m_erosionShowThermalUI: 0
      m_erosionShowWaterUI: 0
      m_erosionShowSedimentUI: 0
      m_erosionShowRiverBankUI: 0
      m_smoothVerticality: 0
      m_smoothBlurRadius: 1
      m_textureMaskSpawnRuleGUID: 
      m_concavity: 1
      m_concavityFeatureSize: 10
      m_foldedOut: 1
      m_selectedWorldBiomeMaskGUID: 
      m_growAndShrinkValue: 0
      m_globalSpawnerMaskStackRT: {fileID: 0}
    - m_active: 1
      m_invert: 0
      m_hasErrors: 0
      m_influence: 0
      m_operation: 5
      m_blendMode: 0
      m_imageMaskLocation: 0
      m_strength: 1
      m_seaLevel: 12.5
      m_maxWorldHeight: 112.8611
      m_minWorldHeight: 18.109652
      m_xOffSet: 0
      m_zOffSet: 0
      m_xOffSetScalar: 0
      m_zOffSetScalar: 0
      m_imageMaskTextureGUID: 
      m_imageMaskFilterMode: 0
      m_imageMaskColorSelectionColor: {r: 1, g: 1, b: 1, a: 1}
      m_imageMaskColorSelectionAccuracy: 0.5
      m_distanceMaskCurve:
        serializedVersion: 2
        m_Curve:
        - serializedVersion: 3
          time: 0
          value: 1
          inSlope: 0
          outSlope: 0
          tangentMode: 0
          weightedMode: 0
          inWeight: 0
          outWeight: 0
        - serializedVersion: 3
          time: 1
          value: 0
          inSlope: 0
          outSlope: 0
          tangentMode: 0
          weightedMode: 0
          inWeight: 0
          outWeight: 0
        m_PreInfinity: 2
        m_PostInfinity: 2
        m_RotationOrder: 4
      m_heightMaskCurve:
        serializedVersion: 2
        m_Curve:
        - serializedVersion: 3
          time: 0
          value: 0
          inSlope: 0
          outSlope: 0
          tangentMode: 0
          weightedMode: 0
          inWeight: 0
          outWeight: 0
        - serializedVersion: 3
          time: 1
          value: 1
          inSlope: 0
          outSlope: 0
          tangentMode: 0
          weightedMode: 0
          inWeight: 0
          outWeight: 0
        m_PreInfinity: 2
        m_PostInfinity: 2
        m_RotationOrder: 4
      m_strengthTransformCurve:
        serializedVersion: 2
        m_Curve:
        - serializedVersion: 3
          time: 0
          value: 0
          inSlope: 1
          outSlope: 1
          tangentMode: 0
          weightedMode: 0
          inWeight: 0
          outWeight: 0
        - serializedVersion: 3
          time: 1
          value: 1
          inSlope: 1
          outSlope: 1
          tangentMode: 0
          weightedMode: 0
          inWeight: 0
          outWeight: 0
        m_PreInfinity: 2
        m_PostInfinity: 2
        m_RotationOrder: 4
      m_heightMaskType: 0
      m_heightMaskUnit: 1
      m_relativeHeightMin: -1225
      m_relativeHeightMax: -1175
      m_absoluteHeightMin: 25
      m_absoluteHeightMax: 75
      m_seaLevelRelativeHeightMin: -109876.55
      m_seaLevelRelativeHeightMax: 109876.55
      tree1active: 0
      tree2active: 0
      m_slopeMaskCurve:
        serializedVersion: 2
        m_Curve:
        - serializedVersion: 3
          time: 0
          value: 1
          inSlope: 0
          outSlope: 0
          tangentMode: 0
          weightedMode: 0
          inWeight: 0
          outWeight: 0
        - serializedVersion: 3
          time: 1
          value: 0
          inSlope: 0
          outSlope: 0
          tangentMode: 0
          weightedMode: 0
          inWeight: 0
          outWeight: 0
        m_PreInfinity: 2
        m_PostInfinity: 2
        m_RotationOrder: 4
      m_slopeMin: 0
      m_slopeMax: 0.1
      m_distanceMaskAxes: 0
      m_gaiaNoiseSettings:
        m_translation: {x: 0, y: 0, z: 0}
        m_rotation: {x: 0, y: 0, z: 0}
        m_scale: {x: 10, y: 1, z: 10}
        m_noiseTypeName: Perlin
        m_noiseTypeParams: 
        m_fractalTypeName: Fbm
        m_fractalTypeParams: 
        m_warpEnabled: 0
        m_warpIterations: 0
        m_warpStrength: 0
        m_warpOffset: {x: 0, y: 0, z: 0, w: 0}
      m_noiseSettings: {fileID: 0}
      m_noiseToolSettings:
        worldHeightRemap: {x: 0, y: 0}
        coordSpace: 0
        noiseAssetGUID: 
      m_ShowNoiseTransformSettings: 0
      m_ShowNoisePreviewTexture: 1
      m_noisePreviewTextureLocked: 0
      m_ShowNoiseTypeSettings: 0
      m_scaleNoiseToTerrainSize: 0
      m_collisionMaskExpanded: 1
      m_collisionMasks:
      - m_active: 1
        m_invert: 0
        m_type: 0
        m_treeSpawnRuleGUID: 1596462e-fa48-4a85-89d3-7fd82f1fb740
        m_tag: 
        m_Radius: 1.07
        m_growShrinkDistance: 0
        m_layerMask:
          serializedVersion: 2
          m_Bits: 0
        m_layerMaskLayerNames: []
      - m_active: 1
        m_invert: 0
        m_type: 0
        m_treeSpawnRuleGUID: 0e44a02a-e806-4efd-a793-70e335a8445b
        m_tag: 
        m_Radius: 3.37
        m_growShrinkDistance: 0
        m_layerMask:
          serializedVersion: 2
          m_Bits: 0
        m_layerMaskLayerNames: []
      - m_active: 1
        m_invert: 0
        m_type: 0
        m_treeSpawnRuleGUID: 87aa4839-b18a-4722-84ef-5c496b9a4aad
        m_tag: 
        m_Radius: 0.89
        m_growShrinkDistance: 0
        m_layerMask:
          serializedVersion: 2
          m_Bits: 0
        m_layerMaskLayerNames: []
      - m_active: 1
        m_invert: 0
        m_type: 0
        m_treeSpawnRuleGUID: 63126f4e-94f9-4046-bec4-346f924db1fd
        m_tag: 
        m_Radius: 1.07
        m_growShrinkDistance: 0
        m_layerMask:
          serializedVersion: 2
          m_Bits: 0
        m_layerMaskLayerNames: []
      m_erosionMaskOutput: 0
      m_erosionSimScale: 9
      m_erosionHydroTimeDelta: 0.05
      m_erosionHydroIterations: 15
      m_erosionThermalTimeDelta: 0.01
      m_erosionThermalIterations: 80
      m_erosionThermalReposeAngle: 80
      m_erosionPrecipRate: 0.5
      m_erosionEvaporationRate: 0.5
      m_erosionFlowRate: 0.5
      m_erosionSedimentCapacity: 0.5
      m_erosionSedimentDepositRate: 0.8
      m_erosionSedimentDissolveRate: 0.5
      m_erosionRiverBankDepositRate: 7
      m_erosionRiverBankDissolveRate: 5
      m_erosionRiverBedDepositRate: 5
      m_erosionRiverBedDissolveRate: 5
      m_erosionShowAdvancedUI: 0
      m_erosionShowThermalUI: 0
      m_erosionShowWaterUI: 0
      m_erosionShowSedimentUI: 0
      m_erosionShowRiverBankUI: 0
      m_smoothVerticality: 0
      m_smoothBlurRadius: 1
      m_textureMaskSpawnRuleGUID: 
      m_concavity: 1
      m_concavityFeatureSize: 10
      m_foldedOut: 1
      m_selectedWorldBiomeMaskGUID: 
      m_growAndShrinkValue: 0
      m_globalSpawnerMaskStackRT: {fileID: 0}
    m_visualisationColor: {r: 0.9315582, g: 0.88487065, b: 0.5884144, a: 1}
    m_noiseMask: 0
    m_noiseMaskSeed: 0
    m_noiseMaskOctaves: 8
    m_noiseMaskPersistence: 0.25
    m_noiseMaskFrequency: 1
    m_noiseMaskLacunarity: 1.5
    m_noiseZoom: 50
    m_noiseStrength: 1
    m_noiseInvert: 0
    m_isActive: 1
    m_isFoldedOut: 0
    m_currInstanceCnt: 0
    m_activeInstanceCnt: 0
    m_inactiveInstanceCnt: 0
    m_resourceSettingsFoldedOut: 0
    m_isHelpActive: 0
    m_spawnedInstances: 0
    m_goSpawnTargetMode: 0
    m_goSpawnTarget: {fileID: 0}
    m_terrainGOSpawnTargetName: Gaia Game Object Spawns
    m_terrainDetailDensity: 15
    m_terrainDetailMinFitness: 0.5
    m_terrainDetailFitnessBeginFadeOut: 0.6
    m_createdBiomeController: {fileID: 0}
    m_visibleInSceneHierarchy: 1
    m_usesBoxStandIn: 0
    m_boundsCollisionCheck: 0
  m_showGizmos: 1
  m_showDebug: 0
  m_showTerrainHelper: 1
  m_spawnMode: 0
  imageMasks:
  - m_active: 1
    m_invert: 0
    m_hasErrors: 0
    m_influence: 0
    m_operation: 9
    m_blendMode: 0
    m_imageMaskLocation: 0
    m_strength: 1
    m_seaLevel: 12.5
    m_maxWorldHeight: 112.8611
    m_minWorldHeight: 18.109652
    m_xOffSet: 0
    m_zOffSet: 0
    m_xOffSetScalar: 0
    m_zOffSetScalar: 0
    m_imageMaskTextureGUID: 
    m_imageMaskFilterMode: 0
    m_imageMaskColorSelectionColor: {r: 1, g: 1, b: 1, a: 1}
    m_imageMaskColorSelectionAccuracy: 0.5
    m_distanceMaskCurve:
      serializedVersion: 2
      m_Curve:
      - serializedVersion: 3
        time: 0
        value: 1
        inSlope: 0
        outSlope: 0
        tangentMode: 0
        weightedMode: 0
        inWeight: 0
        outWeight: 0
      - serializedVersion: 3
        time: 1
        value: 0
        inSlope: 0
        outSlope: 0
        tangentMode: 0
        weightedMode: 0
        inWeight: 0
        outWeight: 0
      m_PreInfinity: 2
      m_PostInfinity: 2
      m_RotationOrder: 4
    m_heightMaskCurve:
      serializedVersion: 2
      m_Curve:
      - serializedVersion: 3
        time: 0
        value: 0
        inSlope: 0
        outSlope: 0
        tangentMode: 0
        weightedMode: 0
        inWeight: 0
        outWeight: 0
      - serializedVersion: 3
        time: 1
        value: 1
        inSlope: 0
        outSlope: 0
        tangentMode: 0
        weightedMode: 0
        inWeight: 0
        outWeight: 0
      m_PreInfinity: 2
      m_PostInfinity: 2
      m_RotationOrder: 4
    m_strengthTransformCurve:
      serializedVersion: 2
      m_Curve:
      - serializedVersion: 3
        time: 0
        value: 1
        inSlope: -1
        outSlope: -1
        tangentMode: 0
        weightedMode: 0
        inWeight: -0
        outWeight: -0
      - serializedVersion: 3
        time: 0.18231672
        value: 0.27027768
        inSlope: -1.0000001
        outSlope: -1.0000001
        tangentMode: 0
        weightedMode: 0
        inWeight: 0.33333334
        outWeight: 0.33333334
      - serializedVersion: 3
        time: 1
        value: 0
        inSlope: -1
        outSlope: -1
        tangentMode: 0
        weightedMode: 0
        inWeight: -0
        outWeight: -0
      m_PreInfinity: 2
      m_PostInfinity: 2
      m_RotationOrder: 4
    m_heightMaskType: 1
    m_heightMaskUnit: 0
    m_relativeHeightMin: -10
    m_relativeHeightMax: 10
    m_absoluteHeightMin: 2.5
    m_absoluteHeightMax: 22.5
    m_seaLevelRelativeHeightMin: -109876.55
    m_seaLevelRelativeHeightMax: 109876.55
    tree1active: 0
    tree2active: 0
    m_slopeMaskCurve:
      serializedVersion: 2
      m_Curve:
      - serializedVersion: 3
        time: 0
        value: 1
        inSlope: 0
        outSlope: 0
        tangentMode: 0
        weightedMode: 0
        inWeight: 0
        outWeight: 0
      - serializedVersion: 3
        time: 1
        value: 0
        inSlope: 0
        outSlope: 0
        tangentMode: 0
        weightedMode: 0
        inWeight: 0
        outWeight: 0
      m_PreInfinity: 2
      m_PostInfinity: 2
      m_RotationOrder: 4
    m_slopeMin: 0
    m_slopeMax: 0.1
    m_distanceMaskAxes: 0
    m_gaiaNoiseSettings:
      m_translation: {x: 0, y: 0, z: 0}
      m_rotation: {x: 0, y: 0, z: 0}
      m_scale: {x: 10, y: 1, z: 10}
      m_noiseTypeName: Perlin
      m_noiseTypeParams: 
      m_fractalTypeName: Fbm
      m_fractalTypeParams: 
      m_warpEnabled: 0
      m_warpIterations: 0
      m_warpStrength: 0
      m_warpOffset: {x: 0, y: 0, z: 0, w: 0}
    m_noiseSettings: {fileID: 0}
    m_noiseToolSettings:
      worldHeightRemap: {x: 0, y: 0}
      coordSpace: 0
      noiseAssetGUID: 
    m_ShowNoiseTransformSettings: 0
    m_ShowNoisePreviewTexture: 1
    m_noisePreviewTextureLocked: 0
    m_ShowNoiseTypeSettings: 0
    m_scaleNoiseToTerrainSize: 0
    m_collisionMaskExpanded: 1
    m_collisionMasks: []
    m_erosionMaskOutput: 0
    m_erosionSimScale: 9
    m_erosionHydroTimeDelta: 0.05
    m_erosionHydroIterations: 15
    m_erosionThermalTimeDelta: 0.01
    m_erosionThermalIterations: 80
    m_erosionThermalReposeAngle: 80
    m_erosionPrecipRate: 0.5
    m_erosionEvaporationRate: 0.5
    m_erosionFlowRate: 0.5
    m_erosionSedimentCapacity: 0.5
    m_erosionSedimentDepositRate: 0.8
    m_erosionSedimentDissolveRate: 0.5
    m_erosionRiverBankDepositRate: 7
    m_erosionRiverBankDissolveRate: 5
    m_erosionRiverBedDepositRate: 5
    m_erosionRiverBedDissolveRate: 5
    m_erosionShowAdvancedUI: 0
    m_erosionShowThermalUI: 0
    m_erosionShowWaterUI: 0
    m_erosionShowSedimentUI: 0
    m_erosionShowRiverBankUI: 0
    m_smoothVerticality: 0
    m_smoothBlurRadius: 1
    m_textureMaskSpawnRuleGUID: 721c2ded-d1f2-4777-9256-721426f1b437
    m_concavity: 1
    m_concavityFeatureSize: 10
    m_foldedOut: 0
    m_selectedWorldBiomeMaskGUID: 
    m_growAndShrinkValue: 0
    m_globalSpawnerMaskStackRT: {fileID: 0}
  - m_active: 1
    m_invert: 0
    m_hasErrors: 0
    m_influence: 0
    m_operation: 9
    m_blendMode: 0
    m_imageMaskLocation: 0
    m_strength: 1
    m_seaLevel: 12.5
    m_maxWorldHeight: 112.8611
    m_minWorldHeight: 18.109652
    m_xOffSet: 0
    m_zOffSet: 0
    m_xOffSetScalar: 0
    m_zOffSetScalar: 0
    m_imageMaskTextureGUID: 
    m_imageMaskFilterMode: 0
    m_imageMaskColorSelectionColor: {r: 1, g: 1, b: 1, a: 1}
    m_imageMaskColorSelectionAccuracy: 0.5
    m_distanceMaskCurve:
      serializedVersion: 2
      m_Curve:
      - serializedVersion: 3
        time: 0
        value: 1
        inSlope: 0
        outSlope: 0
        tangentMode: 0
        weightedMode: 0
        inWeight: 0
        outWeight: 0
      - serializedVersion: 3
        time: 1
        value: 0
        inSlope: 0
        outSlope: 0
        tangentMode: 0
        weightedMode: 0
        inWeight: 0
        outWeight: 0
      m_PreInfinity: 2
      m_PostInfinity: 2
      m_RotationOrder: 4
    m_heightMaskCurve:
      serializedVersion: 2
      m_Curve:
      - serializedVersion: 3
        time: 0
        value: 0
        inSlope: 0
        outSlope: 0
        tangentMode: 0
        weightedMode: 0
        inWeight: 0
        outWeight: 0
      - serializedVersion: 3
        time: 1
        value: 1
        inSlope: 0
        outSlope: 0
        tangentMode: 0
        weightedMode: 0
        inWeight: 0
        outWeight: 0
      m_PreInfinity: 2
      m_PostInfinity: 2
      m_RotationOrder: 4
    m_strengthTransformCurve:
      serializedVersion: 2
      m_Curve:
      - serializedVersion: 3
        time: 0
        value: 1
        inSlope: -1
        outSlope: -1
        tangentMode: 0
        weightedMode: 0
        inWeight: -0
        outWeight: -0
      - serializedVersion: 3
        time: 0.518639
        value: 0.4800459
        inSlope: -1
        outSlope: -1
        tangentMode: 0
        weightedMode: 0
        inWeight: -0.33333334
        outWeight: -0.33333334
      - serializedVersion: 3
        time: 1
        value: 0
        inSlope: -1
        outSlope: -1
        tangentMode: 0
        weightedMode: 0
        inWeight: -0
        outWeight: -0
      m_PreInfinity: 2
      m_PostInfinity: 2
      m_RotationOrder: 4
    m_heightMaskType: 1
    m_heightMaskUnit: 0
    m_relativeHeightMin: -10
    m_relativeHeightMax: 10
    m_absoluteHeightMin: 2.5
    m_absoluteHeightMax: 22.5
    m_seaLevelRelativeHeightMin: -109876.55
    m_seaLevelRelativeHeightMax: 109876.55
    tree1active: 0
    tree2active: 0
    m_slopeMaskCurve:
      serializedVersion: 2
      m_Curve:
      - serializedVersion: 3
        time: 0
        value: 1
        inSlope: 0
        outSlope: 0
        tangentMode: 0
        weightedMode: 0
        inWeight: 0
        outWeight: 0
      - serializedVersion: 3
        time: 1
        value: 0
        inSlope: 0
        outSlope: 0
        tangentMode: 0
        weightedMode: 0
        inWeight: 0
        outWeight: 0
      m_PreInfinity: 2
      m_PostInfinity: 2
      m_RotationOrder: 4
    m_slopeMin: 0
    m_slopeMax: 0.1
    m_distanceMaskAxes: 0
    m_gaiaNoiseSettings:
      m_translation: {x: 0, y: 0, z: 0}
      m_rotation: {x: 0, y: 0, z: 0}
      m_scale: {x: 10, y: 1, z: 10}
      m_noiseTypeName: Perlin
      m_noiseTypeParams: 
      m_fractalTypeName: Fbm
      m_fractalTypeParams: 
      m_warpEnabled: 0
      m_warpIterations: 0
      m_warpStrength: 0
      m_warpOffset: {x: 0, y: 0, z: 0, w: 0}
    m_noiseSettings: {fileID: 0}
    m_noiseToolSettings:
      worldHeightRemap: {x: 0, y: 0}
      coordSpace: 0
      noiseAssetGUID: 
    m_ShowNoiseTransformSettings: 0
    m_ShowNoisePreviewTexture: 1
    m_noisePreviewTextureLocked: 0
    m_ShowNoiseTypeSettings: 0
    m_scaleNoiseToTerrainSize: 0
    m_collisionMaskExpanded: 1
    m_collisionMasks: []
    m_erosionMaskOutput: 0
    m_erosionSimScale: 9
    m_erosionHydroTimeDelta: 0.05
    m_erosionHydroIterations: 15
    m_erosionThermalTimeDelta: 0.01
    m_erosionThermalIterations: 80
    m_erosionThermalReposeAngle: 80
    m_erosionPrecipRate: 0.5
    m_erosionEvaporationRate: 0.5
    m_erosionFlowRate: 0.5
    m_erosionSedimentCapacity: 0.5
    m_erosionSedimentDepositRate: 0.8
    m_erosionSedimentDissolveRate: 0.5
    m_erosionRiverBankDepositRate: 7
    m_erosionRiverBankDissolveRate: 5
    m_erosionRiverBedDepositRate: 5
    m_erosionRiverBedDissolveRate: 5
    m_erosionShowAdvancedUI: 0
    m_erosionShowThermalUI: 0
    m_erosionShowWaterUI: 0
    m_erosionShowSedimentUI: 0
    m_erosionShowRiverBankUI: 0
    m_smoothVerticality: 0
    m_smoothBlurRadius: 1
    m_textureMaskSpawnRuleGUID: 1f9b637c-940a-4aef-a7b4-b1c14a149fd6
    m_concavity: 1
    m_concavityFeatureSize: 10
    m_foldedOut: 0
    m_selectedWorldBiomeMaskGUID: 
    m_growAndShrinkValue: 0
    m_globalSpawnerMaskStackRT: {fileID: 0}
  - m_active: 1
    m_invert: 0
    m_hasErrors: 0
    m_influence: 0
    m_operation: 9
    m_blendMode: 0
    m_imageMaskLocation: 0
    m_strength: 1
    m_seaLevel: 12.5
    m_maxWorldHeight: 112.8611
    m_minWorldHeight: 18.109652
    m_xOffSet: 0
    m_zOffSet: 0
    m_xOffSetScalar: 0
    m_zOffSetScalar: 0
    m_imageMaskTextureGUID: 
    m_imageMaskFilterMode: 0
    m_imageMaskColorSelectionColor: {r: 1, g: 1, b: 1, a: 1}
    m_imageMaskColorSelectionAccuracy: 0.5
    m_distanceMaskCurve:
      serializedVersion: 2
      m_Curve:
      - serializedVersion: 3
        time: 0
        value: 1
        inSlope: 0
        outSlope: 0
        tangentMode: 0
        weightedMode: 0
        inWeight: 0
        outWeight: 0
      - serializedVersion: 3
        time: 1
        value: 0
        inSlope: 0
        outSlope: 0
        tangentMode: 0
        weightedMode: 0
        inWeight: 0
        outWeight: 0
      m_PreInfinity: 2
      m_PostInfinity: 2
      m_RotationOrder: 4
    m_heightMaskCurve:
      serializedVersion: 2
      m_Curve:
      - serializedVersion: 3
        time: 0
        value: 0
        inSlope: 0
        outSlope: 0
        tangentMode: 0
        weightedMode: 0
        inWeight: 0
        outWeight: 0
      - serializedVersion: 3
        time: 1
        value: 1
        inSlope: 0
        outSlope: 0
        tangentMode: 0
        weightedMode: 0
        inWeight: 0
        outWeight: 0
      m_PreInfinity: 2
      m_PostInfinity: 2
      m_RotationOrder: 4
    m_strengthTransformCurve:
      serializedVersion: 2
      m_Curve:
      - serializedVersion: 3
        time: 0
        value: 1
        inSlope: -1
        outSlope: -1
        tangentMode: 0
        weightedMode: 0
        inWeight: -0
        outWeight: -0
      - serializedVersion: 3
        time: 0.518639
        value: 0.4800459
        inSlope: -1
        outSlope: -1
        tangentMode: 0
        weightedMode: 0
        inWeight: -0.33333334
        outWeight: -0.33333334
      - serializedVersion: 3
        time: 1
        value: 0
        inSlope: -1
        outSlope: -1
        tangentMode: 0
        weightedMode: 0
        inWeight: -0
        outWeight: -0
      m_PreInfinity: 2
      m_PostInfinity: 2
      m_RotationOrder: 4
    m_heightMaskType: 1
    m_heightMaskUnit: 0
    m_relativeHeightMin: -10
    m_relativeHeightMax: 10
    m_absoluteHeightMin: 2.5
    m_absoluteHeightMax: 22.5
    m_seaLevelRelativeHeightMin: -109876.55
    m_seaLevelRelativeHeightMax: 109876.55
    tree1active: 0
    tree2active: 0
    m_slopeMaskCurve:
      serializedVersion: 2
      m_Curve:
      - serializedVersion: 3
        time: 0
        value: 1
        inSlope: 0
        outSlope: 0
        tangentMode: 0
        weightedMode: 0
        inWeight: 0
        outWeight: 0
      - serializedVersion: 3
        time: 1
        value: 0
        inSlope: 0
        outSlope: 0
        tangentMode: 0
        weightedMode: 0
        inWeight: 0
        outWeight: 0
      m_PreInfinity: 2
      m_PostInfinity: 2
      m_RotationOrder: 4
    m_slopeMin: 0
    m_slopeMax: 0.1
    m_distanceMaskAxes: 0
    m_gaiaNoiseSettings:
      m_translation: {x: 0, y: 0, z: 0}
      m_rotation: {x: 0, y: 0, z: 0}
      m_scale: {x: 10, y: 1, z: 10}
      m_noiseTypeName: Perlin
      m_noiseTypeParams: 
      m_fractalTypeName: Fbm
      m_fractalTypeParams: 
      m_warpEnabled: 0
      m_warpIterations: 0
      m_warpStrength: 0
      m_warpOffset: {x: 0, y: 0, z: 0, w: 0}
    m_noiseSettings: {fileID: 0}
    m_noiseToolSettings:
      worldHeightRemap: {x: 0, y: 0}
      coordSpace: 0
      noiseAssetGUID: 
    m_ShowNoiseTransformSettings: 0
    m_ShowNoisePreviewTexture: 1
    m_noisePreviewTextureLocked: 0
    m_ShowNoiseTypeSettings: 0
    m_scaleNoiseToTerrainSize: 0
    m_collisionMaskExpanded: 1
    m_collisionMasks: []
    m_erosionMaskOutput: 0
    m_erosionSimScale: 9
    m_erosionHydroTimeDelta: 0.05
    m_erosionHydroIterations: 15
    m_erosionThermalTimeDelta: 0.01
    m_erosionThermalIterations: 80
    m_erosionThermalReposeAngle: 80
    m_erosionPrecipRate: 0.5
    m_erosionEvaporationRate: 0.5
    m_erosionFlowRate: 0.5
    m_erosionSedimentCapacity: 0.5
    m_erosionSedimentDepositRate: 0.8
    m_erosionSedimentDissolveRate: 0.5
    m_erosionRiverBankDepositRate: 7
    m_erosionRiverBankDissolveRate: 5
    m_erosionRiverBedDepositRate: 5
    m_erosionRiverBedDissolveRate: 5
    m_erosionShowAdvancedUI: 0
    m_erosionShowThermalUI: 0
    m_erosionShowWaterUI: 0
    m_erosionShowSedimentUI: 0
    m_erosionShowRiverBankUI: 0
    m_smoothVerticality: 0
    m_smoothBlurRadius: 1
    m_textureMaskSpawnRuleGUID: 35eea95a-0df2-48de-887f-715cb9a89894
    m_concavity: 1
    m_concavityFeatureSize: 10
    m_foldedOut: 0
    m_selectedWorldBiomeMaskGUID: 
    m_growAndShrinkValue: 0
    m_globalSpawnerMaskStackRT: {fileID: 0}
  - m_active: 1
    m_invert: 0
    m_hasErrors: 0
    m_influence: 0
    m_operation: 2
    m_blendMode: 0
    m_imageMaskLocation: 0
    m_strength: 1
    m_seaLevel: 12.5
    m_maxWorldHeight: 112.8611
    m_minWorldHeight: 18.109652
    m_xOffSet: 0
    m_zOffSet: 0
    m_xOffSetScalar: 0
    m_zOffSetScalar: 0
    m_imageMaskTextureGUID: 
    m_imageMaskFilterMode: 0
    m_imageMaskColorSelectionColor: {r: 1, g: 1, b: 1, a: 1}
    m_imageMaskColorSelectionAccuracy: 0.5
    m_distanceMaskCurve:
      serializedVersion: 2
      m_Curve:
      - serializedVersion: 3
        time: 0
        value: 1
        inSlope: 0
        outSlope: 0
        tangentMode: 0
        weightedMode: 0
        inWeight: 0
        outWeight: 0
      - serializedVersion: 3
        time: 1
        value: 0
        inSlope: 0
        outSlope: 0
        tangentMode: 0
        weightedMode: 0
        inWeight: 0
        outWeight: 0
      m_PreInfinity: 2
      m_PostInfinity: 2
      m_RotationOrder: 4
    m_heightMaskCurve:
      serializedVersion: 2
      m_Curve:
      - serializedVersion: 3
        time: -0.0068768263
        value: 1.0033789
        inSlope: 0
        outSlope: 0
        tangentMode: 0
        weightedMode: 0
        inWeight: 0.33333334
        outWeight: 0.33333334
      - serializedVersion: 3
        time: 0.78993005
        value: 1.000756
        inSlope: 0
        outSlope: 0
        tangentMode: 0
        weightedMode: 0
        inWeight: 0.062909804
        outWeight: 0.33333334
      - serializedVersion: 3
        time: 1
        value: 0.004219413
        inSlope: 0
        outSlope: 0
        tangentMode: 0
        weightedMode: 0
        inWeight: 0
        outWeight: 0
      m_PreInfinity: 2
      m_PostInfinity: 2
      m_RotationOrder: 4
    m_strengthTransformCurve:
      serializedVersion: 2
      m_Curve:
      - serializedVersion: 3
        time: 0
        value: 0
        inSlope: 1
        outSlope: 1
        tangentMode: 0
        weightedMode: 0
        inWeight: 0
        outWeight: 0
      - serializedVersion: 3
        time: 1
        value: 1
        inSlope: 1
        outSlope: 1
        tangentMode: 0
        weightedMode: 0
        inWeight: 0
        outWeight: 0
      m_PreInfinity: 2
      m_PostInfinity: 2
      m_RotationOrder: 4
    m_heightMaskType: 1
    m_heightMaskUnit: 0
    m_relativeHeightMin: 0
    m_relativeHeightMax: 44
    m_absoluteHeightMin: 12.5
    m_absoluteHeightMax: 56.5
    m_seaLevelRelativeHeightMin: -109876.55
    m_seaLevelRelativeHeightMax: 109876.55
    tree1active: 0
    tree2active: 0
    m_slopeMaskCurve:
      serializedVersion: 2
      m_Curve:
      - serializedVersion: 3
        time: 0
        value: 1
        inSlope: 0
        outSlope: 0
        tangentMode: 0
        weightedMode: 0
        inWeight: 0
        outWeight: 0
      - serializedVersion: 3
        time: 1
        value: 0
        inSlope: 0
        outSlope: 0
        tangentMode: 0
        weightedMode: 0
        inWeight: 0
        outWeight: 0
      m_PreInfinity: 2
      m_PostInfinity: 2
      m_RotationOrder: 4
    m_slopeMin: 0
    m_slopeMax: 0.1
    m_distanceMaskAxes: 0
    m_gaiaNoiseSettings:
      m_translation: {x: 0, y: 0, z: 0}
      m_rotation: {x: 0, y: 0, z: 0}
      m_scale: {x: 10, y: 1, z: 10}
      m_noiseTypeName: Perlin
      m_noiseTypeParams: 
      m_fractalTypeName: Fbm
      m_fractalTypeParams: 
      m_warpEnabled: 0
      m_warpIterations: 0
      m_warpStrength: 0
      m_warpOffset: {x: 0, y: 0, z: 0, w: 0}
    m_noiseSettings: {fileID: 0}
    m_noiseToolSettings:
      worldHeightRemap: {x: 0, y: 0}
      coordSpace: 0
      noiseAssetGUID: 
    m_ShowNoiseTransformSettings: 0
    m_ShowNoisePreviewTexture: 1
    m_noisePreviewTextureLocked: 0
    m_ShowNoiseTypeSettings: 0
    m_scaleNoiseToTerrainSize: 0
    m_collisionMaskExpanded: 1
    m_collisionMasks: []
    m_erosionMaskOutput: 0
    m_erosionSimScale: 9
    m_erosionHydroTimeDelta: 0.05
    m_erosionHydroIterations: 15
    m_erosionThermalTimeDelta: 0.01
    m_erosionThermalIterations: 80
    m_erosionThermalReposeAngle: 80
    m_erosionPrecipRate: 0.5
    m_erosionEvaporationRate: 0.5
    m_erosionFlowRate: 0.5
    m_erosionSedimentCapacity: 0.5
    m_erosionSedimentDepositRate: 0.8
    m_erosionSedimentDissolveRate: 0.5
    m_erosionRiverBankDepositRate: 7
    m_erosionRiverBankDissolveRate: 5
    m_erosionRiverBedDepositRate: 5
    m_erosionRiverBedDissolveRate: 5
    m_erosionShowAdvancedUI: 0
    m_erosionShowThermalUI: 0
    m_erosionShowWaterUI: 0
    m_erosionShowSedimentUI: 0
    m_erosionShowRiverBankUI: 0
    m_smoothVerticality: 0
    m_smoothBlurRadius: 1
    m_textureMaskSpawnRuleGUID: 
    m_concavity: 1
    m_concavityFeatureSize: 10
    m_foldedOut: 0
    m_selectedWorldBiomeMaskGUID: 
    m_growAndShrinkValue: 0
    m_globalSpawnerMaskStackRT: {fileID: 0}
  m_clearSpawnsToggleTrees: 0
  m_clearSpawnsToggleDetails: 0
  m_clearSpawnsToggleGOs: 0
  m_clearSpawnsToggleSpawnExtensions: 0
  m_clearSpawnsToggleProbes: 0
  m_clearSpawnsFor: 1
  m_clearSpawnsFrom: 0
  m_lastGUIDSaved: 37acf57db6e69424fb7cb8b5727c8858
