%YAML 1.1
%TAG !u! tag:unity3d.com,2011:
--- !u!1953259897 &8574412962073106934
TerrainLayer:
  m_ObjectHideFlags: 0
  m_CorrespondingSourceObject: {fileID: 0}
  m_PrefabInstance: {fileID: 0}
  m_PrefabAsset: {fileID: 0}
  m_Name: Gaia_-20210118-173911_2
  m_DiffuseTexture: {fileID: 2800000, guid: 8a7099f7a8c2b164c98d85452d5c6437, type: 3}
  m_NormalMapTexture: {fileID: 2800000, guid: b7845ca166ee0064abf1cc670193440f, type: 3}
  m_MaskMapTexture: {fileID: 2800000, guid: d3ab87e2f1c77a7419fbc9f89b4c0252, type: 3}
  m_TileSize: {x: 6, y: 6}
  m_TileOffset: {x: 0, y: 0}
  m_Specular: {r: 0, g: 0, b: 0, a: 0}
  m_Metallic: 0.5
  m_Smoothness: 0.2
  m_NormalScale: 1
  m_DiffuseRemapMin: {x: 0, y: 0, z: 0, w: 0}
  m_DiffuseRemapMax: {x: 1, y: 1, z: 1, w: 1}
  m_MaskMapRemapMin: {x: 0, y: 0, z: 0, w: 0}
  m_MaskMapRemapMax: {x: 1, y: 1, z: 1, w: 1}
