%YAML 1.1
%TAG !u! tag:unity3d.com,2011:
--- !u!1 &422598816318891058
GameObject:
  m_ObjectHideFlags: 0
  m_CorrespondingSourceObject: {fileID: 0}
  m_PrefabInstance: {fileID: 0}
  m_PrefabAsset: {fileID: 0}
  serializedVersion: 6
  m_Component:
  - component: {fileID: 3204657406612214240}
  - component: {fileID: 7512325145832925923}
  - component: {fileID: 2201604067617381996}
  m_Layer: 13
  m_Name: PW_Tree_Oak_Small_01_LOD0
  m_TagString: Untagged
  m_Icon: {fileID: 0}
  m_NavMeshLayer: 0
  m_StaticEditorFlags: 90
  m_IsActive: 1
--- !u!4 &3204657406612214240
Transform:
  m_ObjectHideFlags: 0
  m_CorrespondingSourceObject: {fileID: 0}
  m_PrefabInstance: {fileID: 0}
  m_PrefabAsset: {fileID: 0}
  m_GameObject: {fileID: 422598816318891058}
  m_LocalRotation: {x: 0, y: -0, z: -0, w: 1}
  m_LocalPosition: {x: -0, y: 0, z: 0}
  m_LocalScale: {x: 1, y: 1, z: 1}
  m_Children: []
  m_Father: {fileID: 1787771092850760217}
  m_RootOrder: 0
  m_LocalEulerAnglesHint: {x: 0, y: 0, z: 0}
--- !u!33 &7512325145832925923
MeshFilter:
  m_ObjectHideFlags: 0
  m_CorrespondingSourceObject: {fileID: 0}
  m_PrefabInstance: {fileID: 0}
  m_PrefabAsset: {fileID: 0}
  m_GameObject: {fileID: 422598816318891058}
  m_Mesh: {fileID: -7373319364698180549, guid: e15b13e1ba6071e428050c6b2b095855, type: 3}
--- !u!23 &2201604067617381996
MeshRenderer:
  m_ObjectHideFlags: 0
  m_CorrespondingSourceObject: {fileID: 0}
  m_PrefabInstance: {fileID: 0}
  m_PrefabAsset: {fileID: 0}
  m_GameObject: {fileID: 422598816318891058}
  m_Enabled: 1
  m_CastShadows: 1
  m_ReceiveShadows: 1
  m_DynamicOccludee: 1
  m_MotionVectors: 1
  m_LightProbeUsage: 1
  m_ReflectionProbeUsage: 1
  m_RayTracingMode: 2
  m_RayTraceProcedural: 0
  m_RenderingLayerMask: 1
  m_RendererPriority: 0
  m_Materials:
  - {fileID: 2100000, guid: 6ecf4096d0862d646aacba2e06ed75d6, type: 2}
  - {fileID: 2100000, guid: ed9d2cc86b8e5154bb04260882505cbe, type: 2}
  m_StaticBatchInfo:
    firstSubMesh: 0
    subMeshCount: 0
  m_StaticBatchRoot: {fileID: 0}
  m_ProbeAnchor: {fileID: 0}
  m_LightProbeVolumeOverride: {fileID: 0}
  m_ScaleInLightmap: 1
  m_ReceiveGI: 1
  m_PreserveUVs: 0
  m_IgnoreNormalsForChartDetection: 0
  m_ImportantGI: 0
  m_StitchLightmapSeams: 1
  m_SelectedEditorRenderState: 3
  m_MinimumChartSize: 4
  m_AutoUVMaxDistance: 0.5
  m_AutoUVMaxAngle: 89
  m_LightmapParameters: {fileID: 0}
  m_SortingLayerID: 0
  m_SortingLayer: 0
  m_SortingOrder: 0
  m_AdditionalVertexStreams: {fileID: 0}
--- !u!1 &3356353315087722506
GameObject:
  m_ObjectHideFlags: 0
  m_CorrespondingSourceObject: {fileID: 0}
  m_PrefabInstance: {fileID: 0}
  m_PrefabAsset: {fileID: 0}
  serializedVersion: 6
  m_Component:
  - component: {fileID: 1787771092850760217}
  - component: {fileID: 1206101309386575069}
  - component: {fileID: 4651258853867504055}
  m_Layer: 13
  m_Name: PW_Tree_Oak_Small_01
  m_TagString: PW - Nature
  m_Icon: {fileID: 0}
  m_NavMeshLayer: 0
  m_StaticEditorFlags: 90
  m_IsActive: 1
--- !u!4 &1787771092850760217
Transform:
  m_ObjectHideFlags: 0
  m_CorrespondingSourceObject: {fileID: 0}
  m_PrefabInstance: {fileID: 0}
  m_PrefabAsset: {fileID: 0}
  m_GameObject: {fileID: 3356353315087722506}
  m_LocalRotation: {x: 0, y: 0, z: 0, w: 1}
  m_LocalPosition: {x: -21.782145, y: -1.2784779e-18, z: 0.057577524}
  m_LocalScale: {x: 1, y: 1, z: 1}
  m_Children:
  - {fileID: 3204657406612214240}
  - {fileID: 7077709077572258259}
  - {fileID: 6850506509358986884}
  m_Father: {fileID: 0}
  m_RootOrder: 0
  m_LocalEulerAnglesHint: {x: 0, y: 0, z: 0}
--- !u!205 &1206101309386575069
LODGroup:
  m_ObjectHideFlags: 0
  m_CorrespondingSourceObject: {fileID: 0}
  m_PrefabInstance: {fileID: 0}
  m_PrefabAsset: {fileID: 0}
  m_GameObject: {fileID: 3356353315087722506}
  serializedVersion: 2
  m_LocalReferencePoint: {x: 0.024712324, y: 1.4651912, z: -0.023019075}
  m_Size: 3.079759
  m_FadeMode: 0
  m_AnimateCrossFading: 1
  m_LastLODIsBillboard: 0
  m_LODs:
  - screenRelativeHeight: 0.84872353
    fadeTransitionWidth: 0
    renderers:
    - renderer: {fileID: 2201604067617381996}
  - screenRelativeHeight: 0.3275247
    fadeTransitionWidth: 0
    renderers:
    - renderer: {fileID: 2239207300291958804}
  - screenRelativeHeight: 0.015174167
    fadeTransitionWidth: 0
    renderers:
    - renderer: {fileID: 5408560778703362592}
  m_Enabled: 1
--- !u!136 &4651258853867504055
CapsuleCollider:
  m_ObjectHideFlags: 0
  m_CorrespondingSourceObject: {fileID: 0}
  m_PrefabInstance: {fileID: 0}
  m_PrefabAsset: {fileID: 0}
  m_GameObject: {fileID: 3356353315087722506}
  m_Material: {fileID: 0}
  m_IsTrigger: 0
  m_Enabled: 1
  m_Radius: 0.1
  m_Height: 3.16888
  m_Direction: 1
  m_Center: {x: 0, y: 1.315726, z: 0}
--- !u!1 &7060173420818576825
GameObject:
  m_ObjectHideFlags: 0
  m_CorrespondingSourceObject: {fileID: 0}
  m_PrefabInstance: {fileID: 0}
  m_PrefabAsset: {fileID: 0}
  serializedVersion: 6
  m_Component:
  - component: {fileID: 7077709077572258259}
  - component: {fileID: 7438178996225188630}
  - component: {fileID: 2239207300291958804}
  m_Layer: 13
  m_Name: PW_Tree_Oak_Small_01_LOD1
  m_TagString: Untagged
  m_Icon: {fileID: 0}
  m_NavMeshLayer: 0
  m_StaticEditorFlags: 90
  m_IsActive: 1
--- !u!4 &7077709077572258259
Transform:
  m_ObjectHideFlags: 0
  m_CorrespondingSourceObject: {fileID: 0}
  m_PrefabInstance: {fileID: 0}
  m_PrefabAsset: {fileID: 0}
  m_GameObject: {fileID: 7060173420818576825}
  m_LocalRotation: {x: 0, y: -0, z: -0, w: 1}
  m_LocalPosition: {x: -0, y: 0, z: 0}
  m_LocalScale: {x: 1, y: 1, z: 1}
  m_Children: []
  m_Father: {fileID: 1787771092850760217}
  m_RootOrder: 1
  m_LocalEulerAnglesHint: {x: 0, y: 0, z: 0}
--- !u!33 &7438178996225188630
MeshFilter:
  m_ObjectHideFlags: 0
  m_CorrespondingSourceObject: {fileID: 0}
  m_PrefabInstance: {fileID: 0}
  m_PrefabAsset: {fileID: 0}
  m_GameObject: {fileID: 7060173420818576825}
  m_Mesh: {fileID: -4567565228703199720, guid: e15b13e1ba6071e428050c6b2b095855, type: 3}
--- !u!23 &2239207300291958804
MeshRenderer:
  m_ObjectHideFlags: 0
  m_CorrespondingSourceObject: {fileID: 0}
  m_PrefabInstance: {fileID: 0}
  m_PrefabAsset: {fileID: 0}
  m_GameObject: {fileID: 7060173420818576825}
  m_Enabled: 1
  m_CastShadows: 1
  m_ReceiveShadows: 1
  m_DynamicOccludee: 1
  m_MotionVectors: 1
  m_LightProbeUsage: 1
  m_ReflectionProbeUsage: 1
  m_RayTracingMode: 2
  m_RayTraceProcedural: 0
  m_RenderingLayerMask: 1
  m_RendererPriority: 0
  m_Materials:
  - {fileID: 2100000, guid: 6ecf4096d0862d646aacba2e06ed75d6, type: 2}
  - {fileID: 2100000, guid: ed9d2cc86b8e5154bb04260882505cbe, type: 2}
  m_StaticBatchInfo:
    firstSubMesh: 0
    subMeshCount: 0
  m_StaticBatchRoot: {fileID: 0}
  m_ProbeAnchor: {fileID: 0}
  m_LightProbeVolumeOverride: {fileID: 0}
  m_ScaleInLightmap: 1
  m_ReceiveGI: 1
  m_PreserveUVs: 0
  m_IgnoreNormalsForChartDetection: 0
  m_ImportantGI: 0
  m_StitchLightmapSeams: 1
  m_SelectedEditorRenderState: 3
  m_MinimumChartSize: 4
  m_AutoUVMaxDistance: 0.5
  m_AutoUVMaxAngle: 89
  m_LightmapParameters: {fileID: 0}
  m_SortingLayerID: 0
  m_SortingLayer: 0
  m_SortingOrder: 0
  m_AdditionalVertexStreams: {fileID: 0}
--- !u!1001 &6173969235675612902
PrefabInstance:
  m_ObjectHideFlags: 0
  serializedVersion: 2
  m_Modification:
    m_TransformParent: {fileID: 1787771092850760217}
    m_Modifications:
    - target: {fileID: 774543342208118882, guid: 3524840cdd82b85429a0f358d632410e,
        type: 3}
      propertyPath: m_RootOrder
      value: 2
      objectReference: {fileID: 0}
    - target: {fileID: 774543342208118882, guid: 3524840cdd82b85429a0f358d632410e,
        type: 3}
      propertyPath: m_LocalPosition.x
      value: 0
      objectReference: {fileID: 0}
    - target: {fileID: 774543342208118882, guid: 3524840cdd82b85429a0f358d632410e,
        type: 3}
      propertyPath: m_LocalPosition.y
      value: 0
      objectReference: {fileID: 0}
    - target: {fileID: 774543342208118882, guid: 3524840cdd82b85429a0f358d632410e,
        type: 3}
      propertyPath: m_LocalPosition.z
      value: 0
      objectReference: {fileID: 0}
    - target: {fileID: 774543342208118882, guid: 3524840cdd82b85429a0f358d632410e,
        type: 3}
      propertyPath: m_LocalRotation.w
      value: 1
      objectReference: {fileID: 0}
    - target: {fileID: 774543342208118882, guid: 3524840cdd82b85429a0f358d632410e,
        type: 3}
      propertyPath: m_LocalRotation.x
      value: 0
      objectReference: {fileID: 0}
    - target: {fileID: 774543342208118882, guid: 3524840cdd82b85429a0f358d632410e,
        type: 3}
      propertyPath: m_LocalRotation.y
      value: 0
      objectReference: {fileID: 0}
    - target: {fileID: 774543342208118882, guid: 3524840cdd82b85429a0f358d632410e,
        type: 3}
      propertyPath: m_LocalRotation.z
      value: 0
      objectReference: {fileID: 0}
    - target: {fileID: 774543342208118882, guid: 3524840cdd82b85429a0f358d632410e,
        type: 3}
      propertyPath: m_LocalEulerAnglesHint.x
      value: 0
      objectReference: {fileID: 0}
    - target: {fileID: 774543342208118882, guid: 3524840cdd82b85429a0f358d632410e,
        type: 3}
      propertyPath: m_LocalEulerAnglesHint.y
      value: 0
      objectReference: {fileID: 0}
    - target: {fileID: 774543342208118882, guid: 3524840cdd82b85429a0f358d632410e,
        type: 3}
      propertyPath: m_LocalEulerAnglesHint.z
      value: 0
      objectReference: {fileID: 0}
    - target: {fileID: 4100761697609765004, guid: 3524840cdd82b85429a0f358d632410e,
        type: 3}
      propertyPath: m_Name
      value: PW_Tree_Oak_Small_01_LOD2
      objectReference: {fileID: 0}
    - target: {fileID: 4100761697609765004, guid: 3524840cdd82b85429a0f358d632410e,
        type: 3}
      propertyPath: m_Layer
      value: 13
      objectReference: {fileID: 0}
    m_RemovedComponents: []
  m_SourcePrefab: {fileID: 100100000, guid: 3524840cdd82b85429a0f358d632410e, type: 3}
--- !u!4 &6850506509358986884 stripped
Transform:
  m_CorrespondingSourceObject: {fileID: 774543342208118882, guid: 3524840cdd82b85429a0f358d632410e,
    type: 3}
  m_PrefabInstance: {fileID: 6173969235675612902}
  m_PrefabAsset: {fileID: 0}
--- !u!23 &5408560778703362592 stripped
MeshRenderer:
  m_CorrespondingSourceObject: {fileID: 2207125626834115782, guid: 3524840cdd82b85429a0f358d632410e,
    type: 3}
  m_PrefabInstance: {fileID: 6173969235675612902}
  m_PrefabAsset: {fileID: 0}
