%YAML 1.1
%TAG !u! tag:unity3d.com,2011:
--- !u!1 &1120019319886688430
GameObject:
  m_ObjectHideFlags: 0
  m_CorrespondingSourceObject: {fileID: 0}
  m_PrefabInstance: {fileID: 0}
  m_PrefabAsset: {fileID: 0}
  serializedVersion: 6
  m_Component:
  - component: {fileID: 4165902754738160317}
  - component: {fileID: 3576945442295338105}
  m_Layer: 13
  m_Name: PW_Plant_Fern_Realistic_02
  m_TagString: PW - Nature
  m_Icon: {fileID: 0}
  m_NavMeshLayer: 0
  m_StaticEditorFlags: 82
  m_IsActive: 1
--- !u!4 &4165902754738160317
Transform:
  m_ObjectHideFlags: 0
  m_CorrespondingSourceObject: {fileID: 0}
  m_PrefabInstance: {fileID: 0}
  m_PrefabAsset: {fileID: 0}
  m_GameObject: {fileID: 1120019319886688430}
  m_LocalRotation: {x: 0, y: 0, z: 0, w: 1}
  m_LocalPosition: {x: -15.658459, y: 0.04, z: -10.35}
  m_LocalScale: {x: 1, y: 1, z: 1}
  m_Children:
  - {fileID: 3033408033108101657}
  - {fileID: 5801928452118708965}
  - {fileID: 3142413423422827184}
  m_Father: {fileID: 0}
  m_RootOrder: 0
  m_LocalEulerAnglesHint: {x: 0, y: 0, z: 0}
--- !u!205 &3576945442295338105
LODGroup:
  m_ObjectHideFlags: 0
  m_CorrespondingSourceObject: {fileID: 0}
  m_PrefabInstance: {fileID: 0}
  m_PrefabAsset: {fileID: 0}
  m_GameObject: {fileID: 1120019319886688430}
  serializedVersion: 2
  m_LocalReferencePoint: {x: -0.030794144, y: 0.46786055, z: 0.04433167}
  m_Size: 1.8695598
  m_FadeMode: 0
  m_AnimateCrossFading: 1
  m_LastLODIsBillboard: 0
  m_LODs:
  - screenRelativeHeight: 0.70340055
    fadeTransitionWidth: 0
    renderers:
    - renderer: {fileID: 4418165198601291909}
  - screenRelativeHeight: 0.19040625
    fadeTransitionWidth: 0
    renderers:
    - renderer: {fileID: 4166884702367753285}
  - screenRelativeHeight: 0.022951249
    fadeTransitionWidth: 0
    renderers:
    - renderer: {fileID: 9062377126929282766}
  m_Enabled: 1
--- !u!1 &4656165717129399275
GameObject:
  m_ObjectHideFlags: 0
  m_CorrespondingSourceObject: {fileID: 0}
  m_PrefabInstance: {fileID: 0}
  m_PrefabAsset: {fileID: 0}
  serializedVersion: 6
  m_Component:
  - component: {fileID: 5801928452118708965}
  - component: {fileID: 3957256116185863806}
  - component: {fileID: 4166884702367753285}
  m_Layer: 13
  m_Name: PW_Plant_Fern_Realistic_02_LOD1
  m_TagString: Untagged
  m_Icon: {fileID: 0}
  m_NavMeshLayer: 0
  m_StaticEditorFlags: 82
  m_IsActive: 1
--- !u!4 &5801928452118708965
Transform:
  m_ObjectHideFlags: 0
  m_CorrespondingSourceObject: {fileID: 0}
  m_PrefabInstance: {fileID: 0}
  m_PrefabAsset: {fileID: 0}
  m_GameObject: {fileID: 4656165717129399275}
  m_LocalRotation: {x: 0, y: -0, z: -0, w: 1}
  m_LocalPosition: {x: -0, y: 0, z: 0}
  m_LocalScale: {x: 1, y: 1, z: 1}
  m_Children: []
  m_Father: {fileID: 4165902754738160317}
  m_RootOrder: 1
  m_LocalEulerAnglesHint: {x: 0, y: 0, z: 0}
--- !u!33 &3957256116185863806
MeshFilter:
  m_ObjectHideFlags: 0
  m_CorrespondingSourceObject: {fileID: 0}
  m_PrefabInstance: {fileID: 0}
  m_PrefabAsset: {fileID: 0}
  m_GameObject: {fileID: 4656165717129399275}
  m_Mesh: {fileID: 2182876407381190701, guid: a9683b1d7f7bba742837b4e84c513b74, type: 3}
--- !u!23 &4166884702367753285
MeshRenderer:
  m_ObjectHideFlags: 0
  m_CorrespondingSourceObject: {fileID: 0}
  m_PrefabInstance: {fileID: 0}
  m_PrefabAsset: {fileID: 0}
  m_GameObject: {fileID: 4656165717129399275}
  m_Enabled: 1
  m_CastShadows: 1
  m_ReceiveShadows: 1
  m_DynamicOccludee: 1
  m_MotionVectors: 1
  m_LightProbeUsage: 1
  m_ReflectionProbeUsage: 1
  m_RayTracingMode: 2
  m_RayTraceProcedural: 0
  m_RenderingLayerMask: 1
  m_RendererPriority: 0
  m_Materials:
  - {fileID: 2100000, guid: ffd66850ca8278f4c88b7a20b4bcba76, type: 2}
  m_StaticBatchInfo:
    firstSubMesh: 0
    subMeshCount: 0
  m_StaticBatchRoot: {fileID: 0}
  m_ProbeAnchor: {fileID: 0}
  m_LightProbeVolumeOverride: {fileID: 0}
  m_ScaleInLightmap: 1
  m_ReceiveGI: 1
  m_PreserveUVs: 0
  m_IgnoreNormalsForChartDetection: 0
  m_ImportantGI: 0
  m_StitchLightmapSeams: 1
  m_SelectedEditorRenderState: 3
  m_MinimumChartSize: 4
  m_AutoUVMaxDistance: 0.5
  m_AutoUVMaxAngle: 89
  m_LightmapParameters: {fileID: 0}
  m_SortingLayerID: 0
  m_SortingLayer: 0
  m_SortingOrder: 0
  m_AdditionalVertexStreams: {fileID: 0}
--- !u!1 &7558352278649646538
GameObject:
  m_ObjectHideFlags: 0
  m_CorrespondingSourceObject: {fileID: 0}
  m_PrefabInstance: {fileID: 0}
  m_PrefabAsset: {fileID: 0}
  serializedVersion: 6
  m_Component:
  - component: {fileID: 3033408033108101657}
  - component: {fileID: 440078500320766648}
  - component: {fileID: 4418165198601291909}
  m_Layer: 13
  m_Name: PW_Plant_Fern_Realistic_02_LOD0
  m_TagString: Untagged
  m_Icon: {fileID: 0}
  m_NavMeshLayer: 0
  m_StaticEditorFlags: 82
  m_IsActive: 1
--- !u!4 &3033408033108101657
Transform:
  m_ObjectHideFlags: 0
  m_CorrespondingSourceObject: {fileID: 0}
  m_PrefabInstance: {fileID: 0}
  m_PrefabAsset: {fileID: 0}
  m_GameObject: {fileID: 7558352278649646538}
  m_LocalRotation: {x: 0, y: -0, z: -0, w: 1}
  m_LocalPosition: {x: -0, y: 0, z: 0}
  m_LocalScale: {x: 1, y: 1, z: 1}
  m_Children: []
  m_Father: {fileID: 4165902754738160317}
  m_RootOrder: 0
  m_LocalEulerAnglesHint: {x: 0, y: 0, z: 0}
--- !u!33 &440078500320766648
MeshFilter:
  m_ObjectHideFlags: 0
  m_CorrespondingSourceObject: {fileID: 0}
  m_PrefabInstance: {fileID: 0}
  m_PrefabAsset: {fileID: 0}
  m_GameObject: {fileID: 7558352278649646538}
  m_Mesh: {fileID: -3065707642417356176, guid: a9683b1d7f7bba742837b4e84c513b74, type: 3}
--- !u!23 &4418165198601291909
MeshRenderer:
  m_ObjectHideFlags: 0
  m_CorrespondingSourceObject: {fileID: 0}
  m_PrefabInstance: {fileID: 0}
  m_PrefabAsset: {fileID: 0}
  m_GameObject: {fileID: 7558352278649646538}
  m_Enabled: 1
  m_CastShadows: 1
  m_ReceiveShadows: 1
  m_DynamicOccludee: 1
  m_MotionVectors: 1
  m_LightProbeUsage: 1
  m_ReflectionProbeUsage: 1
  m_RayTracingMode: 2
  m_RayTraceProcedural: 0
  m_RenderingLayerMask: 1
  m_RendererPriority: 0
  m_Materials:
  - {fileID: 2100000, guid: ffd66850ca8278f4c88b7a20b4bcba76, type: 2}
  m_StaticBatchInfo:
    firstSubMesh: 0
    subMeshCount: 0
  m_StaticBatchRoot: {fileID: 0}
  m_ProbeAnchor: {fileID: 0}
  m_LightProbeVolumeOverride: {fileID: 0}
  m_ScaleInLightmap: 1
  m_ReceiveGI: 1
  m_PreserveUVs: 0
  m_IgnoreNormalsForChartDetection: 0
  m_ImportantGI: 0
  m_StitchLightmapSeams: 1
  m_SelectedEditorRenderState: 3
  m_MinimumChartSize: 4
  m_AutoUVMaxDistance: 0.5
  m_AutoUVMaxAngle: 89
  m_LightmapParameters: {fileID: 0}
  m_SortingLayerID: 0
  m_SortingLayer: 0
  m_SortingOrder: 0
  m_AdditionalVertexStreams: {fileID: 0}
--- !u!1001 &3351563509831628438
PrefabInstance:
  m_ObjectHideFlags: 0
  serializedVersion: 2
  m_Modification:
    m_TransformParent: {fileID: 4165902754738160317}
    m_Modifications:
    - target: {fileID: 369080890256890918, guid: 8e0dd237ca3a98f48b0b8e55f1a3ed51,
        type: 3}
      propertyPath: m_RootOrder
      value: 2
      objectReference: {fileID: 0}
    - target: {fileID: 369080890256890918, guid: 8e0dd237ca3a98f48b0b8e55f1a3ed51,
        type: 3}
      propertyPath: m_LocalPosition.x
      value: 0
      objectReference: {fileID: 0}
    - target: {fileID: 369080890256890918, guid: 8e0dd237ca3a98f48b0b8e55f1a3ed51,
        type: 3}
      propertyPath: m_LocalPosition.y
      value: 0
      objectReference: {fileID: 0}
    - target: {fileID: 369080890256890918, guid: 8e0dd237ca3a98f48b0b8e55f1a3ed51,
        type: 3}
      propertyPath: m_LocalPosition.z
      value: 0
      objectReference: {fileID: 0}
    - target: {fileID: 369080890256890918, guid: 8e0dd237ca3a98f48b0b8e55f1a3ed51,
        type: 3}
      propertyPath: m_LocalRotation.w
      value: 1
      objectReference: {fileID: 0}
    - target: {fileID: 369080890256890918, guid: 8e0dd237ca3a98f48b0b8e55f1a3ed51,
        type: 3}
      propertyPath: m_LocalRotation.x
      value: 0
      objectReference: {fileID: 0}
    - target: {fileID: 369080890256890918, guid: 8e0dd237ca3a98f48b0b8e55f1a3ed51,
        type: 3}
      propertyPath: m_LocalRotation.y
      value: 0
      objectReference: {fileID: 0}
    - target: {fileID: 369080890256890918, guid: 8e0dd237ca3a98f48b0b8e55f1a3ed51,
        type: 3}
      propertyPath: m_LocalRotation.z
      value: 0
      objectReference: {fileID: 0}
    - target: {fileID: 369080890256890918, guid: 8e0dd237ca3a98f48b0b8e55f1a3ed51,
        type: 3}
      propertyPath: m_LocalEulerAnglesHint.x
      value: 0
      objectReference: {fileID: 0}
    - target: {fileID: 369080890256890918, guid: 8e0dd237ca3a98f48b0b8e55f1a3ed51,
        type: 3}
      propertyPath: m_LocalEulerAnglesHint.y
      value: 0
      objectReference: {fileID: 0}
    - target: {fileID: 369080890256890918, guid: 8e0dd237ca3a98f48b0b8e55f1a3ed51,
        type: 3}
      propertyPath: m_LocalEulerAnglesHint.z
      value: 0
      objectReference: {fileID: 0}
    - target: {fileID: 1424558505277501906, guid: 8e0dd237ca3a98f48b0b8e55f1a3ed51,
        type: 3}
      propertyPath: m_Name
      value: PW_Plant_Fern_Realistic_02_LOD2
      objectReference: {fileID: 0}
    - target: {fileID: 1424558505277501906, guid: 8e0dd237ca3a98f48b0b8e55f1a3ed51,
        type: 3}
      propertyPath: m_Layer
      value: 13
      objectReference: {fileID: 0}
    - target: {fileID: 1424558505277501906, guid: 8e0dd237ca3a98f48b0b8e55f1a3ed51,
        type: 3}
      propertyPath: m_StaticEditorFlags
      value: 82
      objectReference: {fileID: 0}
    m_RemovedComponents: []
  m_SourcePrefab: {fileID: 100100000, guid: 8e0dd237ca3a98f48b0b8e55f1a3ed51, type: 3}
--- !u!4 &3142413423422827184 stripped
Transform:
  m_CorrespondingSourceObject: {fileID: 369080890256890918, guid: 8e0dd237ca3a98f48b0b8e55f1a3ed51,
    type: 3}
  m_PrefabInstance: {fileID: 3351563509831628438}
  m_PrefabAsset: {fileID: 0}
--- !u!23 &9062377126929282766 stripped
MeshRenderer:
  m_CorrespondingSourceObject: {fileID: 6000803211870617688, guid: 8e0dd237ca3a98f48b0b8e55f1a3ed51,
    type: 3}
  m_PrefabInstance: {fileID: 3351563509831628438}
  m_PrefabAsset: {fileID: 0}
